"period","date","level","fact_fr","fact_mk"
"contemporaine","18 septembre 1981","easy","Abolition de la peine de mort","„Укинување на смртната казна“"
"moderne","26 août 1789","easy","Adoption de la déclaration des droits de l’Homme et du citoyen","„Усвојување на Декларацијата за правата на човекот и граѓанинот“"
"contemporaine","14 janvier 1930","easy","Adoption de la loi Maginot instaurant une ligne de défense","„Усвојување на законот Магинот за воспоставување линија за одбрана“"
"contemporaine","13 octobre 1946","easy","Adoption de la nouvelle constitution (IVeme république) par référendum","„Усвојување на новиот устав (Четврта Република) со референдум“"
"contemporaine","28 septembre 1958","easy","Approbation de la constitution de la Veme république par référendum (79% de oui)","„Одобрување на уставот на Петтата Република со референдум (79% да)"
"contemporaine","28 janvier 1871","easy","Armistice franco-allemand_ capitulation de Paris","„Француско-германско примирје_ капитулација на Париз“"
"moderne","21 juin 1791","easy","Arrestation de la famille royale à Varennes","„Апсење на кралското семејство во Вареннес“"
"contemporaine","16-17 juillet 1942","easy","Arrestation de nombreux Juifs parisiens lors de la rafle du « Vel’ d’hiv »","„Уапсеност на многу париски Евреи за време на рацијата на„ Велхив "
"Moyen-âge","13 octobre 1307","easy","Arrestation des Templiers en France","„Апсење на темплари во Франција“"
"contemporaine","31 juillet 1914","easy","Assassinat à Paris de Jean Jaurès hostile à la guerre par R. Villain","„Атентат во Париз на Jeanан uresарес непријателски настроен кон војната од Р. Вилијан“"
"contemporaine","28 juin 1914","easy","Assassinat de l’archiduc François-Ferdinand d’Autriche à Sarajevo_ ce tragique évènement augmenta les tensions existantes","„Атентат врз Архукеј Франк Фердинанд од Австрија во Сараево_ овој трагичен настан ги зголеми постојните тензии“"
"Moyen-âge","25 décembre 498","easy","Baptême de Clovis à Reims","„Крштение на Кловис во Ремс“"
"contemporaine","11 novembre 1918","easy","Capitulation de l’Allemagne à Rethondes","„Капитулација на Германија во Редондес“"
"moderne","5 et 6 octobre 1789","easy","Ces deux jours font partis des « grandes journées » de la Révolution française et ont abouti au retour définitif et contraint du roi Louis XVI et de sa famille à Paris_ « Journées d’octobre ». La foule envahit le château de Versailles","„Овие два дена се дел од„ одличните денови “на Француската револуција и резултираа со конечно и присилно враќање на кралот Луј Шеснаесетти и неговото семејство во Париз_„ Денови на октомври."
"Moyen-âge","25 décembre 800","easy","Charlemagne est couronné empereur de l’empire des Romains à Rome par le pape Léon III","„Карло Велики е крунисан за цар на Римската империја во Рим од папата Лео III“"
"Moyen-âge",732,"easy","Charles Martel remporte la bataille à Poitiers contre les Musulmans mettant fin à l’invasion sarrasine en France","„Чарлс Мартел ја победи битката во Поатје против муслиманите што стави крај на инвазијата на Сарацен во Франција“"
"contemporaine","4 septembre 1870","easy","Chute du Second Empire. Proclamation de la République","„Пад на Втората Империја_ Прогласување на Републиката“"
"Moyen-âge",481,"easy","Clovis roi des Francs. Avènement de Clovis_ qui devient roi des Francs","„Кловис крал на Франките_ доаѓањето на Кловис_ кој станува крал на Франките“"
"contemporaine","20 août 1857","easy","Condamnation de Baudelaire pour les « Fleurs du mal »","„Осуда на Бодлер за„ Цветовите на злото ““"
"contemporaine","18 mai 1804","easy","Constitution de l’An XII_ Napoléon devient empereur","„Устав на годината XII_ Наполеон станува Царот“"
"contemporaine","1 janvier 1958","easy","Création de la Communauté Économique Européenne (CEE)","„Создавање на Европската економска заедница (ЕЕЗ)“"
"contemporaine","22 juillet 1940","easy","Création des Forces Françaises Libres (FFL)_ nom donné aux forces armées ralliées à la France libre sous l'égide du général de Gaulle","„Создавање на слободни француски сили (ФФЛ)_ име дадено на вооружените сили собрани на слободната Франција под покровителство на генерал де Гол“"
"contemporaine",2015,"easy","Crise migratoire_ plus d’un million de migrants sont arrivés cette année-là en Europe","„Миграциска криза_ повеќе од еден милион мигранти пристигнаа таа година во Европа“"
"contemporaine","21 décembre 1958","easy","De Gaulle devient président de la République","„Де Гол станува претседател на Републиката“"
"contemporaine","2 juin 1958","easy","De Gaulle obtient les pleins pouvoirs constitutionnels","„Де Гол ги добива целосните уставни овластувања“"
"contemporaine","6 juin 1944","easy","Débarquement allié en Normandie (opération Overlord)","Сојузничкото слетување во Нормандија (оператор)"
"contemporaine","27 juillet 1830","easy","Début de l’insurrection à Paris (Les Trois Glorieuses)_ la révolution de Juillet est la deuxième révolution française","„Почеток на востанието во Париз (Трите славни)_ револуцијата во јули е втора француска револуција“"
"contemporaine","21 février 1916","easy","Début de l’offensive allemande sur Verdun","„Почеток на германската офанзива на Вердун“"
"contemporaine","7 novembre 1917","easy","Début de la « Révolution d’octobre » en Russie_ un mois après l'Armistice de Brest-Litovsk entre la Russie et l’Allemagne est conclue","„Почеток на„ Октомвриската револуција “во Русија_ еден месец по склучувањето на огнено оружјето на Брест-Литовск меѓу Русија и Германија“"
"contemporaine","6-13 septembre 1914","easy","Début de la bataille de la Marne","„Почеток на битката кај Марне“"
"contemporaine","6 mai 1968","easy","Début des manifestations d'étudiants_ ainsi que des grèves générales et sauvages_ plus connu sous le nom de Mai…","„Почеток на студентски демонстрации_ како и генерални и диви штрајкови_ познати како Мај ...“"
"contemporaine","19 juillet 1870","easy","Déclaration de guerre à la Prusse","„Декларација за војна на Прусија“"
"contemporaine","21 septembre 1792","easy","Déclaration de la république_  An I de la république","„Декларација на Републиката_ Година I на Републиката“"
"contemporaine","18 juin 1815","easy","Défaite de Napoléon à Waterloo","„Пораз на Наполеон во Ватерло“"
"contemporaine","25-29 nov. 1812","easy","Désastre de la Bérézina_ les troupes impériales en retraite subissent de grosse perte face une armée russe inférieure en nombre. Ce fait a tellement marqué la mémoire française_ que l’expression « C'est une Bérézina » est fréquemment utilisée pour caractériser une déroute sur le plan sportif ou électoral","„Катастрофа на Березина_ повлечените империјални трупи претрпуваат голема загуба пред руската армија инфериорна во број.Овој факт толку ја обележа француската меморија_ што изразот„ Тоа е Березина “често се користи за да се карактеризира пораз спортски или изборен "
"contemporaine","23 décembre 1973","easy","Doublement du prix du pétrole brut lors de la réunion de l’Opep à Téhéran_  début de la première crise pétrolière","„Двојно зголемување на цената на суровата нафта на состанокот на ОПЕК во Техеран_ почеток на првата нафтена криза“"
"moderne","18 octobre 1685","easy","Édit de Fontainebleau révoquant l’édit de Nantes","„Едикт на Фонтајнбело со кој се одзема Едиктот на Нант“"
"moderne","13 avril 1598","easy","Édit de Nantes_ le catholicisme est religion d’état et le protestantisme minorité reconnue","„Едикт на Нант_ католицизмот е државна религија_ а протестантството признати малцинство“"
"moderne","17 janvier 1562","easy","Édit de Saint-Germain réglementant l’exercice du culte protestant","„Едикт на Сен Germермен со кој се уредува вежбањето на протестантското обожавање“"
"moderne","Août 1539","easy","Édit de Villers-Cotterêts instituant le français comme langue officielle du royaume","„Едикт на Вилерс-Котертес кој го утврдува францускиот јазик како официјален јазик на кралството“"
"contemporaine","16 mai 2007","easy","Election de Nicolas Sarkozy à la présidence de la république","„Избор на Никола Саркози за претседател на републиката“"
"contemporaine","7 mai 2017","easy","Emmanuel Macron devient le 8e président de la République.","„Емануел Макрон станува осмиот претседател на Републиката“."
"contemporaine",2002,"easy","Entrée en vigueur de l’Euro (1er janvier). Jacques Chirac est réélu président","„Влегување во сила на еврото (1 јануари) Jacак Ширак е реизбран за претседател“"
"Moyen-âge","30 mai 1431","easy","Exécution de Jeanne d’Arc place du vieux marché à Rouen","„Executionоан Арт место за извршување на стариот пазар во Руан“"
"contemporaine","16 octobre 1793","easy","Exécution de Marie-Antoinette","„Егзекуција на Мари Антоанета“"
"contemporaine","21 janvier 1793","easy","Exécution du roi Louis XVI","„Егзекуција на кралот Луј XVI“"
"contemporaine","28 juillet 1794","easy","Exécution sans jugement de Robespierre_ Saint-Just et leurs amis","„Егзекуција без пресуда за Робеспјер_ Сен-Само и нивните пријатели“"
"antique","août 476","easy","Fin de l’empire romain d’Occident. Romulus Augustule est déposé_ marquant la fin de l’empire romain d’Occident","„Крајот на Римската империја на Западот Ромул Август е депониран_ со што се означува крајот на Западното Римско Царство“"
"antique",-43,"easy","Fondation de la colonie romaine de Lugdunum (Lyon)","Фондација на римската колонија на Лугдунум (Лион)"
"antique",-118,"easy","Fondation de Narbonne par les Romains","„Фондација на Нарбон од Римјаните“"
"contemporaine","15 mai 2012","easy","François Hollande devient président de la république.","„Франсоа Оланд станува претседател на републиката“."
"contemporaine","8 mai 1988","easy","François Mitterrand (54_01 %) est réélu président de la république devant Jacques Chirac","„Франсоа Митеран (54_01%) е реизбран за претседател на републиката пред Jacак Ширак“"
"moderne","20 juin 1791","easy","Fuite de la famille royale","„Бегство од кралското семејство“"
"contemporaine","15 juin 1969","easy","Georges Pompidou remporte les élections (58%) présidentielles devant Alain Poher","„Geорж Помпиду победи на претседателските избори (58%) пред Ален Похер“"
"Moyen-âge",1348,"easy","Grande Peste en France","„Голема чума во Франција“"
"moderne","13 juin 1576","easy","Henri de Navarre abjure le catholicisme et reprend la tête du parti protestant","„Хенри де Наваре го злоупотребува католицизмот и земи го главата на протестантската партија“"
"moderne","25 juillet 1593","easy","Henri IV abjure le protestantisme et devient catholique. « Paris vaut bien une messe »","Хенри IV го злоупотреби протестантизмот и стана католик Париз вреди за маса "
"contemporaine","7 mai 1995","easy","Jacques Chirac (52_64%) remporte au second tour les élections présidentielles","„Quesак Ширак (52_64%) победи во вториот круг на претседателските избори“"
"Moyen-âge","8 mai 1429","easy","Jeanne d’Arc délivre Orléans","„Anоан на Арка го доставува Орлеанс“"
"contemporaine","3 août 1914","easy","L’Allemagne déclare la guerre à la France","„Германија и објави војна на Франција“"
"contemporaine","1 août 1914","easy","L’Allemagne déclare la guerre à la Russie","„Германија објави војна на Русија“"
"contemporaine","4 août 1914","easy","L’Angleterre déclare la guerre à l’Allemagne suite à la violation de la neutralité belge","„Англија објави војна на Германија по повредата на белгиската неутралност“"
"contemporaine","23 juin 1916","easy","L’offensive allemande sur Verdun est stoppée","„Германската офанзива на Вердун е стопирана“"
"antique",-52,"easy","La bataille d’Alésia. Échec de l’insurrection des Gaules de Vercingétorix","„Битката на Алесија_ неуспех на востанието на галите на Верцингерикс“"
"contemporaine","18 décembre 1916","easy","La bataille de Verdun s’achève sur une victoire française","„Битката кај Вердун завршува со француска победа“"
"Moyen-âge","19 octobre 1453","easy","La capitulation de Bordeaux marque la fin de la guerre de Cent Ans et le retour de la Guyenne (ancienne province_ située dans le sud-ouest de la France) sous domination française","„Капитулацијата на Бордо означува крај на стогодишната војна и враќањето на Гвајни (поранешна провинција_ лоцирана на југо-западниот дел на Франција) под француска доминација“"
"moderne","14 juillet 1789","easy","La foule s’empare de la Bastille et massacre De Launay_ son gouverneur (date de la fête nationale française)","„Толпата го зазема Бастилја и ги масакрираше Де Лаунеј_ нејзиниот гувернер (датум на францускиот национален празник)“"
"contemporaine",2015,"easy","La France est la cible d’une série d’attentats_ revendiqués par des terroristes se disant islamistes","„Франција е мета на низа напади_ за кои тврдат терористи се нарекуваат исламисти“"
"contemporaine","3 septembre 1939","easy","La France et l’Angleterre déclarent la guerre à l’Allemagne (début de la Seconde Guerre Mondiale pour la France)","„Франција и Англија are објавуваат војна на Германија (почеток на Втората светска војна за Франција)“"
"contemporaine","2 septembre 1939","easy","La France ordonne la mobilisation générale","„Франција нареди генерална мобилизација“"
"contemporaine","28 avril 1969","easy","Le général De Gaulle annonce sa démission_ suite à l’échec du référendum sur la régionalisation du Sénat","„Генералот Де Гол ја објави својата оставка_ по неуспехот на референдумот за регионализација на Сенатот“"
"contemporaine","10 juillet 1940","easy","Le Parlement accorde au maréchal Pétain les pleins pouvoirs (569 voix pour 80 contre et 17 absentions)","„Парламентот му додели на целосните овластувања на Маршал Петајн (569 гласа за 80 против и 17 отсуства)“"
"contemporaine","21 juin 1981","easy","Le parti socialiste remporte les élections législatives suite à la dissolution","„Социјалистичката партија победи на парламентарните избори по распадот“"
"antique",-390,"easy","Le Sac de Rome. Les Gaulois de Brennus s’emparent de Rome après 7 mois de siège et se retire contre une forte rançon","„Торбата на Рим: Галите на Бренан го заземаат Рим по 7 месеци опсада и се повлекоа против силниот откуп“"
"contemporaine","2007-2009","easy","Le traité de Lisbonne donne naissance à une nouvelle entité juridique : l’Union Européenne","„Договорот од Лисабон раѓа ново правно лице: Европската унија“"
"Moyen-âge",711,"easy","Les Arabes débarquent en Espagne","Арапите слета во Шпанија"
"Moyen-âge","10 avril 1302","easy","Les États Généraux confirme l’indépendance du roi face au pape","„Генералните држави ја потврдија независноста на кралот во однос на папата“"
"contemporaine","2 avril 1917","easy","Les États-Unis déclarent la guerre à l’Allemagne","„Соединетите држави објавија војна на Германија“"
"Moyen-âge","24 juin  843","easy","Les Normands s’emparent de Nantes","„Норманите ги зазедоа Нант“"
"Moyen-âge","1 novembre 1337","easy","Lettre de défi d’Édouard III_ Début de la guerre de cent ans","„Предизвик писмо од Едвард III_ почеток на стогодишната војна“"
"contemporaine","25 août 1944","easy","Libération de Paris","„Ослободување на Париз“"
"contemporaine","5 avril 1884","easy","Loi d’organisation municipale prévoyant le suffrage universel pour les élections","„Закон на општинската организација за универзални избори за избори“"
"contemporaine","16 juin 1881","easy","Loi Jules Ferry sur la gratuité de l’enseignement primaire","„Lawил Фери закон за бесплатно основно образование“"
"contemporaine","9 mars 1868","easy","Loi rétablissant la liberté de la presse","„Акт за враќање на слободата на печатот“"
"contemporaine","29 juillet 1881","easy","Loi sur la liberté de la presse","„Закон за слобода на печатот“"
"contemporaine","30 juin 1881","easy","Loi sur la liberté de réunion","„Закон за слобода на собирање“"
"contemporaine","10 juin 1794","easy","Lois de prairial sur le tribunal révolutionnaire_ début de la Grande Terreur","„Закони за препориум за револуционерниот трибунал_ почеток на големиот терор“"
"Moyen-âge",817,"easy","Louis Ier proclame (Ordinatio imperii) son fils Lothaire empereur rompant avec la tradition Franque (Partage)","„Луис I го прогласи (Ordinatio imperii) неговиот син Императорот Лотаир кршејќи ја традицијата Франк (Парција)“"
"contemporaine","10 décembre 1848","easy","Louis-Napoléon Bonaparte est élu président de la République (74_2%)","„Луис-Наполеон Бонапарта е избран за претседател на Републиката (74_2%)“"
"moderne","24 août 1572","easy","Massacre de la Saint-Barthélemy_ mort de Coligny_ abjuration de Condé et de Henri de Navarre_ début du siège de La Rochelle et de la quatrième Guerre de religion","Масакрот на Свети Вартоломеј_ смрт на Колињи_ абдурирање на Конде и Хенри од Навара_ почеток на опсадата на Ла Рошел и четвртата војна на религијата"
"moderne","1 mars 1562","easy","Massacre des protestants à Wassy par le duc de Guise_ permière guerre de religion","„Масакрот на протестантите во Васи од страна на војводата од маж_ прва религиозна војна“"
"Moyen-âge","24 septembre 768","easy","Mort de Pépin le bref à Saint-Denis_ son fils Charlemagne lui succède","„Смртта на Пепин краткиот во Сен Дени_ неговиот син Карло Велики го наследи“"
"contemporaine","18 septembre 1812","easy","Napoléon quitte Moscou en flammes_ début de la retraite de Russie","„Наполеон ја напушта Москва во пламен_ предвремено пензионирање од Русија“"
"moderne","1 juillet 1573","easy","Paix de La Rochelle accordant liberté de conscience et de culte à La Rochelle_ Nîmes et Montauban","„Мирот на Ла Рошел кој дава слобода на совест и обожавање во Ла Рошел_ Нимес и Монтабан“"
"contemporaine","2 décembre 1852","easy","Proclamation du Second Empire","„Прогласување на Втората империја“"
"contemporaine","4 mai 1848","easy","Proclamation officielle de la République par l’Assemblée","„Службена прогласување на Републиката од страна на Собранието“"
"contemporaine","21 mars 1804","easy","Promulgation du Code Civil","„Објавување на граѓанскиот законик“"
"contemporaine","20 septembre 1992","easy","Référendum sur le traité de Maastricht (51_04 % de oui)","„Референдум за Договорот од Мастрихт (51_04% да)"
"contemporaine","2 décembre 1804","easy","Sacre de Napoléon en présence de Pie VII à Notre-Dame","„Ритуал на Наполеон во присуство на Пиус VII во Нотр Дам“"
"Moyen-âge","7 juillet 1438","easy","Sanction de Bourges de Charles VII affranchissant l’église de la tutelle du pape","„Санкцијата на Буржот Чарлс VII ја издвојува црквата на поучувањето на папата“"
"moderne","20 juin 1789","easy","Serment du jeu de paume : l’Assemblée Nationale se proclame Assemblée Nationale Constituante","„Заклетва за играта на дланката: Националното собрание го прогласи Националното конститутивно собрание“"
"contemporaine","22 juin 1940","easy","Signature de l’armistice à Rethondes_  la moitié nord et les côtes atlantiques sont occupés par l’armée allemande","„Потпис на примирјето во Ретонддес_ северната половина и атлантскиот брег се окупирани од германската армија“"
"contemporaine","8-9 mai 1945","easy","Signature officielle de la capitulation allemande par le général Keitel à Berlin","„Официјално потпишување на германската капитулација од генералот Кител во Берлин“"
"contemporaine","25 mai 1864","easy","Suppression du droit de coalition accordant ainsi le droit de grève","„Задушување на правото на коалиција со што се дава право на штрајк“"
"contemporaine","31 août 1871","easy","Thiers est élu président de la république et l’assemblée nationale devient constituante","„Терс е избран за претседател на републиката и националното собрание станува конститутивно“"
"contemporaine","18 avril 1951","easy","Traité créant la Communauté Européenne du Charbon et de l’Acier (CECA)","„Договор за основање на Европската заедница за јаглен и челик (ЕЦСЦ)“"
"contemporaine","10 mai 1871","easy","Traité de Francfort instituant la paix avec l’Allemagne en contrepartie de l’Alsace_ la Lorraine et d’indemnités","„Договорот од Франкфурт за воспоставување мир со Германија како замена за Алзас_ Лорен и обештетување“"
"moderne"," 3 septembre 1783","easy","Traité franco-anglais de Versailles reconnaissant l’indépendance des États-unis","„Франко-англиски договор на Версај со кој се признава независност на Соединетите држави“"
"contemporaine","19 mai 1974","easy","Valéry Giscard-d’Estaing (50_71%) remporte les élections présidentielles devant François Mitterrand","„Валери Гискард-dEstaing (50_71%) победи на претседателските избори пред Франсоа Митеран“"
"moderne","14 septembre 1515","easy","Victoire de François Ier à Marignan","„Победа на Френсис I во Мариган“"
"contemporaine","10 mai 1981","easy","Victoire de François Mitterrand (51_75%) aux élections présidentielles devant Valéry Giscard-d’Estaing","„Победа на Франсоа Митеран (51_75%) на претседателските избори пред Валери Гискард-dEstaing“"
"contemporaine","2 décembre 1805","easy","Victoire de Napoléon à Austerlitz contre les Russes et les Autrichiens","„Победа на Наполеон кај Аустерлиц против Русите и Австријците“"
"Moyen-âge",759,"easy","Victoire de Pépin le Bref près de Narbonne contre les Arabes qui replient en Espagne","„Победа на Пепин краткиот крај Нарбона против Арапите кои се склопуваат во Шпанија“"
"contemporaine","24 mai 1869","easy","Victoire républicaine aux élections législatives","„Републиканска победа на парламентарните избори“"
"Moyen-âge",639,"hard","« Début du règne des maires du palais ». Les maires du palais étaient les plus hauts dignitaires_ après les rois_ des royaumes francs qui couvraient alors l'essentiel de la France_ l'Allemagne et le Benelux actuels."," Почетокот на владеењето на градоначалниците на палатата. Градоначалниците на палатата беа највисоки достоинственици_ по кралевите_ на франкските кралства што тогаш ги опфаќаа повеќето од Франција_ Германија и струјата на Бенелукс."
"contemporaine","21 octobre 1945","hard","Abolition de la constitution de la IIIe République et élection d’une assemblée constituante","„Укинување на уставот на Третата Република и избор на конститутивно собрание“"
"contemporaine","7 juin 1936","hard","Accords de Matignon entre patronat et syndicats","„Договори со Матињон меѓу работодавците и синдикатите“"
"contemporaine","25 juin 1928","hard","Adoption d’une loi monétaire dévaluant le franc marquant l’abandon du franc germinal","„Усвојување на монетарен закон што ја девалвира франкот што означува напуштање на франк герминалот“"
"moderne","12 juillet 1790","hard","Adoption de la Constitution civile du clergé","„Усвојување на граѓанскиот устав на свештенството“"
"contemporaine","2 juillet 1914","hard","Adoption de la loi Caillaux sur l’impôt sur le revenu","„Усвојување на законот Caillaux за данок на доход“"
"contemporaine","26 octobre 1981","hard","Adoption de la loi sur les nationalisations","„Усвојување на законот за национализација“"
"contemporaine","27 septembre 1981","hard","Adoption du projet d’impôt sur la fortune","„Усвојување на проект за данок на богатство“"
"contemporaine","28 janvier 1982","hard","Adoption du projet de loi sur la décentralisation","„Усвојување на нацрт-законот за децентрализација“"
"contemporaine","2 octobre 1981","hard","Adoption du projet de loi sur les radios libres","„Усвојување на сметка за бесплатни радија“"
"contemporaine","24 septembre 2000","hard","Adoption du quinquennat (la présidence dure 5 années) (73_24%) lors d’un référendum marqué par l’abstention (68%)","„Усвојување на квикуниум (претседателството трае 5 години) (73_24%) на референдум означен со воздржаност (68%)“"
"antique","Juin 451","hard","Aetius bat les Huns sur les Champs Catalauniques près de Troyes","„Етиј ги победи Хуните на каталонските полиња во близина на Троја“"
"Moyen-âge","2 décembre 1419","hard","Alliance entre Philippe le Bon_ duc de Bourgogne et Henri V d’Angleterre","„Сојуз меѓу Филип Добри_ војвода од Бургундија и Хенри V од Англија“"
"contemporaine","30 janvier 1875","hard","Amendement Wallon instituant la république","„Валонски амандман воведува републиката“"
"Moyen-âge",774,"hard","Annexion de la Lombardie","„Анексија на Ломбардија“"
"moderne","5 septembre 1661","hard","Arrestation de Fouquet à Nantes_ accusé de détournement de fonds","„Апсење на Фукет во Нант_ обвинет за проневера“"
"Moyen-âge","31 juillet  1451","hard","Arrestation de Jacques Cœur accusé de conspiration et malversation","„Апсењето на quesак Коер обвинет за заговор и злосторство“"
"contemporaine","30-31 mars 1794","hard","Arrestation des chefs des Indulgents (Danton_ Desmoulins_ Delacroix_ Philippeaux_ Westerman…) 1794 5 avril Condamnation et exécution de Danton_ Desmoulins_ Fabre d’Eglantine et des Indulgents","„Апсење на лидерите на Индулгентите (Дантон_ Десмулинс_ Делакроа_ Филиппе_ Вестерман ...) 1794 5 април Осуда и егзекуција на Дантон_ Десмулинс_ Фабре од Елгантин и индулгентите“"
"Moyen-âge",584,"hard","Assassinat de Chilpéric (Neustrie) sur ordre de Frédégonde","„Атентат врз Чилпериќ (Неустрија) по наредба на Фредегонд“"
"moderne","14 mai 1610","hard","Assassinat de Henri IV par Ravaillac_ son fils Louis lui succède","„Убиството на Хенри IV од Раваилац_ неговиот син Луис го наследи“"
"Moyen-âge","10 septembre 1419","hard","Assassinat de Jean sans Peur au pont de Montereau_ son fils Philippe le Bon lui succède","„Атентат врз Johnон Бестрашен на мостот Монтерео_ неговиот син Филип Добри го наследи“"
"Moyen-âge",575,"hard","Assassinat de Sigebert (Austrasie) sur ordre de Frédégonde","„Атентат врз Сигеберт (Австрија) по наредба на Фредегонд“"
"contemporaine","13 février 1820","hard","Assassinat du duc de Berry (neveu du roi) par Louvel","„Атентат врз војводата од Бери (внук на кралот) од Лувел“"
"Moyen-âge","7 septembre 1303","hard","Attentat d’Anagni de Guillaume de Nogaret contre Boniface VIII","„Напад на Анаги Гијом де Ногарет против Бонифациј VIII“"
"contemporaine","28 juillet 1835","hard","Attentat de Fieschi contre Louis-Philippe_ provoquant la mort de 12 personnes","„Напад на Фиеши против Луј-Филип_ предизвикувајќи смрт на 12 лица“"
"antique",451,"hard","Avènement du chef franc Mérové","„Доаѓање на шефот на франкошијата Мерово“"
"contemporaine","13 juin 1982","hard","Blocage des prix et des salaires","„Блокирање на цените и платите“"
"moderne","28 octobre 1628","hard","Capitulation de La Rochelle","„Капитулација на Ла Рошел“"
"moderne","25 février 1497","hard","Capitulation de Tarente_ perte du royaume de Naples","„Капитулација на Таранто_ губење на Кралството Неапол“"
"moderne","21 décembre 1560","hard","Catherine de Médicis et Antoine de Bourbon sont nommés régents par le Conseil d’État","„Кетрин де Медичи и Антоан де Бурбон се назначени за регенти од страна на Советот на државата“"
"moderne","22 juillet 1472","hard","Charles le Téméraire échoue devant Beauvais","„Шарл Болд не успева пред Бовоајс“"
"contemporaine","16 mai 1830","hard","Charles X dissout la Chambre des députés","„Чарлс Икс ја распушта пратеничкиот дом“"
"antique",193,"hard","Claudius Albinus se fait proclamer empereur par ses légions en Bretagne","„Клаудиј Албинус е прогласен за император од неговите легии во Бретања“"
"Moyen-âge",613,"hard","Clotaire II fait exécuter Sigebert II et Brunehaut_ réunification du royaume","„Клоатар II ги извршува Сигеберт Втори и Брунехаут_ обединување на кралството“"
"Moyen-âge",524,"hard","Clothaire épouse Gontheuque_ veuve de Clodomir_ fait assassiner ses fils et s’empare de son royaume","„Сопругата на готверот Гонтека_ вдовица на Клодомир_ ги уби своите синови и го зазеде неговото кралство“"
"moderne","30 août 1455","hard","Compromis dans un complot_ le dauphin s’enfuit à Louvain","„Компромис во заговор_ делфинот побегна во Левен“"
"contemporaine","24 mars 1794","hard","Condamnation et exécution des chefs des Cordeliers (Hébert…)","„Осуда и егзекуција на водачите на кордерите (Хеберт ...)“"
"contemporaine","29-30 septembre 1938","hard","Conférence de Munich entre la France_ l’Angleterre_ l’Italie et l’Allemagne sur la question des Sudètes","„Минхенска конференција меѓу Франција_ Англија_ Италија и Германија за прашањето на Судетен“"
"contemporaine","23 novembre 1799","hard","Constitution de l’an VIII_  Napoléon Bonaparte_ Sieyès et Ducos sont nommés consuls ","„Уставот на годината VIII_ Наполеон Бонапарта_ Сијес и Дукос се прогласени за конзули“"
"contemporaine","1 juillet 1911","hard","Coup d’Agadir ou crise d’Agadir des Allemands contre les Français_ provoqué par l'envoi d'une canonnière (navire léger armé de canons) de la marine de guerre allemande dans la baie d'Agadir au Maroc","„Пуч на Агадир или Агадир криза на Германците против Французите_ предизвикана од испраќање на пиштол (лесен брод вооружен со пиштоли) на германската морнарица во заливот Агадир во Мароко“"
"contemporaine","11 mai 1798","hard","Coup d’état du 22 floréal du directoire contre les députés jacobins élus en avril. Le jacobinisme est une doctrine politique qui défend la souveraineté populaire et l'indivisibilité de la République française","„Државен удар од 22 Флореал на директориумот против пратениците на Jacејкобин избран во април Јакобинизмот е политичка доктрина која ја брани народната сувереност и неделивост на Француската Република“"
"contemporaine","18 juin 1799","hard","Coup d’état du 30 prairial_ les conseils contraignent les directeurs Merlin et La Revellière à la démission","„Државен удар од 30 престолнина_ советите ги принудуваат директорите Мерлин и Ла Ревелиер да си дадат оставка“"
"contemporaine","4 septembre 1797","hard","Coup d’état du directoire contre les royalistes_ Barras aidé de Napoléon prend le pouvoir","„Пуч на директориумот против кралците_ Барас помогна од Наполеон ја презема власта“"
"Moyen-âge","29 février 888","hard","Couronnement de Eudes à Compiègne","„Крунисување на Евди во Компињ“"
"moderne"," 8 juin 1576","hard","Création de la Sainte Ligue qui avait pour objectif de briser la progression des Turcs ottomans","„Создавање на Светата лига чија цел беше да се наруши напредокот на отоманските Турци“"
"contemporaine","29 décembre 1943","hard","Création des Forces Françaises de l’Intérieur (FFI)","„Создавање на француските сили за внатрешни работи (ФФИ)“"
"contemporaine","24 septembre 1941","hard","Création du Comité National de la France Libre à Londres par le général de Gaulle","„Создавање на Националниот комитет на слободна Франција во Лондон од генерал де Гол“"
"contemporaine","15 mai 1943","hard","Création du Conseil National de la Résistance (CNR)","„Создавање на Националниот совет на отпор (ЦНР)“"
"contemporaine","16 février 1943","hard","Création du Service du Travail Obligatoire (STO)","Креирање на Задолжителна работна услуга (СТО)"
"contemporaine","30 juin 1968","hard","De Gaulle remporte les élections législatives","„Де Гол победи на парламентарните избори“"
"contemporaine","27 juin 1795","hard","Débarquement d’une armée de quatre mille émigrés à Quiberon","„Слетување на војска од четири илјади емигранти на Квеберон“"
"contemporaine","28 décembre 1933","hard","Début de l’affaire Stavisky (escroc qui magouillait avec les politiques et est mort dans des circonstances étranges)","„Почеток на аферата Стависки (измамник кој се бореше со политика и почина во чудни околности)“"
"moderne","1 octobre 1791","hard","Début de l’Assemblée législative et de la monarchie constitutionnelle","„Почеток на законодавното собрание и уставната монархија“"
"antique",-800,"hard","Début de l’invasion des Celtes qui vont remplacer peu à peu les Ligures","„Почеток на инвазијата на Келтите кои постепено ќе ги заменат лигурите“"
"contemporaine","21 mars 1918","hard","Début de l’offensive allemande sur la Somme","„Почеток на германската офанзива на Сом“"
"moderne","Mars 1465","hard","Début de la guerre de Louis XI contre la Ligue du Bien Public de Charles le Téméraire et Charles de France","„Почеток на војната на Луј XI против Лигата на јавниот имот на Чарлс Болд и Чарлс од Франција“"
"moderne","2 septembre 1792","hard","Début des « Massacres de septembre » dans les prisons (jusqu’au 6)","„Почеток на„ септемвриските масакри “во затворите (до 6)"
"contemporaine","1 novembre 1795","hard","Début du directoire_ Il tire son nom du « directoire » c'est-à-dire l'ensemble des cinq directeurs_ chefs du gouvernement entre lesquels le pouvoir exécutif et les ministres sont répartis_ pour éviter la tyrannie_ et dont le siège est au palais du Luxembourg","„Почеток на Директориумот_ го носи името од„ Директориум “_ односно сите пет директори_ шефови на влади меѓу кои се поделени извршната власт и министрите_ за да се избегне тиранијата и чие место е во палатата Луксембург “"
"contemporaine","21 novembre 1806","hard","Décret de Berlin instituant un blocus contre l’Angleterre","„Берлинска уредба за воспоставување блокада против Англија“"
"Moyen-âge","25 octobre 1415","hard","Défaite de la chevalerie française à Azincourt face aux Anglais","„Пораз на француската витеженост во Азинкурд против Англичаните“"
"contemporaine","18 octobre 1813","hard","Défaite de Napoléon à Leipzig","„Пораз на Наполеон во Лајпциг“"
"contemporaine","25 août 1976","hard","Démission de Jacques Chirac_ Raymond Barre le remplace","„Оставка на quesак Ширак_ Рејмонд Баре го замени“"
"contemporaine","2 décembre 1887","hard","Démission de Jules Grévy suite au scandale des décorations","„Оставка на Jил Грејви по скандалот со украси“"
"contemporaine","9 novembre 1799","hard","Démission de Sieyès_ Barras et Ducos de l’exécutif provoquant la vacance du pouvoir_ coup d’état du 18 Brumaire","„Оставката на Сијес_ Барас и Дукос од извршната власт предизвикува празно место на власт_ државен удар на 18 Брумаер“"
"contemporaine","30 janvier 1879","hard","Démission du président Mac-Mahon","„Оставка на претседателот Мек-Махон“"
"Moyen-âge","4 juillet 1190","hard","Départ de Philippe Auguste pour la troisième croisade","„Поаѓање на Филип Аугуста за третата крстоносна војна“"
"Moyen-âge","12 juin 1248","hard","Départ de Saint-Louis pour la septième croisade","„Поаѓање на Сен Луис за седмата крстоносна војна“"
"contemporaine","12 juin 1982","hard","Dévaluation du franc","„Девалвација на франкот“"
"contemporaine","25 juin 1877","hard","Dissolution de l’Assemblée nationale (III République)","„Распуштање на Националното собрание (III Република)“"
"contemporaine","27 septembre 1939","hard","Dissolution du PCF","Растворање на ПЦФ"
"contemporaine","30 décembre 1919","hard","Du congrès de Tours naît la scission entre SFIO et PCF","„Од Конгрес на турнејата се раѓа разделбата меѓу SFIO и PCF“"
"Moyen-âge"," 2 octobre 1370","hard","Du Guesclin devient connétable (haute dignité)","Ду Гуеслин станува постојан (високо достоинство)"
"antique",70,"hard","Échec de « l’empire des Gaules » de Sabinus","„Неуспехот на„ империјата на Гал “на Сабинус“"
"moderne","17 mars 1560","hard","Échec de la conjuration d’Ambroise visant à enlever le roi","„Не успеавото заговор на Амброиз да го отстрани кралот“"
"contemporaine","12-13 mai 1839","hard","Échec des journées révolutionnaires de Barbès et Blanqui","„Неуспех во револуционерните денови на Барбес и Бланки“"
"contemporaine",2005,"hard","Echec du référendum pour une constitution européenne","„Неуспех на референдумот за европски устав“"
"antique",313,"hard","Édit de Milan venant confirmer la liberté de culte pour les chrétiens et la restitution des biens confisqués","„Уредба на Милано со која се потврдува слободата на обожавање на христијаните и враќањето на конфискуваниот имот“"
"moderne","8 août 1788","hard","Édit prévoyant la convocation des États Généraux (assemblée extraordinaire réunissant les trois ordres (les états) de la société : la noblesse_ le clergé et le tiers état (le reste)) pour le 1er mai","„Едикт кој предвидува свикување на Генералните држави (вонреден состанок со кој се собраа трите реда (држави) на општеството: благородништвото_ свештенството и третата држава (остатокот)) за 1 мај“"
"contemporaine","8 avril 1938","hard","Édouard Daladier remplace Léon Blum à la tête du gouvernement mettant fin au Front Populaire","„Едуар Даладиер го замени Леон Блум на чело на владата ставајќи крај на Народниот фронт“"
"contemporaine","26 mars 1871","hard","Élections de la commune de Paris","„Избори на општината Париз“"
"contemporaine","1 mars 1948","hard","Embuscade du Viet-minh contre un convoi français en Indochine (82†)","„Заседа на Виетнам против француски конвој во Индокина (82)“"
"Moyen-âge","22 février 1358","hard","Étienne Marcel soulève Paris avec l’aide de Charles le Mauvais","„Етиен Марсел го воспитува Париз со помош на Чарлс Бад“"
"moderne","31 juillet 1602","hard","Exécution de Biron ayant comploté contre le roi","„Егзекуцијата на Бирон заговорувана против кралот“"
"Moyen-âge",1314,"hard","Exécution de Jacques de Molay et Hugues de Pairaud","„Егзекуција на Jacак де Моле и Хјугс де Паирауд“"
"contemporaine","31 octobre 1793","hard","Exécution des Girondins.  (Brissot_ Vergniaud…) 1794 13-14 mars Arrestation des chefs hébertistes (Hébert_ Vincent_ Momoro_ Ronsin_ Carrier)","Егзекуција на Girирондините. (Брисото_ Вергнијауд ...) 1794 Април од 13 до 14 март апсење на лидерите на Хебертистите (Хеберт_ Винсент_ Моморо_ Ронсин_ Кариер)"
"contemporaine","15 septembre 1990","hard","F. Mitterrand annonce la participation de la France à la guerre du Golfe (opération « Daguet ») contre l’Irak","„Ф. Митеран го најавува учеството на Франција во Заливската војна (операција„ Даггут “) против Ирак“"
"contemporaine","21 juin 1848","hard","Fermeture des ateliers nationaux_ l'État intervenait directement en fournissant_ en organisant et en payant le travail. Cette « expérience » sociale a duré tout juste trois mois","„Затворање на национални работилници_ државата интервенираше директно преку обезбедување_ организирање и плаќање за работа. Ова социјално„ искуство “траеше само три месеци"
"moderne","14 juillet 1790","hard","Fête de la fédération au Champ-de-Mars_ Louis XVI prête serment à la constitution","„Празник на федерацијата во Шампи-де Марс_ Луј Шеснаесетти се заколна за уставот“"
"contemporaine","2 novembre 1919","hard","Fondation du Syndicat Confédération des Travailleurs Chrétiens (CFTC)","Фондација на Конфедерацијата на христијанските работници (ЦФТЦ)"
"contemporaine","23 novembre 1945","hard","Formation d’un gouvernement tripartite (MRP-PCF–SFIO) autour du général de Gaulle","„Формирање на трипартитна влада (МРП-ПЦФ-СФИО) околу генералот де Гол“"
"moderne","8 janvier 1558","hard","François_ duc de Guise s’empare de Calais","„Франсоа_ војводата на Гизе го фати Кале“"
"moderne","17 juillet 1791","hard","Fusillade du Champ-de-Mars contre les pétitionnaires demandant la déchéance du roi (50†)","„Престрелка Шампи-де-Марс против петицијарите кои бараат распаѓање на кралот (50)“"
"Moyen-âge"," 14 octobre 1066","hard","Guillaume de Normandie remporte la bataille de Hastings (Angleterre) contre Harold qui y trouve la mort","„Вилијам од Нормандија победи во битката на Хастингс (Англија) против Харолд кој наоѓа смрт“"
"moderne","23 décembre 1588","hard","Henri III fait assassiner le duc de Guise et son frère par le capitaine du Guast","„Хенри III го уби атај војводата од Гвисе и неговиот брат од страна на капетанот Густа“"
"moderne","22 mars 1594","hard","Henri IV entre à Paris_ onze provinces se rallie à lui","„Хенри IV влегува во Париз_ единаесет покраини со него собири“"
"contemporaine","31 mars 1905","hard","Incident franco-allemand de Tanger. Guillaume II refuse de reconnaître la souveraineté française","„Франко-германски инцидент во Тангиер_ Вилијам Втори одбива да го признае францускиот суверенитет“"
"antique",162,"hard","Incursions germaniques repoussées en Gaule","„Германските упади влегоа назад во Галија“"
"contemporaine","23-26 juin 1848","hard","Insurrection ouvrière à Paris_ en partie due à la fermeture des ateliers nationaux","„Работнички востание во Париз_ делумно заради затворање на национални работилници“"
"contemporaine","22 mars 1986","hard","Jacques Chirac devient premier ministre après avoir remporté les élections législatives_ première cohabitation (président de gauche et 1er ministre de droite)","„Jacак Ширак станува премиер по победата на парламентарните избори_ првиот кохабитација (левиот претседател и десничарскиот премиер)“"
"Moyen-âge","23 novembre 1407","hard","Jean sans Peur_ duc de Bourgogne_ quitte Paris après avoir fait assassiner Louis d’Orléans","„Theон Бестрашен_ војвода од Бургундија_ го напушта Париз по убиството на Луј од Орлеанс“"
"contemporaine","25 janvier 1882","hard","Krach de l’Union Générale provoquant la ruine de nombreux épargnants","„Крач на Генералниот сојуз предизвикувајќи пропаст на многу штедачи“"
"contemporaine","4 novembre 1911","hard","L’Allemagne reconnaît le protectorat français sur le Maroc en contrepartie du bassin de la Sangha (Congo)","„Германија го признава францускиот протекторат над Мароко во замена за сливот на Санга (Конго)“"
"contemporaine","21 mai 1871","hard","L’armée de Versailles entre dans Paris_ début de la semaine sanglante","„Версајската војска влегува во Париз_ почеток на крвавата недела“"
"contemporaine","5 octobre 1795","hard","L’armée réprime l’insurrection royaliste (300†)","„Армијата го потиснува кралското востание (300)“"
"contemporaine","28 juillet 1914","hard","L’Autriche-Hongrie déclare la guerre à la Serbie","„Австрија-Унгарија објави војна на Србија“"
"moderne","15 juin 1702","hard","La coalition déclare la guerre à la France_ début de la guerre de succession d’Espagne","„Коалицијата и објавува војна на Франција_ почеток на војната за сукцесија на Шпанија“"
"moderne","5-6 janvier 1649","hard","La cour s’enfuit à Saint-Germain_ Condé assiège Paris","„Судот избега во Сен Germермен_ Конде го опсадува Париз“"
"contemporaine","28 mars 1993","hard","La droite remporte les élections législatives_ nouvelle cohabitation","„Десното победи на законодавните избори_ новата кохабитација“"
"contemporaine","1 août 1798","hard","La flotte française est détruite à Aboukir par l’amiral Nelson","„Француската флота е уништена во Абукир од страна на адмирал Нелсон“"
"contemporaine","9 décembre 1905","hard","La France accepte le principe d’une conférence de paix internationale sur le Maroc","„Франција го прифаќа принципот на меѓународна мировна конференција за Мароко“"
"moderne","19 mai 1635","hard","La France déclare la guerre à l’Espagne","„Франција објави војна на Шпанија“"
"moderne","26 novembre 1688","hard","La France déclare la guerre à la Hollande_ début de la guerre contre la ligue d’Augsbourg","„Франција објави војна на Холандија_ почеток на војната против лигата на Аугсбург“"
"contemporaine","11 janvier 1923","hard","La France et la Belgique occupent la Ruhr pour contraindre l’Allemagne à payer les indemnités de guerre","„Франција и Белгија го окупираат Рур да ја принудат Германија да плати воени обештетувања“"
"contemporaine","27 janvier 1964","hard","La France reconnaît la République populaire de Chine","„Франција ја признава Народна Република Кина“"
"contemporaine","29 octobre 1924","hard","La France reconnaît officiellement l’URSS","„Франција официјално го признава СССР“"
"contemporaine","27 mars 1854","hard","La France_ l’Angleterre et la Turquie déclarent la guerre à la Russie","„Франција_ Англија и Турција decl објавија војна на Русија“"
"contemporaine","1 juin 1997","hard","La gauche plurielle (PS-Vert-PC) remporte les élection suite à la dissolution de l’Assemblé Nationale_ troisième cohabitation ","„Плуралката левица (ПС-Зелена-ПЦ) победи на изборите по распадот на Националното собрание_ трет соживот“"
"moderne","1618-1648","hard","La guerre de Trente Ans est une série de conflits armés qui a déchiré l’Europe","„Триесетгодишната војна е серија на вооружени судири што ја расипаа Европа“"
"contemporaine","21-22 décembre 1851","hard","Large plébiscite du coup d’État de Louis-Napoléon Bonaparte","„Голем плебисцит на пучот на Луис Наполеон Бонапарт“"
"contemporaine","11 mai 1924","hard","Le Cartel des gauches remporte les élections législatives","„Картелот на левицата победи на законодавните избори“"
"contemporaine","3 mai 1936","hard","Le Front populaire remporte les élections législatives_ début des grèves","„Народниот фронт победи на законодавни избори_ почеток на штрајкови“"
"contemporaine","30 mai 1968","hard","Le général de Gaulle annonce la dissolution de l’Assemblée nationale","„Генералот де Гол го најавува распаѓањето на Националното собрание“"
"contemporaine","9 septembre 1944","hard","Le général De Gaulle créé un gouvernement provisoire","„Генералот Де Гол создава привремена влада“"
"contemporaine","3 juin 1943","hard","Le général De Gaulle fonde le Comité Français de Libération Nationale (CFLN)","„Генералот Де Гол го формира Францускиот комитет за национално ослободување (ЦФЛН)“"
"contemporaine","14 avril 1947","hard","Le général De Gaulle fonde le Rassemblement du Peuple Français (RPF)","„Генералот Де Гол ја пронајде Расемблемент ду Поуп Франсаис (РПФ)“"
"contemporaine","15 mai 1917","hard","Le général Pétain remplace le général Nivelle à la tête des armées françaises","„Генералот Петајн го заменува генералот Нивеле на чело на француските армии“"
"contemporaine","3 juin 1944","hard","Le Gouvernement Provisoire de la France Libre (GPFL) remplace le CFLN","„Привремената влада на Слободна Франција (GPFL) го заменува ЦФЛН“"
"Moyen-âge",1208,"hard","Le pape ordonne la croisade contre les Albigeois sous la conduite de Simon de Monfort","„Папата ја нареди крстоносната војна против Албигенците под водство на Симон де Монфорт“"
"moderne","16 juillet 1787","hard","Le Parlement de Paris rejette les réformes fiscales et réclame des États Généraux","„Парискиот парламент ги отфрли даночните реформи и го тврди генералот имот“"
"moderne","8 octobre 1547","hard","Le Parlement institue la Chambre Ardente pour lutter contre l’hérésie (sous le règne de Henri II)","„Парламентот ја основа Арменската комора да се бори против ерес (под владеењето на Хенри Втори)“"
"contemporaine","5 décembre 1831","hard","Le prince royal et le maréchal Soult à la tête de vingt mille hommes entrent à Lyon","„Кралскиот принц и Маршал Солт на чело на дваесет илјади мажи влегуваат во Лион“"
"contemporaine","26 mars 1944","hard","Les Allemands détruisent le maquis du plateau des Glières (mouvement de résistants français)","„Германците го уништуваат високиот платото Глиер (француско движење за отпор)“"
"contemporaine","23 octobre 1944","hard","Les Américains reconnaissent le gouvernement provisoire du général De Gaulle","„Американците ја признаваат привремената влада на генералот Де Гол“"
"contemporaine","23 juillet 1944","hard","Les armées allemandes ont anéantis le maquis du Vercors (mouvement de résistants français)","„Германските армии го уништија макетата на Веркор (француско движење за отпор)“"
"contemporaine","Janvier 1814","hard","Les armées coalisées (plus d’un million de soldats) envahissent la France","„Коалициските армии (повеќе од еден милион војници) ја напаѓаат Франција“"
"Moyen-âge",1317,"hard","Les Grands du royaume_ confirment le principe de loi salique","„Одлично на кралството_ потврдете го принципот на солениот закон“"
"Moyen-âge","28 mai 1418","hard","Les Parisiens ouvrent les portes de la capitale aux Bourguignons","„Парижаните ги отворија вратите на главниот град на Бургундијаните“"
"moderne","24 décembre 1620","hard","Les Protestants décident lors de l’assemblée de La Rochelle de prendre les armes","„Протестантите одлучуваат на собранието на Ла Рошеле да земат оружје“"
"moderne","21 février 1701","hard","Les Provinces-Unies reconnaissent Philippe V comme roi d’Espagne","„Обединетите провинции го признаваат Филип V како крал на Шпанија“"
"antique",-283,"hard","Les romains s’emparent du pays des Sénons (Celtes)","„Римјаните ја заземаат земјата Сенони (Келти)“"
"antique",-125,"hard","Les Salyens ravagent les terres de Marseille qui demande l’aide de Rome","„Салиенците ја опустошија земјата на Марсеј кои бараат помош од Рим“"
"contemporaine","11 novembre 1942","hard","Les troupes allemandes entrent en zone libre","„Германските трупи влегуваат во слободната зона“"
"contemporaine","19 février 1858","hard","Loi de sûreté générale venant accroître la répression","„Законот за општа безбедност ќе ја зголеми репресијата“"
"contemporaine","12 octobre 1988","hard","Loi instituant le Revenu Minimum d’Insertion","„Закон за утврдување минимален приход за вметнување“"
"moderne","14 juin 1791","hard","Loi Le Chapelier interdisant les associations patronales et ouvrières","„Хатеровиот закон забранува здруженија на работодавачи и работници“"
"contemporaine","28 avril 1825","hard","Loi sur le « Milliard des émigrés »_ consistant à indemniser les émigrés qui avaient perdu leurs biens vendus comme Bien national sous la Révolution","„Закон за„ Милијард на иселениците “_ кој се состои од обештетување на иселениците кои го изгубиле својот имот продаден како национален имот под Револуцијата“"
"Moyen-âge","29 novembre 1226","hard","Louis IX est sacré à Reims_ Régence de Blanche de Castille (jusqu’en 1236)","„Луис IX е свет за Ремс_ Регент на Бланш од Кастилја (до 1236 година)“"
"Moyen-âge","21 mars 1152","hard","Louis VII fait casser son mariage (divorce avec Aliénor d’Aquitaine) par le concile de Beaugency","„Луј VII го раскинува бракот (развод со Алиенор од Аквитаин) од страна на советот на Бјуџансин“"
"moderne","24 mai 1667","hard","Louis XIV revendique la couronne espagnole_ début de la guerre de dévolution","„Луј XIV ја тврди шпанската круна_ почеток на војната на деволуцијата“"
"moderne","10 octobre 1733","hard","Louis XV déclare la guerre à l’empereur autrichien","„Луј Шесна објавува војна на австрискиот император“"
"moderne","15 février 1723","hard","Louis XV est déclaré majeur_ fin de la régence","„Луј XV е прогласен за главен_ крај на регентот“"
"moderne","14 août 1787","hard","Louis XVI exile le Parlement à Troyes","„Луј XVI го протера парламентот во Троја“"
"contemporaine","8 juillet 1815","hard","Louis XVIII entre à Paris","„Луј XVIII влегува во Париз“"
"contemporaine","12 janvier 1870","hard","Manifestation républicaine pour les funérailles de Victor Noir_ journaliste français tué à l'âge de 21 ans d'un coup de feu par le prince Pierre-Napoléon Bonaparte","„Републичка демонстрација за погребот на Виктор Ноар_ француски новинар убиен на 21-годишна возраст од истрел од принцот Пјер-Наполеон Бонапарт“"
"moderne","25 juillet 1792","hard","Manifeste de Brunswick_ est une proclamation attribuée au chef de l’armée prussienne_ Charles-Guillaume-Ferdinand_ duc de Brunswick_ qui a pour objectif l’intimidation des parisiens","„Манифестот на Брунсвик_ е проглас што му се припишува на началникот на пруската војска_ Чарлс-Гијом-Фердинанд_ војводата од Брунсвик_ чија цел е заплашување на парижаните“"
"Moyen-âge",493,"hard","Mariage de Clovis avec Clothilde (Burgonde)","Кловис свадба со Клотилде (Бургундија)"
"moderne","9 juin 1660","hard","Mariage de Louis XIV avec Marie-Thérèse d’Autriche","„Бракот на Луј XIV со Марија Тереза од Австрија“"
"moderne","5 septembre 1725","hard","Mariage de Louis XV avec Marie Leszczynska_ fille de l’ex-roi de Pologne_ à Fontainebleau","„Бракот на Луј XV со Марија Лесчинска_ ќерка на поранешниот крал на Полска_ Фонтајнбело“"
"Moyen-âge","25 juillet 1137","hard","Mariage de Louis_ fils aîné de Louis VI avec Aliénor d’Aquitaine_ héritière du duché","„Бракот на Луис_ најстариот син на Луј VI со Алинор од Аквитаин_ наследничка на војводството“"
"contemporaine","2 avril 1810","hard","Mariage de Napoléon et de Marie-Louise d’Autriche","„Брак на Наполеон и Мари-Луиз од Австрија“"
"antique","177 et 174 ","hard","Martyrs de chrétiens à Lyon (Sainte Blandine)","„Маченици на христијаните во Лион (Бандин)“"
"moderne","11 mai 1745","hard","Maurice de Saxe bat les Anglais à Fontenoy","„Морис од Саксонија ги победи Англичаните во Фонтеној“"
"moderne","3 février 1653","hard","Mazarin est de retour à Paris_ marquant la fin de la Fronde","„Мазарин се врати во Париз_ што го означи крајот на Фронд“"
"contemporaine","20 avril 1870","hard","Mise en place d’un régime parlementaire par senatus-consulte","„Воспоставување парламентарен систем од страна на senatus-консултантот“"
"moderne","1 novembre 1700","hard","Mort de Charles II d’Espagne qui désigne Philippe_ deuxième fils du Grand Dauphin comme son successeur","„Смрт на Шарл Втори од Шпанија кој го именува Филип_ вториот син на Гранд Дауфин како негов наследник“"
"moderne","5 janvier 1477","hard","Mort de Charles le Téméraire devant Nancy","„Смрт на Чарлс Болд пред Нанси“"
"moderne","20 octobre 1740","hard","Mort de Charles VI d’Autriche_ sa fille Marie-Thérèse lui succède posant le problème de la succession","„Смртта на Чарлс VI од Австрија_ неговата ќерка Мари-Тереза успеа да го постави проблемот на сукцесија“"
"Moyen-âge",558,"hard","Mort de Childebert_ Clotaire contrôle seul le royaume Franc","„Смрт на Чилеберт_ Клотиер го контролира самото кралство Франк“"
"Moyen-âge",629,"hard","Mort de Clotaire II_ son fils Dagobert prend la tête du royaume","„Смрт на Клотаир Втори_ неговиот син Дагоберт ја презема главата на царството“"
"Moyen-âge",561,"hard","Mort de Clotaire_ partage du royaume entre ses quatre fils","„Смрт на Клотире_ поделба на кралството меѓу неговите четири сина“"
"Moyen-âge",511,"hard","Mort de Clovis_ son royaume est partagé entre ses quatre fils (Thierry_ Clodomir_ Childebert et Clotaire)","„Смрт на Кловис_ неговото царство е поделено меѓу неговите четири сина (Тиери_ Клодомир_ Чилдеберт и Клотиер)“"
"Moyen-âge",639,"hard","Mort de Dagobert Ier_ partage du royaume entre ses deux fils Sigebert III (8 ans) et Clovis II (4 ans)","„Смрт на Дагоберт I_ поделба на кралството помеѓу неговите двајца сина Сигеберт III (стар 8 години) и Кловис Втори (стар 4 години)“"
"Moyen-âge",593,"hard","Mort de Gontran_ Childebert II hérite du Royaume de Bourgogne","„Смртта на Гонтран_ Чилеберт Втори го наследува Кралството Бургундија“"
"moderne","14 mai 1643","hard","Mort de Louis XIII_ son fils Louis lui succède","„Смрт на Луј XIII_ неговиот син Луис го наследи“"
"moderne","10 mai 1774","hard","Mort de Louis XV_ son petit-fils Louis lui succède","„Смрт на Луј XV_ неговиот внук Луис го наследи“"
"Moyen-âge"," 5 octobre 1285","hard","Mort de Philippe III à Perpignan son fils Philippe IV_ le Bel lui succède","„Смрт на Филип Трети во Перпињан неговиот син Филип IV_ Бел го наследи“"
"Moyen-âge","15 janvier 936","hard","Mort de Raoul à Auxerre_ Louis fils de Charles le Simple réfugié en Angleterre est appelé au trône","„Смртта на Раул во Оксер_ Луис_ син на бегалците Чарлс Едноставна во Англија_ е повикана на престолот“"
"Moyen-âge","15 août 778","hard","Mort de Roland à Roncevaux","„Смрт на Роланд во Рончесвалс“"
"Moyen-âge","25 août 1270","hard","Mort de Saint Louis à Tunis son fils Philippe III le Hardi lui succède","„Смртта на Свети Луис во Тунис неговиот син Филип Трети Болд го наследи“"
"moderne","23 février 1766","hard","Mort de Stanislas Leszczynski_ roi de Pologne_ qui lègue la Lorraine et Bar à la France","„Смрт на Станислас Лескински_ крал на Полска_ кој ги остава Лорен и Бар во Франција“"
"moderne","9 mars 1661","hard","Mort du cardinal de Mazarin","Смрт на кардиналот Мазарин"
"contemporaine","22 juin 1815","hard","Napoléon abdique en faveur de son fils","„Наполеон киднапира во корист на својот син“"
"contemporaine","24 juin 1812","hard","Napoléon franchit le Niémen_ Début de la campagne de Russie","„Наполеон ги преминува Нименците_ Почеток на руската кампања“"
"contemporaine","25 septembre 1915","hard","Offensive franco-anglaise en Artois et en Champagne","„Франко-англиска офанзива во Артоис и Шампањ“"
"contemporaine","25 juillet 1830","hard","Ordonnance de dissolution de la Chambre des députés","„Ред на распуштање на пратеничкиот дом“"
"Moyen-âge",1445,"hard","Ordonnance de Louppy-le-Châtel sur la permanence d’une armée de métier","„Наредба на Лупи-ле-Шател за постојаност на професионална армија“"
"contemporaine","19 février 1942","hard","Ouverture du procès de Riom des anciens dirigeants français","„Отворање на судењето во Риом на поранешните француски лидери“"
"moderne","7 mai 1576","hard","Paix de Monsieur à Beaulieu accordant des facilités de cultes et 8 places fortes aux Protestants","„Мир на господар во Беули_ доделување на богослужба и 8 силни места на протестантите“"
"Moyen-âge",534,"hard","Partage du royaume Burgonde entre Théodebert_ Childebert et Clothaire","„Споделување на бургундското царство помеѓу Теодберт_ Ајленберт и Клотиер“"
"contemporaine","13 janvier 1898","hard","Parution de « J’accuse » d’Émile Zola dans l’Aurore","„Објавување на„ J’accuse “од Имиле Зола во Ауроре“"
"contemporaine","5 mai 1947","hard","Paul Ramadier renvoie les ministres communistes qui s’opposent au blocage des salaires","„Пол Рамадиер ги разреши комунистичките министри кои се спротивставуваат на замрзнување на платите“"
"moderne","2 septembre 1715","hard","Philippe d’Orléans fait annuler le testament de Louis XIV pour s’arroger tous les pouvoirs","„Филип ДОрлеанс прави да го откаже тестаментот на Луј XIV за да ги арогира сите сили“"
"contemporaine","21 octobre 1917","hard","Premier engagement des troupes américaines dans le conflit","„Прв ангажман на американски трупи во конфликтот“"
"moderne","30 août 1673","hard","Première coalition (Provinces-Unies_ Espagne_ l’Empire allemand et la Lorraine) contre la France","„Прва коалиција (Обединети Провинции_ Шпанија_ Германско Империја и Лорен) против Франција“"
"Moyen-âge","4 août 1392","hard","Première crise de folie de Charles VI près du Mans","„Прва луда криза на Чарлс VI во близина на Ле Ман“"
"antique",233,"hard","Premières incursions Alamanes dans l’Empire_ début des « Grandes Invasions »","„Први аламански упади во Империјата_ почеток на„ големите инвазии ““"
"contemporaine","4 juin 1814","hard","Proclamation de la Charte_ cette dernière est la constitution du royaume de France en vigueur sous la Première puis la Seconde Restauration.","„Прогласување на Повелбата_ второто е устав на Кралството Франција_ што е во сила во рамките на Првата и Втората обнова“."
"contemporaine","9 septembre 1835","hard","Promulgation des lois sur la presse (censure)","„Објавување на законите за печатот (цензура)“"
"Moyen-âge",510,"hard","Publication de la loi salique_ il s'agit d'un code de loi élaboré","„Објавување на законот за Салиќ_ тој е изработен законски закон“"
"Moyen-âge","13 juillet 923","hard","Raoul est élu roi et couronné à Soisson par les révoltés en remplacement de Robert","„Раул е избран за крал и крунисан во Соисон од бунтовниците за да го замени Роберт“"
"contemporaine","24 octobre 1940","hard","Rencontre de Montoire entre Pétain et Hitler","„Средба во Монтојер помеѓу Петаин и Хитлер“"
"moderne","11 juillet 1789","hard","Renvoi de Necker_ le baron de Breteuil lui succède","„Враќање на Некер_ Барон де Бретјуил го наследи“"
"moderne","12 mai 1776","hard","Renvoi de Turgot_ contrôleur général des finances_ sous la pression populaire","„Враќање на Тургот_ генерален контролор за финансии_ под народен притисок“"
"moderne","21 octobre 1652","hard","Retour du roi et de la cour à Paris_ amnistie des frondeurs sauf Condé","„Враќање на кралот и судот во Париз_ амнестија на убијците освен Конд“"
"antique",-12,"hard","Réunion de l’assemblée provinciale des chefs des Gaules","„Средба на провинциското собрание на началниците на Гал“"
"contemporaine","6 septembre 1892","hard","Révélation du scandale du canal de Panama (affaire de corruption)","Откривање на скандалот на Панамскиот канал (случај на корупција)"
"Moyen-âge",922,"hard","Révolte de Gilbert de Lorraine_ Robert de France_ Robert de Bourgogne contre Charles III le Simple","„Револт на Гилберт де Лорен_ Роберт од Франција_ Роберт од Бургундија против Чарлс III Едноставен“"
"antique",68,"hard","Révolte de Vindex (Gouverneur de Lyon)","„Револт на Виндекс (гувернер на Лион)“"
"contemporaine","20-22 novembre 1831","hard","Révolte des Canuts à Lyon_ cela désigne plusieurs soulèvements ouvriers","„Револт на конзервите во Лион_ назначува неколку востанија на работниците“"
"moderne","Mai 1788","hard","Révolte des Parlements_ émeutes à Besançon_ Toulouse_ et Rennes","„Револт на парламентите_ немири во Бесансон_ Тулуз и Рен“"
"antique",21,"hard","Révoltes de Sacrovir (éduen) et de Florus (trévire)","„Револт на Сакровир (едуен) и Флорус (трева)“"
"moderne","13 août 1624","hard","Richelieu est nommé chef du Conseil","„Ришелие е назначен за шеф на Советот“"
"contemporaine","27 juillet 1794","hard","Robespierre et Saint-Just sont pris à partie à la tribune de la Convention","„Робеспјер и Сен-Само се учествуваат во трибината на Конвенцијата“"
"contemporaine","29 juillet 1904","hard","Rupture des relations diplomatiques entre la France et le Vatican","„Раскинување на дипломатските односи меѓу Франција и Ватикан“"
"contemporaine","27 novembre 1942","hard","Sabordage de la flotte française à Toulon","„Разбивање на француската флота кај Тулон“"
"Moyen-âge","17 juillet 1429","hard","Sacre de Charles VII à Reims","„Ритуал на Чарлс VII во Ремс“"
"contemporaine","29 mai 1825","hard","Sacre de Charles X à Reims","„Ритуал на Чарлс Х во Ремс“"
"Moyen-âge","29 mai 1328","hard","Sacre de Philipe VI à Reims","„Ритуал на Филипе VI во Ремс“"
"Moyen-âge","6 mai 1250","hard","Saint-Louis et les survivants de son armée rejoignent Saint-Jean d’Âcre","„Сен-Луис и преживеаните од неговата војска му се придружуваат на Сен Jeanан дАкре“"
"Moyen-âge","6 avril 1250","hard","Saint-Louis et son armée sont capturés et fait prisonniers","„Сент Луис и неговата војска се заробени и земени како затвореници“"
"contemporaine","20 novembre 1815","hard","Second traité de Paris_ la France est ramenée à ses frontières de 1790","„Втор договор на Париз_ Франција е вратена на своите граници од 1790 година“"
"moderne","2 mai 1682","hard","Seconde coalition (Provinces-Unies_ Espagne_ l’Empire et la Suède) contre la France","„Втора коалиција (Обединетите провинции_ Шпанија_ Империја и Шведска) против Франција“"
"contemporaine","3 septembre 1918","hard","Signature de l’armistice entre les alliés et l’Autriche","„Потпис на примирјето меѓу сојузниците и Австрија“"
"contemporaine","27 juin 1972","hard","Signature du « Programme commun » entre les socialistes_ les communistes et les radicaux","„Потпис на„ Заедничката програма “помеѓу социјалистите_ комунистите и радикалите“"
"contemporaine","22 janvier 1963","hard","Signature du traité de l’Élysée sur la coopération franco-allemande","„Потпис на Елисејскиот договор за француско-германска соработка“"
"Moyen-âge","Janvier 1358","hard","Signature du traité de Londres entre Jean II et le roi d’Angleterre","„Потпис на Договорот од Лондон меѓу Johnон Втори и кралот на Англија“"
"moderne","12 septembre 1733","hard","Stanislas Leszczynski_ beau-frère de Louis XV est élu roi de Pologne","„Станислас Лешчински_ зет на Луј XV е избран за крал на Полска“"
"moderne","25 janvier 1494","hard","Suite à la mort de Ferdinand_ Charles VIII se proclame roi de Naples","„По смртта на Фердинанд_ Чарлс VIII се прогласи за крал на Неапол“"
"moderne","26 janvier 1611","hard","Sully démissionne pour protester contre l’influence de C. Concini et sa femme","„Сули поднесе оставка во знак на протест против влијанието на Ц. Консини и неговата сопруга“"
"contemporaine","26 mars 1820","hard","Suspension des libertés individuelles (pendant la restauration)","Суспензија на индивидуалните слободи (за време на реставрацијата)"
"moderne","10 août 1792","hard","Suspension du roi qui est remplacé par le conseil exécutif provisoire","„Суспензија на кралот кој е заменет со Привремен извршен совет“"
"contemporaine","12 novembre 1890","hard","Toast d’Alger au cours duquel le cardinal Lavigerie souhaite le ralliement des Catholiques à la république","„Тост на Алжирите за време на кој кардиналот Лавгерие сака да се соберат католиците кон републиката“"
"moderne","2 mai 1668","hard","Traité d’Aix-la-Chapelle mettant fin à la guerre de dévolution_ la France restitue la Franche-Comté mais garde 12 places fortes conquises en Flandre","„Договорот од Аикс-ла-Чапел со кој се стави крај на војната за расудување_ Франција го обновува Франче-Комте_ но задржува 12 упоришта освоени во Фландрија“"
"moderne","18 octobre 1748","hard","Traité d’Aix-la-Chapelle mettant fin à la guerre de succession d’Autriche","„Ахенскиот договор за завршување на војната на австриската сукцесија“"
"contemporaine","8 avril 1904","hard","Traité d’alliance franco-anglais (Entente cordiale)","„Договор за француско-англиски сојуз (Entente cordiale)“"
"contemporaine","25 mars 1802","hard","Traité d’Amiens scellant la paix entre la France et l’Angleterre","„Договор на Амиенс кој го потпишува мирот меѓу Франција и Англија“"
"Moyen-âge","21 septembre 1435","hard","Traité d’Arras entre Charles VII et Philippe le Bon","„Договор на Арас меѓу Чарлс VII и Филип Добри“"
"moderne","23 décembre 1482","hard","Traité d’Arras entre Frédéric III de Habsbourg et Louis XI qui récupère la Picardie et la Bourgogne","„Договорот на Арас меѓу Фредерик III од Хабсбург и Луј XI кој ги обновува Пикарди и Бургундија“"
"moderne","11 avril 1713","hard","Traité d’Utrecht mettant fin à la guerre de succession d’Espagne","„Договорот од Утрехт става крај на војната за сукцесија на Шпанија“"
"Moyen-âge","8 mai 1360","hard","Traité de Brétigny_ Édouard III d’Angleterre renonce au trône de France en échange de l’Aquitaine","„Договорот од Бретињи_ Едвард III од Англија се откажува од престолот на Франција во замена за Аквитаин“"
"moderne","11 novembre 1500","hard","Traité de Grenade entre Louis XII et Ferdinand d’Aragon pour le partage du royaume de Naples","„Договор на Гранада меѓу Луј XII и Фердинанд од Арагон за поделба на Кралството Неапол“"
"Moyen-âge","23 mai 1414","hard","Traité de Leicester marquant l’alliance entre l’Angleterre et la Bourgogne","„Договорот од Лестер за обележување на сојузот меѓу Англија и Бургундија“"
"moderne","5 février 1679","hard","Traité de Nimègue avec les Impériaux marquant la fin de la guerre de Hollande_ La France a acquis la Franche-Comté_ Cambrai_ Valenciennes_ l’Alsace_ le Sénégal et la Guyane","„Договорот од Нијмеген со империјалистите што го означува крајот на војната во Холандија_ Франција ги стекна Франче-Комте_ Камбраи_ Валенсиен_ Алзас_ Сенегал и Гвајана“"
"moderne","28 mars 1741","hard","Traité de Nymphenburg scellant l’alliance de la France_ l’Espagne_ la Bavière_ la Saxe et la Pologne contre Marie-Thérèse d’Autriche","„Договорот од Нимфенбург го потпишува сојузот на Франција_ Шпанија_ Баварија_ Саксонија и Полска против Марија Тереза од Австрија“"
"moderne","17 septembre 1678","hard","Traité de paix franco-espagnol","„Франко-шпански мировен договор“"
"contemporaine","30 mars 1856","hard","Traité de Paris mettant fin à la guerre de Crimée","„Договорот од Париз за завршување на Кримската војна“"
"moderne","10 février 1763","hard","Traité de Paris mettant fin à la guerre de sept ans marquant la perte de nombreux territoires","„Договорот од Париз со кој се стави крај на седумгодишната војна означувајќи загуба на многу територии“"
"Moyen-âge","28 mai 1258","hard","Traité de Paris sur la restitution d’une partie des possessions anglaises par Saint Louis_ Henri III d’Angleterre devient vassal du roi de France","„Договорот од Париз за враќање на дел од англискиот имот од Сент Луис_ Хенри Трети од Англија станува вазал на кралот на Франција“"
"Moyen-âge","12 avril 1229","hard","Traité de Paris_ Beaucaire Nîmes et Carcassonne sont rattachés au royaume (fin de la croisade des Albigeois)","„Договорот од Париз_ Беакуир Нимс и Каркасон се прикачени на кралството (крај на Албигенската крстоносна војна)“"
"contemporaine","25 août 1883","hard","Traité de protectorat français sur le Tonkin et la Cochinchine","„Француски договор за протекторат за Тонкин и Кохин Кина“"
"moderne","16 août 1684","hard","Traité de Ratisbonne entre Louis XIV_ Léoplod Ier d’Autriche et Charles II d’Espagne accordant à la France les villes et territoires conquis","„Договорот од Регенсбург помеѓу Луј XIV_ Леоплод I од Австрија и Шарл Втори од Шпанија_ доделување на Франција освоените градови и територии“"
"moderne","30 octobre 1697","hard","Traité de Ryswick mettant fin à la guerre de la ligue d’Augsbourg où Louis XIV est contraint à de fortes concessions","„Договорот од Рисвик стави крај на војната во лигата на Аугсбург_ каде Луј XIV е принуден на силни отстапки“"
"contemporaine","7-9 juillet 1807","hard","Traité de Tilsit scellant la paix et l’alliance de Napoléon et du Tsar","„Договорот од Тилзит за запечатување на мирот и сојузот на Наполеон и Царот“"
"contemporaine","24 mars 1860","hard","Traité de Turin : La France cède la Sardaigne en contrepartie de Nice et la Savoie","„Договор од Торино: Франција ја продава Сардинија како замена за Ница и Савој“"
"Moyen-âge","Août 843","hard","Traité de Verdun sur le partage de l’empire entre les trois frères","„Договор на Вердун за споделување на империјата помеѓу трите браќа“"
"moderne","1 mai 1756","hard","Traité de Versailles scellant l’alliance de la France à l’Autriche contre la Prusse et l’Angleterre","„Версајскиот договор за запечатување на сојузот на Франција со Австрија против Прусија и Англија“"
"moderne","2 mai 1598","hard","Traité de Vervins entre Henri IV et Philippe II d’Espagne","„Договор на Вервинс помеѓу Хенри IV и Филип Втори од Шпанија“"
"moderne","18 novembre 1738","hard","Traité de Vienne mettant fin à la guerre de succession de Pologne","„Договорот од Виена става крај на војната за сукцесија на Полска“"
"moderne","3 avril 1559","hard","Traité du Cateau-Cambresis mettant fin à la guerre entre la France d’un côté et l'Espagne et le Saint-Empire romain germanique de l’autre","„Договорот од Като-Камбрезис со кој се стави крај на војната меѓу Франција од една страна и Шпанија и Светото римско царство од друга страна“"
"moderne","24 août 1774","hard","Turgot_ contrôleur général des finances_ lance une réforme économique libérale","„Тургот_ генерален контролор за финансии_ започна либерална економска реформа“"
"contemporaine","7 mai 1915","hard","Un sous-marin allemand coule le Lusitania (1 198† dont 128 américains) au sud-est de l’Irlande","„Германска подморница ја тоне Луситанија (1.198 † вклучувајќи 128 САД) југоисточно од Ирска“"
"Moyen-âge",719,"hard","Victoire de Charles Martel à Néry contre les troupes de Neustrie","„Победа на Чарлс Мартел во Нери против трупите на Неустрие“"
"Moyen-âge",507,"hard","Victoire de Clovis contre les Wisigoths","„Победа на Кловис против визиготите“"
"moderne","20 septembre 1792","hard","Victoire de Dumouriez et Kellerman contre les Prussiens à Valmy","„Победа на Думуриез и Келерман против Прусите во Валми“"
"moderne","20 octobre 1587","hard","Victoire de Henri de Navarre à Coutras sur la Ligue","„Победа на Анри де Наваре во Кутрас на Лигата“"
"moderne","14 mars 1590","hard","Victoire de Henri IV à Ivry contre la ligue","„Победа на Хенри IV на Иври против лигата“"
"moderne","20 septembre 1589","hard","Victoire de Henri IV sur la Ligue à Arques","„Победа на Хенри IV на Лигата во Арче“"
"moderne","15 juin 1595","hard","Victoire de Henri IV sur les Espagnols à Fontaine-Française","„Победа на Хенри IV на Шпанците кај Фонтајн-Франсаиз“"
"contemporaine","3 juillet 1830","hard","Victoire de la gauche aux élections législatives","„Победа на левицата на законодавните избори“"
"contemporaine","14 octobre 1806","hard","Victoire de Napoléon à Iéna et à Auerstadt","„Победа на Наполеон на enaена и Ауерштат“"
"contemporaine","14 juin 1807","hard","Victoire de Napoléon contre les Russes à Friedland","„Победа на Наполеон против Русите во Фридланд“"
"Moyen-âge","27 juillet 1214","hard","Victoire de Philippe Auguste à Bouvines sur la coalition Boulogne-Flandre-Othon","„Победа на Филип Аугуст на Бувинс на коалицијата Булоњ-Фландрија-Отон“"
"Moyen-âge","12 septembre 1213","hard","Victoire des armées catholiques contre le comte de Toulouse et le roi d’Aragon lors de la bataille du Muret","„Победа на католичките војски против пребројувањето на Тулуз и кралот на Арагон за време на битката кај Мурет“"
"contemporaine","13 mai 1849","hard","Victoire des monarchistes aux élections législatives","„Победа на монархистите на законодавните избори“"
"contemporaine","5 mars 1876","hard","Victoire des républicains aux élections législatives (III République)","„Републиканците на победата на законодавните избори (III Република)“"
"contemporaine","28 octobre 1877","hard","Victoire des républicains aux élections législatives (III République)","„Републиканците на победата на законодавните избори (III Република)“"
"Moyen-âge",1047,"hard","Victoire des troupes de Guillaume et Henri Ier contre les barons rebelles à Val-les-Dunes","„Победа на трупите на Гијом и Хенри I против бунтовничките барони во Вал-лес-Данес“"
"contemporaine","30 novembre 1919","hard","Victoire du Bloc national aux élections législatives (Chambre Bleu Horizon)","„Победа на националниот блок на законодавните избори (Комора на сини хоризонти)“"
"contemporaine","8 janvier 1961","hard","Victoire du oui au référendum sur l’autodétermination en Algérie","„Победа на да на референдумот за самоопределување во Алжир“"
"Moyen-âge","21 juillet 1242","hard","Victoire sur Henri III (roi d’Angleterre) et les Poitevins à Taillebourg et à Saintes","„Победа над Хенри Трети (крал на Англија) и Поетвините во Тајлбург и Сентс“"
"contemporaine","15 mars 1850","hard","Vote de la loi Falloux confiant l’enseignement à l’église","„Гласајте го законот за Фалукс кој му ја предава наставата на црквата“"
"contemporaine","21-25 avril 1961","medium","« Putsch des généraux » à Alger_ tentative de coup d’État"," Удирање на генералите во Алжир_ обид за пуч"
"contemporaine","18 mars 1962","medium","Accords d’Évian mettant fin à la guerre d’Algérie","„Евиански спогодби за крај на алжирската војна“"
"contemporaine","19 décembre 1974","medium","Adoption du projet de loi sur l’Interruption Volontaire de Grossesse (IVG) pour une durée probatoire de 5 ans","„Усвојување на сметка за доброволно прекинување на бременоста (ИВГ) за пробен период од 5 години“"
"contemporaine","28 décembre 1967","medium","Adoption par l’assemblée de la Loi Neuwirth légalisant la contraception","„Усвојување од страна на собранието на законот за Новирт за легализирање на контрацепцијата“"
"Moyen-âge",796,"medium","Aix-la-Chapelle est choisie pour capitale","„Ахен е избран за капитал“"
"Moyen-âge",788,"medium","Annexion de la Bavière","„Анексија на Баварија“"
"contemporaine","18 juin 1940","medium","Appel à la résistance du général De Gaulle réfugié à Londres","„Повик за отпор од бегалците на генералот Де Гол во Лондон“"
"contemporaine","17 juin 1940","medium","Appel radiophonique du maréchal Pétain à cesser le combat","„Радио повикот на Маршал Петаин да ја запре борбата“"
"contemporaine","2 juin 1793","medium","Arrestation des chefs girondins","„Апсење на водачите на Girирондин“"
"contemporaine","15 octobre 1894","medium","Arrestation du capitaine Dreyfus soupçonné d’espionnage (l’affaire Dreyfus)","„Апсење на капетанот Дрејфус осомничен за шпионажа (случајот Дрејфус)“"
"moderne","2 août 1589","medium","Assassinat d’Henri III_ Henri de Navarre lui succède","„Убиството на Хенри III_ Хенри од Навара го наследи“"
"contemporaine","24 juin 1894","medium","Assassinat du président Sadi Carnot par Santo Caserio_ anarchiste italien à Lyon","„Атентат врз претседателот Сади Карно од страна на Санто Касерио_ италијански анархист во Лион“"
"contemporaine","14 janvier 1858","medium","Attentat d’Orsini contre l’empereur (8†)","„Напад на Орсини против императорот (8)“"
"contemporaine","22 août 1962","medium","Attentat manqué de l’OAS (Organisation armée secrète_ pour une Algérie française) contre De Gaulle au Petit-Clamart","„Пропуштен напад на ОАС (Тајната организација на армијата_ за француски Алжир) против Де Гол во Пети-Кламарт“"
"contemporaine","2 septembre 1870","medium","Capitulation de Napoléon III à Sedan qui devient prisonnier","„Капитулација на Наполеон III во Седан кој станува затвореник“"
"Moyen-âge",806,"medium","Charlemagne partage son royaume entre ses trois fils Charles_ Louis (Aquitaine) et Pépin (Lombardie)","„Карло Велики го дели своето кралство меѓу неговите три сина Чарлс_ Луис (Аквитаин) и Пепин (Ломбардија)“"
"Moyen-âge","Novembre 887","medium","Charles II est déposé et enfermé dans une abbaye","„Чарлс Втори е депониран и затворен во опатија“"
"Moyen-âge",716,"medium","Charles Martel devient maire du palais (plus hauts dignitaires_ après les rois_ des royaumes francs) d’Austrasie","„Чарлс Мартел станува градоначалник на палатата (највисоки достоинственици_ по кралевите_ Франкиските кралства) на Австрија“"
"contemporaine","1 août 1908","medium","Clémenceau ordonne l’arrestation de syndicalistes CGT","„Клименс нареди апсење на синдикалистите на ЦГТ“"
"moderne","10 septembre 1567","medium","Condé et Coligny attaquent Paris_ 2eme guerre de religion","„Конде и Колињ го напаѓаат Париз_ 2-та војна на религијата“"
"Moyen-âge",1204,"medium","Conquête de la Normandie par Philippe Auguste","„Освојување на Нормандија од Филип Аугуст“"
"contemporaine","8 août 1829","medium","Constitution du gouvernement Polignac (ultra-royaliste)","„Устав на владата Полингак (ултра-кралскиот)“"
"contemporaine","2 décembre 1851","medium","Coup d’État de Louis-Napoléon Bonaparte prolongeant son mandat pour 10 ans","„Државен удар на Луис-Наполеон Бонапарта го продолжи мандатот за 10 години“"
"contemporaine","3 octobre 1940","medium","Création d’un statut pour les Juifs en France leur interdisant un certain nombre de fonctions","„Создавање статус на Евреите во Франција забранувајќи голем број на функции“"
"contemporaine","28 mars 1803","medium","Création du Franc germinal (monnaie)","Создавање на герминалниот франк (валута)"
"contemporaine","10 mars 1793","medium","Création du Tribunal Révolutionnaire","„Создавање на револуционерниот трибунал“"
"contemporaine","14 janvier 1963","medium","De Gaulle s’oppose à l’entrée de la Grande Bretagne au sein du marché commun","„Де Гол се спротивставува на влегувањето на Велика Британија на заедничкиот пазар“"
"contemporaine","8 novembre 1942","medium","Débarquement allié en Afrique du nord (opération Torch)","Сојузничките слетувања во Северна Африка (операција на факелот)"
"contemporaine","1 novembre 1954","medium","Début de l’insurrection algérienne dans le massif des Aurès","„Почеток на алжирското востание во масивот Аурес“"
"contemporaine","10 mars 1793","medium","Début de l’insurrection en Vendée","„Почеток на востанието во Ванде“"
"contemporaine","24-29 janvier 1960","medium","Début de la semaine des barricades à Alger contre l’autodétermination","„Почеток на неделата на барикадите во Алжир против самоопределување“"
"Moyen-âge",885,"medium","Début du siège de Paris par les Normands","„Почеток на опсадата на Париз од страна на Норманите“"
"moderne","8 mars 1759","medium","Décret du Conseil d’État interdisant l’Encyclopédie ou Dictionnaire raisonné des sciences_ des arts et des métiers est une encyclopédie française_ éditée sous la direction de Denis Diderot et_ partiellement_ de Jean Le Rond d'Alembert","„Уредбата на Советот на државата со која се забранува енциклопедија или речник научни науки_ уметности и занаети е француска енциклопедија_ уредена под раководство на Денис Дидерот и делумно Jeanан Ле Ронд дАлемберт“"
"moderne","24 février 1525","medium","Défaite de Pavie_ François Ier est fait prisonnier","„Пораз на Павија_ Френсис I е затворен“"
"Moyen-âge","26 août 1346","medium","Défaite des armées françaises à Crécy face aux Anglais","„Пораз на француските војски во Креси против Англичаните“"
"contemporaine","7 mai 1954","medium","Défaite française à Dien Biên Phû","„Француски пораз на Дин Биен Фу“"
"contemporaine","20 janvier 1946","medium","Démission du général De Gaulle opposé au régime « des partis »","„Оставката на генералот Де Гол се спротивстави на режимот на„ партиите “"
"contemporaine","13 juillet 1870","medium","Dépêche d’Ems de Bismarck_ est un imbroglio diplomatique (mauvaise lecture d’un télégramme)_ qui a servi de prétexte pour engager la guerre franco-allemande","„Испраќањето на Емс Бизмарк е дипломатско имброглио (лошо читање на телеграма)_ кое служеше како изговор за вклучување на француско-германската војна“"
"Moyen-âge","24 juin 1340","medium","Destruction de la flotte française lors de la bataille de l’Écluse (près de Bruges)","„Уништување на француската флота за време на битката на бравата (во близина на Бриж)“"
"contemporaine","5 novembre 1827","medium","Dissolution de la Chambre des députés","„Распуштање на пратеничкиот дом“"
"contemporaine","15 mai 1991","medium","Édith Cresson est la première femme à devenir premier ministre","„Едит Кресон е првата жена што стана премиер“"
"Moyen-âge","7 octobre 1337","medium","Édouard III d’Angleterre revendique le trône de France","„Едвард III од Англија го тврди престолот на Франција“"
"contemporaine","19 décembre 1965","medium","Élection du général De Gaulle à la présidence de la république au second tour (55%) au suffrage universel","„Избор на генерал Де Гол за претседател на републиката во вториот круг (55%) со универзално право на глас“"
"contemporaine","3 mai 1814","medium","Entrée de Louis XVIII à Paris","„Влегување на Луј XVIII во Париз“"
"moderne","7-24 juin  1520","medium","Entrevue du Camp du Drap d’Or. François Ier rencontra Henri VIII d’Angleterre qui resta neutre Face à Charles Quint","Интервју на Камп Драп ДОр. Френсис се запознав со Хенри VIII од Англија кој остана неутрален Соочувајќи се со Чарлс V"
"contemporaine","7 juillet 1904","medium","Exclusion des congrégations de l’enseignement (Loi Combes)","Исклучување на собранија на образование (комбинира закон)"
"contemporaine","25 avril 1905","medium","Fondation de la Section Française de l’Internationale Ouvrière (SFIO)","Фондација на Францускиот оддел на работничките меѓународни (СФИО)"
"antique",-598,"medium","Fondation Marseille par les Grecs (Phocéens)","Фондација Марсеј од Грците (Феникијци)"
"Moyen-âge","25 décembre 1066","medium","Guillaume de Normandie est couronné roi d’Angleterre à Westminster","„Вилијам од Нормандија е крунисан за крал на Англија во Вестминстер“"
"Moyen-âge","Mai 987","medium","Hugues Capet_ comte de Paris et d’Orléans est élu roi à Senlis par les Grands du Royaume","„Хугс Капет_ Грофот од Париз и Орлеанс е избран за крал во Сенислис од страна на„ Гранците на кралството “."
"contemporaine","24 août 1837","medium","Inauguration de la première voie de chemin de fer entre Paris et Orléans","„Инаугурација на првата железничка линија помеѓу Париз и Орлеанс“"
"Moyen-âge",1309,"medium","Installation du pape Clément V en Avignon","Инсталација на папата Климент V во Авињон"
"Moyen-âge","19 septembre 1356","medium","Jean II est fait prisonnier par les Anglais lors de la défaite de Poitiers","„Johnон Втори е заробен од Англичаните за време на поразот на Поатје“"
"Moyen-âge","23 mai 1430","medium","Jeanne d’Arc est capturée par les Bourguignons devant Compiègne","„Neан Д’Арк е заробена од Бургундијаните пред Компињ“"
"moderne","12 mai 1588","medium","Journée des barricades_ insurrection des Parisiens contre Henri III","„Ден на барикадите_ востание на Парижаните против Хенри Трети“"
"moderne","11 novembre 1630","medium","Journée des dupes_ le roi confirme Richelieu dans ses fonctions","„Ден на дупите_ кралот го потврдува Ришелие во неговите функции“"
"contemporaine","5 juillet 1974","medium","L’âge de la majorité est abaissé à 18 ans","„Возраста на мнозинството е спуштена на 18 години“"
"moderne","20 avril 1792","medium","L’Assemblée législative déclare la guerre au roi de Bohême et de Hongrie","„Законодавно-правната собрание прогласи војна на кралот на Бохемија и Унгарија“"
"moderne","4 août 1789","medium","L’assemblée vote l’abolition des privilèges","„Собранието гласа за укинување на привилегиите“"
"contemporaine","23 mai 1915","medium","L’Italie déclare la guerre à la l’Autriche-Hongrie","„Италија објави војна на Австрија и Унгарија“"
"contemporaine","17 septembre 1793","medium","La Convention adopte la Loi des suspects_  début de la terreur","„Конвенцијата го усвои законот за осомничените_ почеток на теророт“"
"moderne","10 juillet 1778","medium","La France déclare la guerre à l’Angleterre car elle cherche à récupérer de l'influence_ voire des territoires d'Amérique du Nord cédés à la Grande-Bretagne lors du traité de Paris de 1763. ","„Франција la објавува војна на Англија бидејќи се обидува да го поврати влијанието_ дури и териториите на Северна Америка c дадени на Велика Британија за време на договорот од Париз во 1763 година.“"
"contemporaine","1 juillet 1966","medium","La France se retire du dispositif intégré de l’OTAN","„Франција се повлече од интегрираниот систем на НАТО“"
"moderne","27 décembre 1788","medium","Le Conseil royal décide de la double représentation du tiers-état","„Кралскиот совет одлучува за двојното претставување на третата држава“"
"Moyen-âge","30 octobre 1422","medium","Le dauphin (héritier de la couronne) se proclame roi à Bourges","„Делфинот (наследник на круната) се прогласува за крал во Бурж“"
"contemporaine","13 mai 1958","medium","Le général Massu lance l’insurrection en Algérie et crée un comité de salut public et appelle de Gaulle","„Генерал Масу започна востание во Алжир и создава комитет за јавна безбедност и го повикува Де Гол“"
"contemporaine","26 mars 1918","medium","Le maréchal Foch est nommé généralissime des forces alliées","„Маршал Фох е прогласен за генералисимо од сојузничките сили“"
"contemporaine","24 mai 1873","medium","Le maréchal Mac-Mahon est élu président de la république","„Маршал Мек-Махон е избран за претседател на Републиката“"
"moderne","4 octobre 1511","medium","Le pape Jules II crée la Sainte Ligue contre la France. Excommunication de Louis XII","„Папата Јулиј Втори ја создава Светата лига против Франција_ екскомуникација на Луј XII“"
"moderne","16 juillet 1789","medium","Le roi ordonne le renvoi des troupes rassemblées autour de Paris et signe l'ordre de rappel  Necker_ qui tente de s’opposer à la confiscation des biens du clergé.","„Кралот нареди отпуштање на трупите собрани околу Париз и ја потпишува наредбата за отповикување Неккер_ кој се обидува да се спротивстави на конфискацијата на имотот на свештенството“."
"contemporaine","7 août 1913","medium","Le service militaire et porté à trois ans","„Воена служба и се зголеми на три години“"
"moderne","17 juin 1789","medium","Le Tiers-état se proclame assemblée nationale (490 pour et 90 contre)","„Третиот имот се прогласува себеси за национално собрание (490 за и 90 против)“"
"contemporaine","13 février 1937","medium","Léon Blum annonce une pause dans les réformes","„Леон Блум најави пауза во реформите“"
"contemporaine","5 octobre 1944","medium","Les femmes acquièrent le droit de vote","„Acquireените се стекнуваат со право на глас“"
"moderne","30 septembre 1681","medium","Les français s’emparent de Strasbourg","„Французите го зазедоа Стразбур“"
"moderne","23 août 1568","medium","Les Protestants reprennent les armes_ début de la troisième guerre de religion","„Протестантите повторно земаат оружје_ почеток на третата верска војна“"
"contemporaine","21 mars 1884","medium","Loi « Wladeck-Rousseau » reconnaissant le droit syndical","„Закон“ Владек-Русо „признавање на правото на организирање“"
"contemporaine","28 juillet 1999","medium","Loi instituant la Couverture Maladie Universelle (CMU)","„Закон за воспоставување универзално здравствено покритие (ЦМУ)“"
"contemporaine","1 juillet 1901","medium","Loi sur les associations à but non lucratif","„Закон за непрофитни здруженија“"
"moderne","1er novembre 1511","medium","Louis XII réunit un concile à Pise qui suspend Jules II (pape)","„Луј XII свика совет во Пиза кој го суспендира Јулиј Втори (папата)“"
"moderne","7 septembre 1651","medium","Louis XIV est officiellement reconnu majeur","„Луис XIV е официјално признат главен“"
"moderne","17 juillet 1789","medium","Louis XVI reçoit de La Fayette la cocarde tricolore à l’hôtel de ville","„Луј Шеснаесетти ја прима од Ла Фајет тробојната кокада во Градското собрание“"
"contemporaine","24 février 1848","medium","Louis-Philippe abdique en faveur de son petit-fils_ le comte de Paris_ ce que la chambre refuse","„Луис-Филип се киднапира во прилог на неговиот внук_ Грофот од Париз_ што собата го одбива“"
"contemporaine","9 août 1830","medium","Louis-Philippe Ier devient roi des Français_ début de la monarchie de Juillet","„Луис-Филип I станува крал на Французите_ почеток на монархијата од јули“"
"contemporaine","17 février 1864","medium","Manifeste des soixante proclamant le besoin de représentation des ouvriers","„Манифест на шеесеттите прогласувајќи потреба за застапеност на работниците“"
"Moyen-âge","28 janvier 814 ","medium","Mort de Charlemagne à Aix-la-Chapelle_ son fils Louis lui succède","„Смрт на Карло Велики во Аикс-ла-Чапел_ неговиот син Луис го наследи“"
"moderne","10 juin 1584","medium","Mort de François d’Anjou_ Henri de Navarre devient héritier du trône de France","„Смртта на Франсоа Д’Анју_ Хенри од Навара станува наследник на престолот на Франција“"
"moderne","1 septembre 1715","medium","Mort de Louis XIV_ son arrière-petit-fils Louis_ lui succède","„Смртта на Луј XIV_ неговиот правнук Луис го наследи“"
"moderne","4 décembre 1642","medium","Mort de Richelieu_ le cardinal Mazarin le remplace","„Смрт на Рикелје_ кардиналот Мазарин го замени“"
"antique","Janvier 395","medium","Mort de Théodose_ l’empire romain est désormais séparé entre Orient et Occident","„Смрт на Теодосиј_ Римското Царство сега е разделено помеѓу Исток и Запад“"
"contemporaine","4 avril 1814","medium","Napoléon abdique à Fontainebleau sans conditions","„Наполеон киднапира во Фонтајнбело без услови“"
"contemporaine","6 juillet 1809","medium","Napoléon fait arrêter le pape_ et remporte la victoire contre l’Autriche à Wagram","„Наполеон го спречува папата да запре_ и ја победи победата против Австрија во Ваграм“"
"contemporaine","20 mars 1815","medium","Napoléon retourne en France et entre à Paris","„Наполеон се враќа во Франција и влегува во Париз“"
"contemporaine","1 mars 1815","medium","Napoléon s’évade de l’île d’Elbe et débarque à Golfe-Juan (Provence)","„Наполеон бега од островот Елба и пристигнува во Голф-Хуан (Прованса)“"
"moderne","27 octobre 1614","medium","Ouverture des États Généraux (assemblée extraordinaire réunissant les trois ordres (les états) de la société : la noblesse_ le clergé et le tiers état (le reste))_ avec pour objectif d’affermir le nouveau pouvoir royal face aux manœuvres des grands féodaux","„Отворање на Генералните Држави (вонредно собрание што ги соединуваат трите реда (држави) на општеството: благородништвото_ свештенството и третата држава (остатокот))_ со цел да се консолидира новата кралска моќ во однос на маневрите на големите феудални "
"moderne","5 mai 1789","medium","Ouverture des États Généraux à Versailles","„Отворање на генералните држави во Версај“"
"moderne","19 mars 1563","medium","Paix d’Amboise accordant liberté de culte et de conscience aux Protestants chez eux","„Мир на амбоиздавање што им дава слобода на обожување и совест на протестантите дома“"
"Moyen-âge","24 octobre 1360","medium","Paix de Calais_ ratification du traité de Brétigny (trève de 9 ans dans la guerre de cent ans)","Мир на Кале_ ратификација на Договорот за Бретињи (примирје 9 години во стогодишната војна)"
"moderne","23 mars 1568","medium","Paix de Longjumeau mettant fin à la 2eme guerre de religion en confirmant l’édit d’Amboise","„Мирот на Лонгџуму стави крај на 2-та војна на религијата со потврда на Едиктот за Амбоиз“"
"moderne","8 août 1570","medium","Paix de Saint-Germain mettant fin à la 3eme guerre de religion et accordant des places fortes aux Protestants","„Мирот на Свети Germермен стави крај на Третата војна на религијата и доделување упоришта на протестантите“"
"moderne","29 novembre  1516","medium","Paix perpétuelle entre François Ier et les cantons suisses","„Постојан мир меѓу Френсис I и швајцарските кантони“"
"Moyen-âge",751,"medium","Pépin est élu roi à Soissons par une assemblée de nobles et d’évêques","„Пепин е избран за крал во Сосонсон од собрание на благородници и епископи“"
"contemporaine","10 juillet 1940","medium","Pétain abroge la constitution de la IIIeme République et devient chef de l’état","„Петајн го укинува уставот на Третата Република и станува шеф на државата“"
"Moyen-âge","Mars 845","medium","Pillage de Paris par les Normands_ Charles paye une rançon contre leur départ","„Подигање на Париз од страна на Норманите_ Чарлс плаќа откуп против нивното заминување“"
"contemporaine","23 juillet 1926","medium","Poincaré prend la tête d’un gouvernement d’union nationale","„Поинкаре го презема шефот на влада на национално единство“"
"contemporaine","10 février 1998","medium","Première loi Aubry sur les 35 heures (35 heures de travail)","Првиот закон Обри на 35 часа (35 часа работа)"
"antique",286,"medium","Premières incursions des Burgondes en Gaule","„Први упади на Бургундијаните во Галија“"
"antique",253,"medium","Premières incursions des Francs en Gaule","„Први упади на Франките во Галија“"
"contemporaine","5 juillet 1830","medium","Prise d’Alger par les troupes françaises_ exil du dey (le dey d’Alger est le titre des souverains de la régence d'Alger sous l'autorité nominale de l'Empire ottoman)","„Заробување на Алжир од страна на француските трупи_ прогонство Деј (ѓаволот на Алжир е титула на суверените на регентот на Алжир под номиналната власт на Отоманската империја)"
"Moyen-âge","4 août 1347","medium","Prise de Calais par Édouard III d’Angleterre","„Кале земен од Едвард III од Англија“"
"Moyen-âge","15 juillet 1099","medium","Prise de Jérusalem par les croisés qui vont se livrer au pillage et au massacre de la population","„Преземање на Ерусалим од крстоносците кои ќе се вклучат во грабежите и масакрот на населението“"
"moderne","10 août 1792","medium","Prise du Palais des Tuileries (600† parmi les gardes suisses et 100† parmi le peuple)","„Фаќање на палатата Тујерие (600 † меѓу швајцарските чувари и 100 † меѓу народот)“"
"contemporaine","27 février 1998","medium","Publication de la liste de onze pays répondant aux critères économiques en vue de l’instauration de l’Euro","„Објавување на списокот на единаесет земји кои ги исполнуваат економските критериуми за воспоставување на еврото“"
"contemporaine","1 juin 1958","medium","Rappelé par le président_ De Gaulle devient président du Conseil","„Потсетен од претседателот_ Де Гол станува претседател на Советот“"
"contemporaine","31 mai 1850","medium","Réforme électorale restreignant le suffrage universel_ amputant d’un tiers le corps électoral","„Изборна реформа со која се ограничува универзалното изнаоѓање_ намалување на избирачкото тело за трето“"
"contemporaine","3 - 4 avril 2009","medium","Réintégration de la France dans le commandement intégré de l'OTAN","„Реинтеграција на Франција во интегрираната команда на НАТО“"
"Moyen-âge",830,"medium","Révolte des grands du royaume contre Louis le Pieux","„Револт на големиот на кралството против Луј Побожниците“"
"contemporaine","21 juillet 1954","medium","Signature des accords de Genève mettant fin à la guerre d’Indochine","„Потпис на ordsеневските спогодби за завршување на војната во Индокина“"
"contemporaine","15 juillet 1801","medium","Signature du Concordat_ ce dernier organise les rapports entre les différentes religions et l’État dans toute la France","„Потпис Конкордат_ вториот го организира односот помеѓу различните религии и државата низ цела Франција“"
"contemporaine","28 juin 1919","medium","Signature du traité de Versailles où la France obtient l’Alsace-Lorraine_ des indemnités et occupe la rive gauche du Rhin","„Потпис на Версајскиот договор каде Франција ја стекнува Алзас-Лорен_ обештетување и го зазема левиот брег на Рајна“"
"moderne","3 août 1529","medium","Traité de Cambrai (Paix des Dames). François Ier conserve la Bourgogne et verse une rançon pour récupérer ses fils","„Договор на Камбраи (мир на дамите).„ Френсис Први го зачувува Бургундија и плаќа откуп за да ги опорави неговите синови “"
"moderne","15 janvier 1552","medium","Traité de Chambord entre Henri II et les princes allemands contre Charles Quint","„Договорот од Чамборд помеѓу Хенри Втори и германските кнезови против Чарлс V“"
"moderne","6 février 1778","medium","Traité de commerce et d’alliance entre la France et les États-Unis","„Договор за трговија и сојуз меѓу Франција и Соединетите држави“"
"Moyen-âge","21 mai 1420","medium","Traité de Troyes entre Philippe le Bon_ Charles VI et Henri V. Le dauphin (héritier de la couronne) perd le trône de France","„Договорот од Троја помеѓу Филип Добри_ Чарлс VI и Хенри В. Делфинот (наследник на круната) го губи престолот на Франција“"
"moderne","24 octobre 1648","medium","Traité de Westphalie_ il met fin à la guerre de trente ans avec l’Espagne","„Договорот од Вестфалија_ тој става крај на војната од триесет години со Шпанија“"
"contemporaine","12 mai 1881","medium","Traité du Bardo_ la Tunisie devient protectorat français","„Договорот од Бардо_ Тунис станува француски протекторат“"
"Moyen-âge","27 novembre 1095","medium","Urbain II prêche la première croisade lors du concile de Clermont","„Урбан Втори ја проповеда првата крстоносна војна на Советот на Клермон“"
"antique",-53,"medium","Victoire de Jules César contre les Belges_  fin de la ‘Guerre des Gaules’","„Победа на Јулиј Цезар против Белгијците_ крај на галичните војни“"
"antique",-58,"medium","Victoire de Jules César contre les Helvètes_ début de la ‘Guerre des Gaules’","„Победа на Јулиј Цезар против Хелвети_ почеток на галичните војни“"
"contemporaine","8 février 1807","medium","Victoire de Napoléon contre les Russes à Eylau","„Победа на Наполеон против Русите во Ејлау“"
