"period","date","level","fact_fr","fact_ms"
"contemporaine","18 septembre 1981","easy","Abolition de la peine de mort","Penghapusan hukuman mati"
"moderne","26 août 1789","easy","Adoption de la déclaration des droits de l’Homme et du citoyen","Penggunaan Deklarasi Hak Manusia dan Warga"
"contemporaine","14 janvier 1930","easy","Adoption de la loi Maginot instaurant une ligne de défense","Penggunaan undang-undang Maginot mewujudkan garis pertahanan"
"contemporaine","13 octobre 1946","easy","Adoption de la nouvelle constitution (IVeme république) par référendum","Penggunaan perlembagaan baru (Republik Keempat) melalui referendum"
"contemporaine","28 septembre 1958","easy","Approbation de la constitution de la Veme république par référendum (79% de oui)","Kelulusan perlembagaan Republik Kelima dengan referendum (79% ya)"
"contemporaine","28 janvier 1871","easy","Armistice franco-allemand_ capitulation de Paris","Gencatan senjata Franco-Jerman_ capitulasi Paris"
"moderne","21 juin 1791","easy","Arrestation de la famille royale à Varennes","Penangkapan keluarga diraja di Varennes"
"contemporaine","16-17 juillet 1942","easy","Arrestation de nombreux Juifs parisiens lors de la rafle du « Vel’ d’hiv »","Penangkapan ramai orang Yahudi Paris semasa serbuan Vel dhiv "
"Moyen-âge","13 octobre 1307","easy","Arrestation des Templiers en France","Penangkapan Templar di Perancis"
"contemporaine","31 juillet 1914","easy","Assassinat à Paris de Jean Jaurès hostile à la guerre par R. Villain","Pembunuhan di Paris Jean Jaures bermusuhan dengan perang oleh R. Villain"
"contemporaine","28 juin 1914","easy","Assassinat de l’archiduc François-Ferdinand d’Autriche à Sarajevo_ ce tragique évènement augmenta les tensions existantes","Pembunuhan Archduke Franz Ferdinand dari Austria di Sarajevo_ peristiwa tragis ini meningkatkan ketegangan yang ada"
"Moyen-âge","25 décembre 498","easy","Baptême de Clovis à Reims","Pembaptisan Clovis di Reims"
"contemporaine","11 novembre 1918","easy","Capitulation de l’Allemagne à Rethondes","Kapitulasi Jerman di Rethondes"
"moderne","5 et 6 octobre 1789","easy","Ces deux jours font partis des « grandes journées » de la Révolution française et ont abouti au retour définitif et contraint du roi Louis XVI et de sa famille à Paris_ « Journées d’octobre ». La foule envahit le château de Versailles","Kedua-dua hari ini adalah sebahagian daripada hari-hari besar Revolusi Perancis dan telah menghasilkan kepulangan terakhir dan dipaksa Raja Louis XVI dan keluarganya di Paris_ Hari-hari Oktober. Orang ramai menyerang Istana Versailles"
"Moyen-âge","25 décembre 800","easy","Charlemagne est couronné empereur de l’empire des Romains à Rome par le pape Léon III","Charlemagne dinobatkan sebagai maharaja Empayar Rom di Rom oleh Paus Leo III"
"Moyen-âge",732,"easy","Charles Martel remporte la bataille à Poitiers contre les Musulmans mettant fin à l’invasion sarrasine en France","Charles Martel memenangi pertempuran di Poitiers melawan umat Islam yang menamatkan pencerobohan Saracen di Perancis"
"contemporaine","4 septembre 1870","easy","Chute du Second Empire. Proclamation de la République","Kejatuhan Empayar Kedua_ Proklamasi Republik"
"Moyen-âge",481,"easy","Clovis roi des Francs. Avènement de Clovis_ qui devient roi des Francs","Clovis raja kaum Frank_ kedatangan Clovis_ yang menjadi raja kaum Frank"
"contemporaine","20 août 1857","easy","Condamnation de Baudelaire pour les « Fleurs du mal »","Penghukuman Baudelaire untuk Bunga Kejahatan "
"contemporaine","18 mai 1804","easy","Constitution de l’An XII_ Napoléon devient empereur","Perlembagaan Tahun XII_ Napoleon menjadi Maharaja"
"contemporaine","1 janvier 1958","easy","Création de la Communauté Économique Européenne (CEE)","Penciptaan Komuniti Ekonomi Eropah (EEC)"
"contemporaine","22 juillet 1940","easy","Création des Forces Françaises Libres (FFL)_ nom donné aux forces armées ralliées à la France libre sous l'égide du général de Gaulle","Penciptaan Pasukan Bebas Perancis (FFL)_ nama yang diberikan kepada angkatan tentera bersatu untuk membebaskan Perancis di bawah pimpinan General de Gaulle"
"contemporaine",2015,"easy","Crise migratoire_ plus d’un million de migrants sont arrivés cette année-là en Europe","Krisis migrasi_ lebih daripada sejuta pendatang tiba tahun itu di Eropah"
"contemporaine","21 décembre 1958","easy","De Gaulle devient président de la République","De Gaulle menjadi Presiden Republik"
"contemporaine","2 juin 1958","easy","De Gaulle obtient les pleins pouvoirs constitutionnels","De Gaulle memperoleh kuasa penuh perlembagaan"
"contemporaine","6 juin 1944","easy","Débarquement allié en Normandie (opération Overlord)","Pendaratan bersekutu di Normandy (Operasi Overlord)"
"contemporaine","27 juillet 1830","easy","Début de l’insurrection à Paris (Les Trois Glorieuses)_ la révolution de Juillet est la deuxième révolution française","Permulaan pemberontakan di Paris (The Three Glorious)_ revolusi Julai adalah revolusi Perancis kedua"
"contemporaine","21 février 1916","easy","Début de l’offensive allemande sur Verdun","Permulaan serangan Jerman di Verdun"
"contemporaine","7 novembre 1917","easy","Début de la « Révolution d’octobre » en Russie_ un mois après l'Armistice de Brest-Litovsk entre la Russie et l’Allemagne est conclue","Permulaan Revolusi Oktober di Rusia_ satu bulan selepas Gencatan senjata Brest-Litovsk antara Rusia dan Jerman disimpulkan"
"contemporaine","6-13 septembre 1914","easy","Début de la bataille de la Marne","Permulaan Pertempuran Marne"
"contemporaine","6 mai 1968","easy","Début des manifestations d'étudiants_ ainsi que des grèves générales et sauvages_ plus connu sous le nom de Mai…","Permulaan demonstrasi pelajar_ serta serangan umum dan liar_ lebih dikenali sebagai Mai ..."
"contemporaine","19 juillet 1870","easy","Déclaration de guerre à la Prusse","Pengisytiharan perang ke Prusia"
"contemporaine","21 septembre 1792","easy","Déclaration de la république_  An I de la république","Perisytiharan Republik_ Tahun I Republik"
"contemporaine","18 juin 1815","easy","Défaite de Napoléon à Waterloo","Kekalahan Napoleon di Waterloo"
"contemporaine","25-29 nov. 1812","easy","Désastre de la Bérézina_ les troupes impériales en retraite subissent de grosse perte face une armée russe inférieure en nombre. Ce fait a tellement marqué la mémoire française_ que l’expression « C'est une Bérézina » est fréquemment utilisée pour caractériser une déroute sur le plan sportif ou électoral","Bencana Berezina_ tentera kekaisaran yang berundur menderita kerugian besar di hadapan tentera Rusia yang lebih rendah. Fakta ini telah menandakan ingatan Perancis_ bahawa ungkapan Ia adalah Berezina sering digunakan untuk mencirikan kekalahan sukan atau pemilihan "
"contemporaine","23 décembre 1973","easy","Doublement du prix du pétrole brut lors de la réunion de l’Opep à Téhéran_  début de la première crise pétrolière","Menggandakan harga minyak mentah pada mesyuarat OPEC di Tehran_ permulaan krisis minyak pertama"
"moderne","18 octobre 1685","easy","Édit de Fontainebleau révoquant l’édit de Nantes","Edict of Fontainebleau Membatalkan Edict of Nantes"
"moderne","13 avril 1598","easy","Édit de Nantes_ le catholicisme est religion d’état et le protestantisme minorité reconnue","Perintah Nantes_ Katolik adalah agama negara dan Protestanisme diakui minoritas"
"moderne","17 janvier 1562","easy","Édit de Saint-Germain réglementant l’exercice du culte protestant","Undang-undang Saint-Germain mengawal selia pelaksanaan ibadah Protestan"
"moderne","Août 1539","easy","Édit de Villers-Cotterêts instituant le français comme langue officielle du royaume","Edict of Villers-Cotterêts mengasaskan Perancis sebagai bahasa rasmi kerajaan"
"contemporaine","16 mai 2007","easy","Election de Nicolas Sarkozy à la présidence de la république","Pemilihan Nicolas Sarkozy kepada presiden republik"
"contemporaine","7 mai 2017","easy","Emmanuel Macron devient le 8e président de la République.","Emmanuel Macron menjadi Presiden Republik ke-8."
"contemporaine",2002,"easy","Entrée en vigueur de l’Euro (1er janvier). Jacques Chirac est réélu président","Kemasukan Euro (1 Januari) Jacques Chirac dipilih semula sebagai Presiden"
"Moyen-âge","30 mai 1431","easy","Exécution de Jeanne d’Arc place du vieux marché à Rouen","Joan of Arc pelaksanaan tempat pasar lama di Rouen"
"contemporaine","16 octobre 1793","easy","Exécution de Marie-Antoinette","Pelaksanaan Marie Antoinette"
"contemporaine","21 janvier 1793","easy","Exécution du roi Louis XVI","Pelaksanaan Raja Louis XVI"
"contemporaine","28 juillet 1794","easy","Exécution sans jugement de Robespierre_ Saint-Just et leurs amis","Pelaksanaan tanpa penghakiman terhadap Robespierre_ Saint-Just dan rakan-rakan mereka"
"antique","août 476","easy","Fin de l’empire romain d’Occident. Romulus Augustule est déposé_ marquant la fin de l’empire romain d’Occident","Penghujung Empayar Rom Barat Romulus Augustule didepositkan_ menandakan berakhirnya Empayar Rom Barat"
"antique",-43,"easy","Fondation de la colonie romaine de Lugdunum (Lyon)","Yayasan koloni Rom Lugdunum (Lyon)"
"antique",-118,"easy","Fondation de Narbonne par les Romains","Yayasan Narbonne oleh orang Rom"
"contemporaine","15 mai 2012","easy","François Hollande devient président de la république.","François Hollande menjadi presiden republik itu."
"contemporaine","8 mai 1988","easy","François Mitterrand (54_01 %) est réélu président de la république devant Jacques Chirac","François Mitterrand (54_01%) dipilih kembali presiden republik di depan Jacques Chirac"
"moderne","20 juin 1791","easy","Fuite de la famille royale","Melarikan diri dari keluarga diraja"
"contemporaine","15 juin 1969","easy","Georges Pompidou remporte les élections (58%) présidentielles devant Alain Poher","Georges Pompidou menang pilihan raya presiden (58%) menjelang Alain Poher"
"Moyen-âge",1348,"easy","Grande Peste en France","Wabak Besar di Perancis"
"moderne","13 juin 1576","easy","Henri de Navarre abjure le catholicisme et reprend la tête du parti protestant","Henri de Navarre membubarkan Katolik dan mengambil ketua parti Protestan"
"moderne","25 juillet 1593","easy","Henri IV abjure le protestantisme et devient catholique. « Paris vaut bien une messe »","Henry IV abjure Protestantisme dan menjadi seorang Katolik Paris bernilai Misa "
"contemporaine","7 mai 1995","easy","Jacques Chirac (52_64%) remporte au second tour les élections présidentielles","Jacques Chirac (52_64%) menang dalam pusingan kedua pemilihan presiden"
"Moyen-âge","8 mai 1429","easy","Jeanne d’Arc délivre Orléans","Joan of Arc menyampaikan Orléans"
"contemporaine","3 août 1914","easy","L’Allemagne déclare la guerre à la France","Jerman mengisytiharkan perang ke Perancis"
"contemporaine","1 août 1914","easy","L’Allemagne déclare la guerre à la Russie","Jerman mengisytiharkan perang ke atas Rusia"
"contemporaine","4 août 1914","easy","L’Angleterre déclare la guerre à l’Allemagne suite à la violation de la neutralité belge","England mengisytiharkan perang ke Jerman berikutan pelanggaran terhadap neutraliti Belgium"
"contemporaine","23 juin 1916","easy","L’offensive allemande sur Verdun est stoppée","Serangan Jerman di Verdun dihentikan"
"antique",-52,"easy","La bataille d’Alésia. Échec de l’insurrection des Gaules de Vercingétorix","Pertempuran Alesia_ kegagalan pemberontakan Gauls dari Vercingetorix"
"contemporaine","18 décembre 1916","easy","La bataille de Verdun s’achève sur une victoire française","Pertempuran Verdun berakhir dengan kemenangan Perancis"
"Moyen-âge","19 octobre 1453","easy","La capitulation de Bordeaux marque la fin de la guerre de Cent Ans et le retour de la Guyenne (ancienne province_ située dans le sud-ouest de la France) sous domination française","Penyerahan Bordeaux menandakan berakhirnya Perang Seratus Tahun dan kembalinya Guyenne (bekas provinsi_ terletak di barat daya Perancis) di bawah penguasaan Perancis"
"moderne","14 juillet 1789","easy","La foule s’empare de la Bastille et massacre De Launay_ son gouverneur (date de la fête nationale française)","Orang ramai menyerang Bastille dan pembunuhan beramai-ramai De Launay_ gabenornya (tarikh cuti kebangsaan Perancis)"
"contemporaine",2015,"easy","La France est la cible d’une série d’attentats_ revendiqués par des terroristes se disant islamistes","Perancis adalah sasaran serangkaian serangan_ yang diklaim oleh pengganas memanggil diri mereka sebagai Islamis"
"contemporaine","3 septembre 1939","easy","La France et l’Angleterre déclarent la guerre à l’Allemagne (début de la Seconde Guerre Mondiale pour la France)","Perancis dan England mengisytiharkan perang ke Jerman (permulaan Perang Dunia Kedua untuk Perancis)"
"contemporaine","2 septembre 1939","easy","La France ordonne la mobilisation générale","Perancis memerintahkan pengangkut umum"
"contemporaine","28 avril 1969","easy","Le général De Gaulle annonce sa démission_ suite à l’échec du référendum sur la régionalisation du Sénat","Ketua De Gaulle mengumumkan perletakan jawatannya_ berikutan kegagalan referendum mengenai penyatuan wilayah Senat"
"contemporaine","10 juillet 1940","easy","Le Parlement accorde au maréchal Pétain les pleins pouvoirs (569 voix pour 80 contre et 17 absentions)","Parlimen memberi kuasa penuh Marshal Pétain (569 undi untuk 80 menentang dan 17 abstain)"
"contemporaine","21 juin 1981","easy","Le parti socialiste remporte les élections législatives suite à la dissolution","Parti Sosialis memenangi pilihan raya parlimen berikutan pembubaran"
"antique",-390,"easy","Le Sac de Rome. Les Gaulois de Brennus s’emparent de Rome après 7 mois de siège et se retire contre une forte rançon","Bag of Rome: The Gauls of Brennus merampas Rom selepas 7 bulan pengepungan dan menarik balik tebusan yang kuat"
"contemporaine","2007-2009","easy","Le traité de Lisbonne donne naissance à une nouvelle entité juridique : l’Union Européenne","Perjanjian Lisbon melahirkan entiti undang-undang baru: Kesatuan Eropah"
"Moyen-âge",711,"easy","Les Arabes débarquent en Espagne","Tanah Arab di Sepanyol"
"Moyen-âge","10 avril 1302","easy","Les États Généraux confirme l’indépendance du roi face au pape","Negara-negara Amerika mengesahkan kebebasan raja terhadap pope"
"contemporaine","2 avril 1917","easy","Les États-Unis déclarent la guerre à l’Allemagne","Amerika Syarikat mengisytiharkan perang ke Jerman"
"Moyen-âge","24 juin  843","easy","Les Normands s’emparent de Nantes","Norman merampas Nantes"
"Moyen-âge","1 novembre 1337","easy","Lettre de défi d’Édouard III_ Début de la guerre de cent ans","Surat Cabaran dari Edward III_ Awal Seratus Tahun Perang"
"contemporaine","25 août 1944","easy","Libération de Paris","Pembebasan Paris"
"contemporaine","5 avril 1884","easy","Loi d’organisation municipale prévoyant le suffrage universel pour les élections","Akta Organisasi Perbandaran Memberi Pilihan Raya Umum untuk Pilihan Raya"
"contemporaine","16 juin 1881","easy","Loi Jules Ferry sur la gratuité de l’enseignement primaire","Undang-undang Jules Ferry mengenai pendidikan rendah percuma"
"contemporaine","9 mars 1868","easy","Loi rétablissant la liberté de la presse","Akta Memulihkan Kebebasan Akhbar"
"contemporaine","29 juillet 1881","easy","Loi sur la liberté de la presse","Kebebasan Akta Akhbar"
"contemporaine","30 juin 1881","easy","Loi sur la liberté de réunion","Kebebasan Akta Perhimpunan"
"contemporaine","10 juin 1794","easy","Lois de prairial sur le tribunal révolutionnaire_ début de la Grande Terreur","Undang-undang Prairial pada Tribunal Revolusi_ Permulaan Keganasan Besar"
"Moyen-âge",817,"easy","Louis Ier proclame (Ordinatio imperii) son fils Lothaire empereur rompant avec la tradition Franque (Partage)","Louis I mengumumkan (Ordinatio imperii) anaknya Lothair maharaja melanggar tradisi Franque (Partage)"
"contemporaine","10 décembre 1848","easy","Louis-Napoléon Bonaparte est élu président de la République (74_2%)","Louis-Napoleon Bonaparte dipilih Presiden Republik (74.2%)"
"moderne","24 août 1572","easy","Massacre de la Saint-Barthélemy_ mort de Coligny_ abjuration de Condé et de Henri de Navarre_ début du siège de La Rochelle et de la quatrième Guerre de religion","Pembantaian St Bartholomew_ kematian Coligny_ abjurasi Condé dan Henry dari Navarre_ permulaan pengepungan La Rochelle dan Perang keempat agama"
"moderne","1 mars 1562","easy","Massacre des protestants à Wassy par le duc de Guise_ permière guerre de religion","Pembunuhan orang Protestan di Wassy oleh Duke Guise_ perang agama pertama"
"Moyen-âge","24 septembre 768","easy","Mort de Pépin le bref à Saint-Denis_ son fils Charlemagne lui succède","Kematian Pépin ringkas di Saint-Denis_ anaknya Charlemagne berjaya"
"contemporaine","18 septembre 1812","easy","Napoléon quitte Moscou en flammes_ début de la retraite de Russie","Napoleon meninggalkan Moscow dengan api_ persaraan awal dari Rusia"
"moderne","1 juillet 1573","easy","Paix de La Rochelle accordant liberté de conscience et de culte à La Rochelle_ Nîmes et Montauban","Keamanan La Rochelle memberikan kebebasan hati nurani dan ibadah di La Rochelle_ Nîmes dan Montauban"
"contemporaine","2 décembre 1852","easy","Proclamation du Second Empire","Perisytiharan Empayar Kedua"
"contemporaine","4 mai 1848","easy","Proclamation officielle de la République par l’Assemblée","Proklamasi Rasmi Republik oleh Perhimpunan"
"contemporaine","21 mars 1804","easy","Promulgation du Code Civil","Promosi Kanun Sivil"
"contemporaine","20 septembre 1992","easy","Référendum sur le traité de Maastricht (51_04 % de oui)","Rujukan pada Perjanjian Maastricht (51.04% ya)"
"contemporaine","2 décembre 1804","easy","Sacre de Napoléon en présence de Pie VII à Notre-Dame","Ritus Napoleon di hadapan Pius VII di Notre Dame"
"Moyen-âge","7 juillet 1438","easy","Sanction de Bourges de Charles VII affranchissant l’église de la tutelle du pape","Sanksi Bourges Charles VII mengfranchisikan gereja bimbingan Paus"
"moderne","20 juin 1789","easy","Serment du jeu de paume : l’Assemblée Nationale se proclame Assemblée Nationale Constituante","Sumpah permainan kelapa sawit: Perhimpunan Kebangsaan mempersembahkan Perhimpunan Kebangsaan Nasional"
"contemporaine","22 juin 1940","easy","Signature de l’armistice à Rethondes_  la moitié nord et les côtes atlantiques sont occupés par l’armée allemande","Tandatangan gencatan senjata di Rethondes_ separuh utara dan pantai Atlantik diduduki oleh tentera Jerman"
"contemporaine","8-9 mai 1945","easy","Signature officielle de la capitulation allemande par le général Keitel à Berlin","Penandatanganan rasmi penalti Jerman oleh General Keitel di Berlin"
"contemporaine","25 mai 1864","easy","Suppression du droit de coalition accordant ainsi le droit de grève","Penindasan hak gabungan sehingga memberikan hak untuk menyerang"
"contemporaine","31 août 1871","easy","Thiers est élu président de la république et l’assemblée nationale devient constituante","Thiers dipilih sebagai presiden republik dan perhimpunan kebangsaan menjadi konstitutif"
"contemporaine","18 avril 1951","easy","Traité créant la Communauté Européenne du Charbon et de l’Acier (CECA)","Perjanjian yang membentuk Komuniti Batubara dan Keluli Eropah (ECSC)"
"contemporaine","10 mai 1871","easy","Traité de Francfort instituant la paix avec l’Allemagne en contrepartie de l’Alsace_ la Lorraine et d’indemnités","Perjanjian Frankfurt mewujudkan keamanan dengan Jerman sebagai balasan bagi Alsace_ Lorraine dan pampasan"
"moderne"," 3 septembre 1783","easy","Traité franco-anglais de Versailles reconnaissant l’indépendance des États-unis","Perjanjian Franco-English di Versailles mengiktiraf kemerdekaan Amerika Syarikat"
"contemporaine","19 mai 1974","easy","Valéry Giscard-d’Estaing (50_71%) remporte les élections présidentielles devant François Mitterrand","Valéry Giscard-dEstaing (50.71%) memenangi pilihan raya presiden menjelang François Mitterrand"
"moderne","14 septembre 1515","easy","Victoire de François Ier à Marignan","Kemenangan Francis I di Marignan"
"contemporaine","10 mai 1981","easy","Victoire de François Mitterrand (51_75%) aux élections présidentielles devant Valéry Giscard-d’Estaing","Kemenangan François Mitterrand (51_75%) dalam pemilihan presiden di depan Valéry Giscard-dEstaing"
"contemporaine","2 décembre 1805","easy","Victoire de Napoléon à Austerlitz contre les Russes et les Autrichiens","Kemenangan Napoleon di Austerlitz terhadap Rusia dan Austria"
"Moyen-âge",759,"easy","Victoire de Pépin le Bref près de Narbonne contre les Arabes qui replient en Espagne","Kemenangan Pepin yang pendek berhampiran Narbonne terhadap orang Arab yang melipat di Sepanyol"
"contemporaine","24 mai 1869","easy","Victoire républicaine aux élections législatives","Kemenangan Republik dalam pilihan raya parlimen"
"Moyen-âge",639,"hard","« Début du règne des maires du palais ». Les maires du palais étaient les plus hauts dignitaires_ après les rois_ des royaumes francs qui couvraient alors l'essentiel de la France_ l'Allemagne et le Benelux actuels."," Mulai dari pemerintahan walikota istana. Walikota istana adalah penghormatan tertinggi_ setelah raja-raja_ kerajaan Frank yang kemudian menutupi sebagian besar Perancis_ Jerman dan aliran Benelux."
"contemporaine","21 octobre 1945","hard","Abolition de la constitution de la IIIe République et élection d’une assemblée constituante","Penghapusan perlembagaan Republik Ketiga dan pemilihan jawatankuasa konstituen"
"contemporaine","7 juin 1936","hard","Accords de Matignon entre patronat et syndicats","Perjanjian Matignon antara majikan dan kesatuan"
"contemporaine","25 juin 1928","hard","Adoption d’une loi monétaire dévaluant le franc marquant l’abandon du franc germinal","Penggunaan undang-undang monetari merendahkan franc menandakan penebusan franc germinal"
"moderne","12 juillet 1790","hard","Adoption de la Constitution civile du clergé","Pengambilan Perlembagaan Sivil daripada Kera"
"contemporaine","2 juillet 1914","hard","Adoption de la loi Caillaux sur l’impôt sur le revenu","Angkat undang-undang Caillaux mengenai cukai pendapatan"
"contemporaine","26 octobre 1981","hard","Adoption de la loi sur les nationalisations","Penggunaan undang-undang mengenai kewarganegaraan"
"contemporaine","27 septembre 1981","hard","Adoption du projet d’impôt sur la fortune","Penggunaan Projek Cukai Kekayaan"
"contemporaine","28 janvier 1982","hard","Adoption du projet de loi sur la décentralisation","Penggunaan undang-undang draf mengenai desentralisasi"
"contemporaine","2 octobre 1981","hard","Adoption du projet de loi sur les radios libres","Angkat rang undang-undang di radio percuma"
"contemporaine","24 septembre 2000","hard","Adoption du quinquennat (la présidence dure 5 années) (73_24%) lors d’un référendum marqué par l’abstention (68%)","Pengangkatan quinquennium (presiden bertahan 5 tahun) (73.24%) dalam referendum ditandakan dengan abstention (68%)"
"antique","Juin 451","hard","Aetius bat les Huns sur les Champs Catalauniques près de Troyes","Aetius mengalahkan kaum Hun di padang Catalan berhampiran Troyes"
"Moyen-âge","2 décembre 1419","hard","Alliance entre Philippe le Bon_ duc de Bourgogne et Henri V d’Angleterre","Perikatan antara Philip yang Baik_ Duke of Burgundy dan Henry V of England"
"contemporaine","30 janvier 1875","hard","Amendement Wallon instituant la république","Walloon pindaan yang memulakan republik itu"
"Moyen-âge",774,"hard","Annexion de la Lombardie","Penggabungan Lombardy"
"moderne","5 septembre 1661","hard","Arrestation de Fouquet à Nantes_ accusé de détournement de fonds","Penangkapan Fouquet di Nantes_ dituduh melakukan penyelewengan"
"Moyen-âge","31 juillet  1451","hard","Arrestation de Jacques Cœur accusé de conspiration et malversation","Penangkapan Jacques Coeur dituduh melakukan konspirasi dan salah laku"
"contemporaine","30-31 mars 1794","hard","Arrestation des chefs des Indulgents (Danton_ Desmoulins_ Delacroix_ Philippeaux_ Westerman…) 1794 5 avril Condamnation et exécution de Danton_ Desmoulins_ Fabre d’Eglantine et des Indulgents","Penangkapan para pemimpin orang-orang yang tidak berpengalaman (Danton_ Desmoulins_ Delacroix_ Philippeaux_ Westerman ...) 1794 April 5 Konstitusi dan pelaksanaan Danton_ Desmoulins_ Fabre of Eglantine dan Orang-orang yang"
"Moyen-âge",584,"hard","Assassinat de Chilpéric (Neustrie) sur ordre de Frédégonde","Pembunuhan Chilperic (Neustria) atas perintah Fredegonde"
"moderne","14 mai 1610","hard","Assassinat de Henri IV par Ravaillac_ son fils Louis lui succède","Pembunuhan Henry IV oleh Ravaillac_ anaknya Louis berjaya dia"
"Moyen-âge","10 septembre 1419","hard","Assassinat de Jean sans Peur au pont de Montereau_ son fils Philippe le Bon lui succède","Pembunuhan John yang Takut di Jambatan Montereau_ anaknya Philip yang Baik berjaya dia"
"Moyen-âge",575,"hard","Assassinat de Sigebert (Austrasie) sur ordre de Frédégonde","Pembunuhan Sigebert (Austrasia) atas perintah Fredegonde"
"contemporaine","13 février 1820","hard","Assassinat du duc de Berry (neveu du roi) par Louvel","Pembunuhan duke Berry (anak saudara raja) oleh Louvel"
"Moyen-âge","7 septembre 1303","hard","Attentat d’Anagni de Guillaume de Nogaret contre Boniface VIII","Serangan Anagni Guillaume de Nogaret terhadap Boniface VIII"
"contemporaine","28 juillet 1835","hard","Attentat de Fieschi contre Louis-Philippe_ provoquant la mort de 12 personnes","Serangan Fieschi terhadap Louis-Philippe_ menyebabkan kematian 12 orang"
"antique",451,"hard","Avènement du chef franc Mérové","Ketibaan Ketua Merové Frankish"
"contemporaine","13 juin 1982","hard","Blocage des prix et des salaires","Menyekat harga dan upah"
"moderne","28 octobre 1628","hard","Capitulation de La Rochelle","Capitulasi La Rochelle"
"moderne","25 février 1497","hard","Capitulation de Tarente_ perte du royaume de Naples","Kapitulasi Taranto_ kehilangan Kerajaan Naples"
"moderne","21 décembre 1560","hard","Catherine de Médicis et Antoine de Bourbon sont nommés régents par le Conseil d’État","Catherine de Medici dan Antoine de Bourbon dilantik sebagai bupati oleh Majlis Negara"
"moderne","22 juillet 1472","hard","Charles le Téméraire échoue devant Beauvais","Charles the Bold gagal di hadapan Beauvais"
"contemporaine","16 mai 1830","hard","Charles X dissout la Chambre des députés","Charles X melupuskan Dewan Perwakilan"
"antique",193,"hard","Claudius Albinus se fait proclamer empereur par ses légions en Bretagne","Claudius Albinus diisytiharkan maharaja oleh pasukannya di Brittany"
"Moyen-âge",613,"hard","Clotaire II fait exécuter Sigebert II et Brunehaut_ réunification du royaume","Clotaire II membuat pelaksanaan Sigebert II dan Brunehaut_ penyatuan semula kerajaan"
"Moyen-âge",524,"hard","Clothaire épouse Gontheuque_ veuve de Clodomir_ fait assassiner ses fils et s’empare de son royaume","Istri Clothaire Gontheuca_ janda Clodomir_ membunuh anak-anaknya dan merampas kerajaannya"
"moderne","30 août 1455","hard","Compromis dans un complot_ le dauphin s’enfuit à Louvain","Kompromi dalam plot_ lumba-lumba melarikan diri ke Leuven"
"contemporaine","24 mars 1794","hard","Condamnation et exécution des chefs des Cordeliers (Hébert…)","Keyakinan dan pelaksanaan pemimpin Cordeliers (Hébert ...)"
"contemporaine","29-30 septembre 1938","hard","Conférence de Munich entre la France_ l’Angleterre_ l’Italie et l’Allemagne sur la question des Sudètes","Persidangan Munich antara Perancis_ England_ Itali dan Jerman pada soalan Sudeten"
"contemporaine","23 novembre 1799","hard","Constitution de l’an VIII_  Napoléon Bonaparte_ Sieyès et Ducos sont nommés consuls ","Perlembagaan tahun VIII_ Napoleon Bonaparte_ Sieyes dan Ducos dinamakan sebagai konsul"
"contemporaine","1 juillet 1911","hard","Coup d’Agadir ou crise d’Agadir des Allemands contre les Français_ provoqué par l'envoi d'une canonnière (navire léger armé de canons) de la marine de guerre allemande dans la baie d'Agadir au Maroc","Kem dAgadir atau krisis Agadir dari Jerman melawan Perancis_ disebabkan oleh penghantaran kapal bot (kapal ringan yang bersenjata dengan senjata) tentera laut Jerman di teluk Agadir di Maghribi"
"contemporaine","11 mai 1798","hard","Coup d’état du 22 floréal du directoire contre les députés jacobins élus en avril. Le jacobinisme est une doctrine politique qui défend la souveraineté populaire et l'indivisibilité de la République française","Coup detat dari 22 Floréal direktori terhadap timbalan Jacobin yang dipilih pada bulan April Jacobinism adalah doktrin politik yang mempertahankan kedaulatan rakyat dan kebebasan Republik Republik"
"contemporaine","18 juin 1799","hard","Coup d’état du 30 prairial_ les conseils contraignent les directeurs Merlin et La Revellière à la démission","Kado detat daripada 30 Prairial_ majlis memimpin pengarah Merlin dan La Revelliere untuk meletakkan jawatan"
"contemporaine","4 septembre 1797","hard","Coup d’état du directoire contre les royalistes_ Barras aidé de Napoléon prend le pouvoir","Gagalkan direktori itu terhadap para diraja_ Barras dibantu oleh Napoleon mengambil kuasa"
"Moyen-âge","29 février 888","hard","Couronnement de Eudes à Compiègne","Pengucapan Eudes di Compiegne"
"moderne"," 8 juin 1576","hard","Création de la Sainte Ligue qui avait pour objectif de briser la progression des Turcs ottomans","Penciptaan Liga Kudus yang bertujuan untuk memecah kemajuan Turki Uthmaniyyah"
"contemporaine","29 décembre 1943","hard","Création des Forces Françaises de l’Intérieur (FFI)","Penciptaan Angkatan Tentera Perancis (FFI)"
"contemporaine","24 septembre 1941","hard","Création du Comité National de la France Libre à Londres par le général de Gaulle","Penciptaan Jawatankuasa Kebangsaan Perancis Bebas di London oleh General de Gaulle"
"contemporaine","15 mai 1943","hard","Création du Conseil National de la Résistance (CNR)","Penciptaan Majlis Pertahanan Negara (CNR)"
"contemporaine","16 février 1943","hard","Création du Service du Travail Obligatoire (STO)","Penciptaan Perkhidmatan Kerja Wajib (STO)"
"contemporaine","30 juin 1968","hard","De Gaulle remporte les élections législatives","De Gaulle memenangi pilihan raya parlimen"
"contemporaine","27 juin 1795","hard","Débarquement d’une armée de quatre mille émigrés à Quiberon","Pendaratan tentera empat ribu pendatang di Quiberon"
"contemporaine","28 décembre 1933","hard","Début de l’affaire Stavisky (escroc qui magouillait avec les politiques et est mort dans des circonstances étranges)","Permulaan urusan Stavisky (scammer yang bergelut dengan politik dan mati dalam keadaan yang aneh)"
"moderne","1 octobre 1791","hard","Début de l’Assemblée législative et de la monarchie constitutionnelle","Permulaan Dewan Undangan dan Monarki Perlembagaan"
"antique",-800,"hard","Début de l’invasion des Celtes qui vont remplacer peu à peu les Ligures","Permulaan pencerobohan orang Celt yang secara beransur-ansur akan menggantikan Liguria"
"contemporaine","21 mars 1918","hard","Début de l’offensive allemande sur la Somme","Permulaan serangan Jerman di Somme"
"moderne","Mars 1465","hard","Début de la guerre de Louis XI contre la Ligue du Bien Public de Charles le Téméraire et Charles de France","Permulaan perang Louis XI terhadap Liga Harta Karun Charles the Bold dan Charles of France"
"moderne","2 septembre 1792","hard","Début des « Massacres de septembre » dans les prisons (jusqu’au 6)","Permulaan Massacres September di penjara (sehingga 6)"
"contemporaine","1 novembre 1795","hard","Début du directoire_ Il tire son nom du « directoire » c'est-à-dire l'ensemble des cinq directeurs_ chefs du gouvernement entre lesquels le pouvoir exécutif et les ministres sont répartis_ pour éviter la tyrannie_ et dont le siège est au palais du Luxembourg","Permulaan Direktori_ Ia mengambil namanya dari Direktori yang bermaksud semua lima pengarah_ ketua-ketua kerajaan di mana kuasa eksekutif dan menteri dibahagikan_ untuk mengelakkan kezaliman_ dan tempat duduknya berada di Istana Luxembourg "
"contemporaine","21 novembre 1806","hard","Décret de Berlin instituant un blocus contre l’Angleterre","Keputusan Berlin Menubuhkan Sekatan terhadap England"
"Moyen-âge","25 octobre 1415","hard","Défaite de la chevalerie française à Azincourt face aux Anglais","Kekalahan persaudaraan Perancis di Azincourt terhadap bahasa Inggeris"
"contemporaine","18 octobre 1813","hard","Défaite de Napoléon à Leipzig","Kekalahan Napoleon di Leipzig"
"contemporaine","25 août 1976","hard","Démission de Jacques Chirac_ Raymond Barre le remplace","Peletakan jawatan Jacques Chirac_ Raymond Barre menggantikannya"
"contemporaine","2 décembre 1887","hard","Démission de Jules Grévy suite au scandale des décorations","Peletakan jawatan Jules Grévy berikutan skandal hiasan"
"contemporaine","9 novembre 1799","hard","Démission de Sieyès_ Barras et Ducos de l’exécutif provoquant la vacance du pouvoir_ coup d’état du 18 Brumaire","Peletakan jawatan Sieyes_ Barras dan Ducos dari eksekutif menyebabkan kekosongan kuasa_ kudeta 18 Brumaire"
"contemporaine","30 janvier 1879","hard","Démission du président Mac-Mahon","Peletakan jawatan Presiden Mac-Mahon"
"Moyen-âge","4 juillet 1190","hard","Départ de Philippe Auguste pour la troisième croisade","Pelarian Philippe Auguste untuk perang salib ketiga"
"Moyen-âge","12 juin 1248","hard","Départ de Saint-Louis pour la septième croisade","Berlepas Saint-Louis untuk perang salib ketujuh"
"contemporaine","12 juin 1982","hard","Dévaluation du franc","Penurunan nilai franc"
"contemporaine","25 juin 1877","hard","Dissolution de l’Assemblée nationale (III République)","Pembubaran Dewan Negara (III Republik)"
"contemporaine","27 septembre 1939","hard","Dissolution du PCF","Pembubaran PCF"
"contemporaine","30 décembre 1919","hard","Du congrès de Tours naît la scission entre SFIO et PCF","Dari Kongres Tours dilahirkan perpecahan antara SFIO dan PCF"
"Moyen-âge"," 2 octobre 1370","hard","Du Guesclin devient connétable (haute dignité)","Du Guesclin menjadi kotor (maruah tinggi)"
"antique",70,"hard","Échec de « l’empire des Gaules » de Sabinus","Kegagalan kerajaan Gaul Sabinus"
"moderne","17 mars 1560","hard","Échec de la conjuration d’Ambroise visant à enlever le roi","Konspirasi Ambroise gagal untuk memecat raja"
"contemporaine","12-13 mai 1839","hard","Échec des journées révolutionnaires de Barbès et Blanqui","Kegagalan hari revolusi Barbados dan Blanqui"
"contemporaine",2005,"hard","Echec du référendum pour une constitution européenne","Kegagalan referendum untuk perlembagaan Eropah"
"antique",313,"hard","Édit de Milan venant confirmer la liberté de culte pour les chrétiens et la restitution des biens confisqués","Edisi Milan mengesahkan kebebasan beribadat untuk orang Kristian dan penyata harta yang dirampas"
"moderne","8 août 1788","hard","Édit prévoyant la convocation des États Généraux (assemblée extraordinaire réunissant les trois ordres (les états) de la société : la noblesse_ le clergé et le tiers état (le reste)) pour le 1er mai","Pemberlakuan undang-undang untuk persidangan Agung Negara (mesyuarat luar biasa membawa bersama tiga perintah (negeri) masyarakat: bangsawan_ paderi dan negara ketiga (yang lain) untuk 1 Mei"
"contemporaine","8 avril 1938","hard","Édouard Daladier remplace Léon Blum à la tête du gouvernement mettant fin au Front Populaire","Edouard Daladier menggantikan Leon Blum di kepala kerajaan yang mengakhiri Barisan Popular"
"contemporaine","26 mars 1871","hard","Élections de la commune de Paris","Pemilihan komune Paris"
"contemporaine","1 mars 1948","hard","Embuscade du Viet-minh contre un convoi français en Indochine (82†)","Tendangan Viet-min terhadap konvoi Perancis di Indochina (82 †)"
"Moyen-âge","22 février 1358","hard","Étienne Marcel soulève Paris avec l’aide de Charles le Mauvais","Étienne Marcel menimbulkan Paris dengan bantuan Charles the Bad"
"moderne","31 juillet 1602","hard","Exécution de Biron ayant comploté contre le roi","Pelaksanaan Biron telah berkomplot terhadap raja"
"Moyen-âge",1314,"hard","Exécution de Jacques de Molay et Hugues de Pairaud","Pelaksanaan Jacques de Molay dan Hugues de Pairaud"
"contemporaine","31 octobre 1793","hard","Exécution des Girondins.  (Brissot_ Vergniaud…) 1794 13-14 mars Arrestation des chefs hébertistes (Hébert_ Vincent_ Momoro_ Ronsin_ Carrier)","Pelaksanaan Girondins. (Brissot_ Vergniaud ...) 1794 Maret 13-14 Penangkapan pemimpin Hebertis (Hébert_ Vincent_ Momoro_ Ronsin_ Carrier)"
"contemporaine","15 septembre 1990","hard","F. Mitterrand annonce la participation de la France à la guerre du Golfe (opération « Daguet ») contre l’Irak","F. Mitterrand mengumumkan penyertaan Perancis dalam Perang Teluk (operasi Daguet ) terhadap Iraq"
"contemporaine","21 juin 1848","hard","Fermeture des ateliers nationaux_ l'État intervenait directement en fournissant_ en organisant et en payant le travail. Cette « expérience » sociale a duré tout juste trois mois","Penutupan bengkel kebangsaan_ kerajaan campur tangan secara langsung dengan menyediakan_ mengatur dan membayar kerja. Pengalaman sosial ini berlangsung hanya tiga bulan"
"moderne","14 juillet 1790","hard","Fête de la fédération au Champ-de-Mars_ Louis XVI prête serment à la constitution","Perayaan persekutuan di Champ-de-Mars_ Louis XVI bersumpah kepada perlembagaan"
"contemporaine","2 novembre 1919","hard","Fondation du Syndicat Confédération des Travailleurs Chrétiens (CFTC)","Yayasan Konfederasi Pekerja Kristian (CFTC)"
"contemporaine","23 novembre 1945","hard","Formation d’un gouvernement tripartite (MRP-PCF–SFIO) autour du général de Gaulle","Pembentukan kerajaan tripartit (MRP-PCF-SFIO) di sekitar General de Gaulle"
"moderne","8 janvier 1558","hard","François_ duc de Guise s’empare de Calais","François_ duke of Guise merampas Calais"
"moderne","17 juillet 1791","hard","Fusillade du Champ-de-Mars contre les pétitionnaires demandant la déchéance du roi (50†)","Tembak-menembak Champ-de-Mars terhadap pempetisyen menuntut pembakaran raja (50 †)"
"Moyen-âge"," 14 octobre 1066","hard","Guillaume de Normandie remporte la bataille de Hastings (Angleterre) contre Harold qui y trouve la mort","William Normandy memenangi pertempuran Hastings (England) melawan Harold yang menemui kematian"
"moderne","23 décembre 1588","hard","Henri III fait assassiner le duc de Guise et son frère par le capitaine du Guast","Henry III membunuh Duke Guise dan saudaranya oleh kapten Guast"
"moderne","22 mars 1594","hard","Henri IV entre à Paris_ onze provinces se rallie à lui","Henri IV memasuki Paris_ sebelas provinsi bersatu padanya"
"contemporaine","31 mars 1905","hard","Incident franco-allemand de Tanger. Guillaume II refuse de reconnaître la souveraineté française","Kejadian Franco-Jerman di Tangier_ William II enggan mengakui kedaulatan Perancis"
"antique",162,"hard","Incursions germaniques repoussées en Gaule","Penyerangan Jermanik kembali ke Gaul"
"contemporaine","23-26 juin 1848","hard","Insurrection ouvrière à Paris_ en partie due à la fermeture des ateliers nationaux","Pemberontakan pekerja di Paris_ sebahagiannya disebabkan oleh penutupan bengkel nasional"
"contemporaine","22 mars 1986","hard","Jacques Chirac devient premier ministre après avoir remporté les élections législatives_ première cohabitation (président de gauche et 1er ministre de droite)","Jacques Chirac menjadi perdana menteri selepas memenangi pemilihan parlimen_ kelahiran pertama (presiden sayap kiri dan perdana sayap kanan)"
"Moyen-âge","23 novembre 1407","hard","Jean sans Peur_ duc de Bourgogne_ quitte Paris après avoir fait assassiner Louis d’Orléans","John the Fearless_ Duke of Burgundy_ Meninggalkan Paris Selepas Membunuh Louis Orleans"
"contemporaine","25 janvier 1882","hard","Krach de l’Union Générale provoquant la ruine de nombreux épargnants","Krach dari Kesatuan Umum menyebabkan kehancuran ramai penabung"
"contemporaine","4 novembre 1911","hard","L’Allemagne reconnaît le protectorat français sur le Maroc en contrepartie du bassin de la Sangha (Congo)","Jerman mengiktiraf protektorat Perancis ke atas Maghribi sebagai pertukaran untuk lembangan Sangha (Kongo)"
"contemporaine","21 mai 1871","hard","L’armée de Versailles entre dans Paris_ début de la semaine sanglante","Tentera Versailles memasuki Paris_ permulaan minggu berdarah"
"contemporaine","5 octobre 1795","hard","L’armée réprime l’insurrection royaliste (300†)","Tentera menindas pemberontakan raja (300 †)"
"contemporaine","28 juillet 1914","hard","L’Autriche-Hongrie déclare la guerre à la Serbie","Austria-Hungary mengisytiharkan perang ke atas Serbia"
"moderne","15 juin 1702","hard","La coalition déclare la guerre à la France_ début de la guerre de succession d’Espagne","Gabungan mengisytiharkan perang ke Perancis_ memulakan perang pengganti Sepanyol"
"moderne","5-6 janvier 1649","hard","La cour s’enfuit à Saint-Germain_ Condé assiège Paris","Mahkamah melarikan diri ke Saint-Germain_ Condé mengepung Paris"
"contemporaine","28 mars 1993","hard","La droite remporte les élections législatives_ nouvelle cohabitation","Hak menang pilihan raya perundangan_ bersekedudukan baru"
"contemporaine","1 août 1798","hard","La flotte française est détruite à Aboukir par l’amiral Nelson","Armada Perancis dimusnahkan di Aboukir oleh Admiral Nelson"
"contemporaine","9 décembre 1905","hard","La France accepte le principe d’une conférence de paix internationale sur le Maroc","Perancis menerima prinsip persidangan damai antarabangsa di Maghribi"
"moderne","19 mai 1635","hard","La France déclare la guerre à l’Espagne","Perancis mengisytiharkan perang ke atas Sepanyol"
"moderne","26 novembre 1688","hard","La France déclare la guerre à la Hollande_ début de la guerre contre la ligue d’Augsbourg","Perancis mengisytiharkan perang ke atas Belanda_ permulaan perang melawan liga Augsburg"
"contemporaine","11 janvier 1923","hard","La France et la Belgique occupent la Ruhr pour contraindre l’Allemagne à payer les indemnités de guerre","Perancis dan Belgium menduduki Ruhr untuk memaksa Jerman untuk membayar ganti rugi perang"
"contemporaine","27 janvier 1964","hard","La France reconnaît la République populaire de Chine","Perancis mengiktiraf Republik Rakyat China"
"contemporaine","29 octobre 1924","hard","La France reconnaît officiellement l’URSS","Perancis secara rasmi mengiktiraf USSR"
"contemporaine","27 mars 1854","hard","La France_ l’Angleterre et la Turquie déclarent la guerre à la Russie","Perancis_ England dan Turki mengisytiharkan perang ke atas Rusia"
"contemporaine","1 juin 1997","hard","La gauche plurielle (PS-Vert-PC) remporte les élection suite à la dissolution de l’Assemblé Nationale_ troisième cohabitation ","The jamak jamak (PS-Green-PC) memenangi pilihan raya berikutan pembubaran Dewan Negara_ persekutuan ketiga"
"moderne","1618-1648","hard","La guerre de Trente Ans est une série de conflits armés qui a déchiré l’Europe","Perang Tiga Puluh Tahun adalah satu siri konflik bersenjata yang telah rosak di Eropah"
"contemporaine","21-22 décembre 1851","hard","Large plébiscite du coup d’État de Louis-Napoléon Bonaparte","Pekutan besar kudeta Louis Napoleon Bonaparte"
"contemporaine","11 mai 1924","hard","Le Cartel des gauches remporte les élections législatives","The Cartel of the Kiri memenangi pilihan raya perundangan"
"contemporaine","3 mai 1936","hard","Le Front populaire remporte les élections législatives_ début des grèves","Front Popular memenangi pilihan raya perundangan_ permulaan mogok"
"contemporaine","30 mai 1968","hard","Le général de Gaulle annonce la dissolution de l’Assemblée nationale","Ketua de Gaulle mengumumkan pembubaran Dewan Negara"
"contemporaine","9 septembre 1944","hard","Le général De Gaulle créé un gouvernement provisoire","Ketua De Gaulle mencipta kerajaan sementara"
"contemporaine","3 juin 1943","hard","Le général De Gaulle fonde le Comité Français de Libération Nationale (CFLN)","Ketua De Gaulle menetapkan Jawatankuasa Pembebasan Kebangsaan Perancis (CFLN)"
"contemporaine","14 avril 1947","hard","Le général De Gaulle fonde le Rassemblement du Peuple Français (RPF)","Ketua De Gaulle menemui Rassemblement du Peuple Français (RPF)"
"contemporaine","15 mai 1917","hard","Le général Pétain remplace le général Nivelle à la tête des armées françaises","Ketua Pétain menggantikan Ketua Nivelle di ketua pasukan Perancis"
"contemporaine","3 juin 1944","hard","Le Gouvernement Provisoire de la France Libre (GPFL) remplace le CFLN","Kerajaan Sementara Perancis Bebas (GPFL) menggantikan CFLN"
"Moyen-âge",1208,"hard","Le pape ordonne la croisade contre les Albigeois sous la conduite de Simon de Monfort","Paus memerintahkan perang salib melawan Albigenses di bawah pimpinan Simon de Monfort"
"moderne","16 juillet 1787","hard","Le Parlement de Paris rejette les réformes fiscales et réclame des États Généraux","Parlimen Paris menolak pembaharuan cukai dan mendakwa Estates General"
"moderne","8 octobre 1547","hard","Le Parlement institue la Chambre Ardente pour lutter contre l’hérésie (sous le règne de Henri II)","Parlimen menetapkan Dewan Kesetiaan untuk melawan sesat (di bawah pemerintahan Henry II)"
"contemporaine","5 décembre 1831","hard","Le prince royal et le maréchal Soult à la tête de vingt mille hommes entrent à Lyon","Putera diraja dan Marshal Soult di kepala dua puluh ribu lelaki masuk ke Lyon"
"contemporaine","26 mars 1944","hard","Les Allemands détruisent le maquis du plateau des Glières (mouvement de résistants français)","Orang Jerman memusnahkan dataran tinggi maquis Glières (gerakan perjuangan Perancis)"
"contemporaine","23 octobre 1944","hard","Les Américains reconnaissent le gouvernement provisoire du général De Gaulle","Orang Amerika mengiktiraf kerajaan sementara General De Gaulle"
"contemporaine","23 juillet 1944","hard","Les armées allemandes ont anéantis le maquis du Vercors (mouvement de résistants français)","Tentera Jerman telah menghancurkan maut dari Vercors (pergerakan perlawanan Perancis)"
"contemporaine","Janvier 1814","hard","Les armées coalisées (plus d’un million de soldats) envahissent la France","Tentera gabungan (lebih daripada satu juta askar) menyerang Perancis"
"Moyen-âge",1317,"hard","Les Grands du royaume_ confirment le principe de loi salique","Besar kerajaan_ mengesahkan prinsip hukum salik"
"Moyen-âge","28 mai 1418","hard","Les Parisiens ouvrent les portes de la capitale aux Bourguignons","Parisians membuka pintu modal ke Burgundia"
"moderne","24 décembre 1620","hard","Les Protestants décident lors de l’assemblée de La Rochelle de prendre les armes","Orang Protestan membuat keputusan di perhimpunan La Rochelle untuk mengambil senjata"
"moderne","21 février 1701","hard","Les Provinces-Unies reconnaissent Philippe V comme roi d’Espagne","Wilayah-wilayah Amerika mengiktiraf Philip V sebagai Raja Sepanyol"
"antique",-283,"hard","Les romains s’emparent du pays des Sénons (Celtes)","Orang Rom merebut negara Sénons (Celts)"
"antique",-125,"hard","Les Salyens ravagent les terres de Marseille qui demande l’aide de Rome","Salyens memusnahkan tanah Marseilles yang meminta pertolongan dari Rom"
"contemporaine","11 novembre 1942","hard","Les troupes allemandes entrent en zone libre","Tentera Jerman memasuki zon bebas"
"contemporaine","19 février 1858","hard","Loi de sûreté générale venant accroître la répression","Undang-undang keselamatan umum datang untuk meningkatkan penindasan"
"contemporaine","12 octobre 1988","hard","Loi instituant le Revenu Minimum d’Insertion","Undang-undang menetapkan Pendapatan Insert Minimum"
"moderne","14 juin 1791","hard","Loi Le Chapelier interdisant les associations patronales et ouvrières","Undang-undang Hatter melarang persatuan majikan dan pekerja"
"contemporaine","28 avril 1825","hard","Loi sur le « Milliard des émigrés »_ consistant à indemniser les émigrés qui avaient perdu leurs biens vendus comme Bien national sous la Révolution","Undang-undang mengenai Milliard of emigrants _ yang terdiri dari memberi pampasan kepada para pendatang yang telah kehilangan hartanya yang dijual sebagai harta negara di bawah Revolusi"
"Moyen-âge","29 novembre 1226","hard","Louis IX est sacré à Reims_ Régence de Blanche de Castille (jusqu’en 1236)","Louis IX adalah suci untuk Reims_ Kabupaten Blanche dari Castile (hingga 1236)"
"Moyen-âge","21 mars 1152","hard","Louis VII fait casser son mariage (divorce avec Aliénor d’Aquitaine) par le concile de Beaugency","Louis VII memecah perkahwinannya (perceraian dengan Aliénor of Aquitaine) oleh dewan Beaugency"
"moderne","24 mai 1667","hard","Louis XIV revendique la couronne espagnole_ début de la guerre de dévolution","Louis XIV mendakwa mahkota Sepanyol_ permulaan perang devolusi"
"moderne","10 octobre 1733","hard","Louis XV déclare la guerre à l’empereur autrichien","Louis XV mengisytiharkan perang ke atas maharaja Austria"
"moderne","15 février 1723","hard","Louis XV est déclaré majeur_ fin de la régence","Louis XV diisytiharkan utama_ akhir dari kabupaten"
"moderne","14 août 1787","hard","Louis XVI exile le Parlement à Troyes","Louis XVI mengasingkan Parlimen di Troyes"
"contemporaine","8 juillet 1815","hard","Louis XVIII entre à Paris","Louis XVIII memasuki Paris"
"contemporaine","12 janvier 1870","hard","Manifestation républicaine pour les funérailles de Victor Noir_ journaliste français tué à l'âge de 21 ans d'un coup de feu par le prince Pierre-Napoléon Bonaparte","Demokrasi Republik untuk penguburan Victor Noir_ wartawan Perancis yang dibunuh pada usia 21 tahun oleh tembakan oleh Putera Pierre-Napoleon Bonaparte"
"moderne","25 juillet 1792","hard","Manifeste de Brunswick_ est une proclamation attribuée au chef de l’armée prussienne_ Charles-Guillaume-Ferdinand_ duc de Brunswick_ qui a pour objectif l’intimidation des parisiens","Manifesto Brunswick_ adalah pengisytiharan yang diketuai oleh ketua tentera Prussia_ Charles-Guillaume-Ferdinand_ Duke of Brunswick_ yang bertujuan untuk menakut-nakuti orang Paris"
"Moyen-âge",493,"hard","Mariage de Clovis avec Clothilde (Burgonde)","Perkahwinan Clovis dengan Clothilde (Burgundy)"
"moderne","9 juin 1660","hard","Mariage de Louis XIV avec Marie-Thérèse d’Autriche","Perkahwinan Louis XIV dengan Maria Theresa dari Austria"
"moderne","5 septembre 1725","hard","Mariage de Louis XV avec Marie Leszczynska_ fille de l’ex-roi de Pologne_ à Fontainebleau","Perkahwinan Louis XV dengan Marie Leszczynska_ anak perempuan bekas Raja Poland_ Fontainebleau"
"Moyen-âge","25 juillet 1137","hard","Mariage de Louis_ fils aîné de Louis VI avec Aliénor d’Aquitaine_ héritière du duché","Perkahwinan Louis_ anak sulung Louis VI dengan Aliénor dari Aquitaine_ pewaris dari duchy"
"contemporaine","2 avril 1810","hard","Mariage de Napoléon et de Marie-Louise d’Autriche","Perkahwinan Napoleon dan Marie-Louise dari Austria"
"antique","177 et 174 ","hard","Martyrs de chrétiens à Lyon (Sainte Blandine)","Martir Kristian di Lyon (Blandine)"
"moderne","11 mai 1745","hard","Maurice de Saxe bat les Anglais à Fontenoy","Maurice of Saxony mengalahkan bahasa Inggeris di Fontenoy"
"moderne","3 février 1653","hard","Mazarin est de retour à Paris_ marquant la fin de la Fronde","Mazarin kembali ke Paris_ menandakan berakhirnya Fronde"
"contemporaine","20 avril 1870","hard","Mise en place d’un régime parlementaire par senatus-consulte","Penubuhan sistem parlimen oleh senatus-consulte"
"moderne","1 novembre 1700","hard","Mort de Charles II d’Espagne qui désigne Philippe_ deuxième fils du Grand Dauphin comme son successeur","Kematian Charles II dari Sepanyol yang menamakan Philip_ anak kedua dari Grand Dauphin sebagai penggantinya"
"moderne","5 janvier 1477","hard","Mort de Charles le Téméraire devant Nancy","Kematian Charles yang Bold sebelum Nancy"
"moderne","20 octobre 1740","hard","Mort de Charles VI d’Autriche_ sa fille Marie-Thérèse lui succède posant le problème de la succession","Kematian Charles VI dari Austria_ anak perempuannya_ Marie-Thérèse berjaya menimbulkan masalah penggantian"
"Moyen-âge",558,"hard","Mort de Childebert_ Clotaire contrôle seul le royaume Franc","Kematian Childebert_ Clotaire mengawal kerajaan Franc sahaja"
"Moyen-âge",629,"hard","Mort de Clotaire II_ son fils Dagobert prend la tête du royaume","Kematian Clotaire II_ anaknya Dagobert mengambil ketua kerajaan"
"Moyen-âge",561,"hard","Mort de Clotaire_ partage du royaume entre ses quatre fils","Kematian Clotaire_ pembahagian kerajaan antara empat anaknya"
"Moyen-âge",511,"hard","Mort de Clovis_ son royaume est partagé entre ses quatre fils (Thierry_ Clodomir_ Childebert et Clotaire)","Kematian Clovis_ kerajaannya dibagi antara empat anaknya (Thierry_ Clodomir_ Childebert dan Clotaire)"
"Moyen-âge",639,"hard","Mort de Dagobert Ier_ partage du royaume entre ses deux fils Sigebert III (8 ans) et Clovis II (4 ans)","Kematian Dagobert I_ pembahagian kerajaan antara kedua anaknya Sigebert III (8 tahun) dan Clovis II (4 tahun)"
"Moyen-âge",593,"hard","Mort de Gontran_ Childebert II hérite du Royaume de Bourgogne","Kematian Gontran_ Childebert II mewarisi Kerajaan Burgundy"
"moderne","14 mai 1643","hard","Mort de Louis XIII_ son fils Louis lui succède","Kematian Louis XIII_ anaknya Louis berjaya"
"moderne","10 mai 1774","hard","Mort de Louis XV_ son petit-fils Louis lui succède","Kematian Louis XV_ cucunya Louis berjaya dia"
"Moyen-âge"," 5 octobre 1285","hard","Mort de Philippe III à Perpignan son fils Philippe IV_ le Bel lui succède","Kematian Philip III di Perpignan anaknya Philip IV_ Bel berjaya dia"
"Moyen-âge","15 janvier 936","hard","Mort de Raoul à Auxerre_ Louis fils de Charles le Simple réfugié en Angleterre est appelé au trône","Kematian Raoul di Auxerre_ Louis anak Charles pelarian sederhana di England dipanggil ke takhta"
"Moyen-âge","15 août 778","hard","Mort de Roland à Roncevaux","Kematian Roland di Roncesvalles"
"Moyen-âge","25 août 1270","hard","Mort de Saint Louis à Tunis son fils Philippe III le Hardi lui succède","Kematian Saint Louis di Tunis anaknya Philip III yang Bold berjaya dia"
"moderne","23 février 1766","hard","Mort de Stanislas Leszczynski_ roi de Pologne_ qui lègue la Lorraine et Bar à la France","Kematian Stanislas Leszczynski_ Raja Poland_ yang mewarisi Lorraine dan Bar ke Perancis"
"moderne","9 mars 1661","hard","Mort du cardinal de Mazarin","Kematian Cardinal Mazarin"
"contemporaine","22 juin 1815","hard","Napoléon abdique en faveur de son fils","Napoleon menyerahkan diri kepada anaknya"
"contemporaine","24 juin 1812","hard","Napoléon franchit le Niémen_ Début de la campagne de Russie","Napoleon melintasi Niemen_ Mula kempen Rusia"
"contemporaine","25 septembre 1915","hard","Offensive franco-anglaise en Artois et en Champagne","Franco-Bahasa Inggeris menyerang di Artois dan Champagne"
"contemporaine","25 juillet 1830","hard","Ordonnance de dissolution de la Chambre des députés","Perintah pembubaran Dewan Perwakilan"
"Moyen-âge",1445,"hard","Ordonnance de Louppy-le-Châtel sur la permanence d’une armée de métier","Ordinan Louppy-le-Châtel mengenai ketahanan tentera profesional"
"contemporaine","19 février 1942","hard","Ouverture du procès de Riom des anciens dirigeants français","Pembukaan percubaan Riom bekas pemimpin Perancis"
"moderne","7 mai 1576","hard","Paix de Monsieur à Beaulieu accordant des facilités de cultes et 8 places fortes aux Protestants","Kedamaian Monsieur di Beaulieu memberikan kemudahan ibadat dan 8 tempat yang kuat kepada Protestan"
"Moyen-âge",534,"hard","Partage du royaume Burgonde entre Théodebert_ Childebert et Clothaire","Berkongsi kerajaan Burgundia antara Théodebert_ Childebert dan Clothaire"
"contemporaine","13 janvier 1898","hard","Parution de « J’accuse » d’Émile Zola dans l’Aurore","Penerbitan Jaccuse oleh Émile Zola di Aurore"
"contemporaine","5 mai 1947","hard","Paul Ramadier renvoie les ministres communistes qui s’opposent au blocage des salaires","Paul Ramadier menolak menteri komunis yang menentang pembekuan upah"
"moderne","2 septembre 1715","hard","Philippe d’Orléans fait annuler le testament de Louis XIV pour s’arroger tous les pouvoirs","Philippe dOrléans membatalkan perjanjian Louis XIV untuk menyangkal semua kuasa"
"contemporaine","21 octobre 1917","hard","Premier engagement des troupes américaines dans le conflit","Pertunangan pertama tentera Amerika dalam konflik"
"moderne","30 août 1673","hard","Première coalition (Provinces-Unies_ Espagne_ l’Empire allemand et la Lorraine) contre la France","Gabungan pertama (Provinsi United_ Sepanyol_ Empayar Jerman dan Lorraine) melawan Perancis"
"Moyen-âge","4 août 1392","hard","Première crise de folie de Charles VI près du Mans","Krisis pertama Charles VI berhampiran Le Mans"
"antique",233,"hard","Premières incursions Alamanes dans l’Empire_ début des « Grandes Invasions »","Penyerangan pertama Alamane di Empayar_ permulaan Invasions Besar "
"contemporaine","4 juin 1814","hard","Proclamation de la Charte_ cette dernière est la constitution du royaume de France en vigueur sous la Première puis la Seconde Restauration.","Proklamasi Piagam_ yang terakhir adalah perlembagaan Kerajaan Perancis yang berkuatkuasa di bawah Pemulihan Pertama dan Kedua."
"contemporaine","9 septembre 1835","hard","Promulgation des lois sur la presse (censure)","Pemberlakuan undang-undang di akhbar (penapisan)"
"Moyen-âge",510,"hard","Publication de la loi salique_ il s'agit d'un code de loi élaboré","Penerbitan undang-undang Salik_ itu adalah kod undang-undang yang dihuraikan"
"Moyen-âge","13 juillet 923","hard","Raoul est élu roi et couronné à Soisson par les révoltés en remplacement de Robert","Raoul dipilih raja dan dinobatkan di Soisson oleh para pemberontak untuk menggantikan Robert"
"contemporaine","24 octobre 1940","hard","Rencontre de Montoire entre Pétain et Hitler","Pertemuan Montoire antara Petain dan Hitler"
"moderne","11 juillet 1789","hard","Renvoi de Necker_ le baron de Breteuil lui succède","Pulangan Necker_ Baron de Breteuil menggantikannya"
"moderne","12 mai 1776","hard","Renvoi de Turgot_ contrôleur général des finances_ sous la pression populaire","Pulangan Turgot_ Pengawas Ketua Kewangan_ di bawah tekanan yang popular"
"moderne","21 octobre 1652","hard","Retour du roi et de la cour à Paris_ amnistie des frondeurs sauf Condé","Pengembalian raja dan pengadilan ke Paris_ pengampunan pengusik kecuali Conde"
"antique",-12,"hard","Réunion de l’assemblée provinciale des chefs des Gaules","Perhimpunan Perhimpunan Provinsi Gaul"
"contemporaine","6 septembre 1892","hard","Révélation du scandale du canal de Panama (affaire de corruption)","Wahyu skandal Terusan Panama (kes rasuah)"
"Moyen-âge",922,"hard","Révolte de Gilbert de Lorraine_ Robert de France_ Robert de Bourgogne contre Charles III le Simple","Pemberontakan Gilbert de Lorraine_ Robert dari Perancis_ Robert dari Burgundy melawan Charles III yang mudah"
"antique",68,"hard","Révolte de Vindex (Gouverneur de Lyon)","Pemberontakan Vindex (Gabenor Lyon)"
"contemporaine","20-22 novembre 1831","hard","Révolte des Canuts à Lyon_ cela désigne plusieurs soulèvements ouvriers","Pemberontakan Canuts di Lyon_ ia menimbulkan beberapa pemberontakan pekerja"
"moderne","Mai 1788","hard","Révolte des Parlements_ émeutes à Besançon_ Toulouse_ et Rennes","Pemberontakan Parlimen_ rusuhan di Besancon_ Toulouse_ dan Rennes"
"antique",21,"hard","Révoltes de Sacrovir (éduen) et de Florus (trévire)","Pemberontakan Sacrovir (eduen) dan Florus (trevire)"
"moderne","13 août 1624","hard","Richelieu est nommé chef du Conseil","Richelieu dilantik sebagai ketua Majlis"
"contemporaine","27 juillet 1794","hard","Robespierre et Saint-Just sont pris à partie à la tribune de la Convention","Robespierre dan Saint-Just terlibat dalam tribun Konvensyen"
"contemporaine","29 juillet 1904","hard","Rupture des relations diplomatiques entre la France et le Vatican","Pecahan hubungan diplomatik antara Perancis dan Vatican"
"contemporaine","27 novembre 1942","hard","Sabordage de la flotte française à Toulon","Penangkapan armada Perancis di Toulon"
"Moyen-âge","17 juillet 1429","hard","Sacre de Charles VII à Reims","Ritus Charles VII di Reims"
"contemporaine","29 mai 1825","hard","Sacre de Charles X à Reims","Ritus Charles X di Reims"
"Moyen-âge","29 mai 1328","hard","Sacre de Philipe VI à Reims","Ritus Philipe VI di Reims"
"Moyen-âge","6 mai 1250","hard","Saint-Louis et les survivants de son armée rejoignent Saint-Jean d’Âcre","Saint-Louis dan orang-orang yang selamat dari tenteranya menyertai Saint-Jean dAcre"
"Moyen-âge","6 avril 1250","hard","Saint-Louis et son armée sont capturés et fait prisonniers","St Louis dan tenteranya ditangkap dan dibawa tahanan"
"contemporaine","20 novembre 1815","hard","Second traité de Paris_ la France est ramenée à ses frontières de 1790","Perjanjian kedua Paris_ Perancis dibawa kembali ke sempadan 1790"
"moderne","2 mai 1682","hard","Seconde coalition (Provinces-Unies_ Espagne_ l’Empire et la Suède) contre la France","Gabungan kedua (Provinsi United_ Sepanyol_ Empayar dan Sweden) terhadap Perancis"
"contemporaine","3 septembre 1918","hard","Signature de l’armistice entre les alliés et l’Autriche","Tandatangan Gencatan Senjata antara Sekutu dan Austria"
"contemporaine","27 juin 1972","hard","Signature du « Programme commun » entre les socialistes_ les communistes et les radicaux","Tandatangan Program Bersama antara Sosialis_ Komunis dan Radikal"
"contemporaine","22 janvier 1963","hard","Signature du traité de l’Élysée sur la coopération franco-allemande","Tandatangan Perjanjian Elysée mengenai kerja sama Franco-Jerman"
"Moyen-âge","Janvier 1358","hard","Signature du traité de Londres entre Jean II et le roi d’Angleterre","Tandatangan Perjanjian London antara John II dan Raja England"
"moderne","12 septembre 1733","hard","Stanislas Leszczynski_ beau-frère de Louis XV est élu roi de Pologne","Stanislas Leszczynski_ saudara ipar Louis XV dipilih raja Poland"
"moderne","25 janvier 1494","hard","Suite à la mort de Ferdinand_ Charles VIII se proclame roi de Naples","Selepas kematian Ferdinand_ Charles VIII mengumumkan dirinya sebagai raja Napoli"
"moderne","26 janvier 1611","hard","Sully démissionne pour protester contre l’influence de C. Concini et sa femme","Sully mengundurkan diri untuk memprotes pengaruh C. Concini dan isterinya"
"contemporaine","26 mars 1820","hard","Suspension des libertés individuelles (pendant la restauration)","Penggantungan kebebasan individu (semasa pemulihan)"
"moderne","10 août 1792","hard","Suspension du roi qui est remplacé par le conseil exécutif provisoire","Penggantungan Raja yang digantikan oleh Majlis Eksekutif Sementara"
"contemporaine","12 novembre 1890","hard","Toast d’Alger au cours duquel le cardinal Lavigerie souhaite le ralliement des Catholiques à la république","Roti bakar Algiers di mana Cardinal Lavigerie mahukan perhimpunan Katolik ke republik itu"
"moderne","2 mai 1668","hard","Traité d’Aix-la-Chapelle mettant fin à la guerre de dévolution_ la France restitue la Franche-Comté mais garde 12 places fortes conquises en Flandre","Perjanjian Aix-la-Chapelle berakhir perang penyebaran_ Perancis mengembalikan Franche-Comté tetapi menyimpan 12 kubu kuat ditawan di Flanders"
"moderne","18 octobre 1748","hard","Traité d’Aix-la-Chapelle mettant fin à la guerre de succession d’Autriche","Perjanjian Aachen Menamatkan Perang Pengganti Austria"
"contemporaine","8 avril 1904","hard","Traité d’alliance franco-anglais (Entente cordiale)","Perjanjian Perancis-Inggeris (Entente cordiale)"
"contemporaine","25 mars 1802","hard","Traité d’Amiens scellant la paix entre la France et l’Angleterre","Perjanjian Amiens menutup kedamaian antara Perancis dan England"
"Moyen-âge","21 septembre 1435","hard","Traité d’Arras entre Charles VII et Philippe le Bon","Perjanjian Arras antara Charles VII dan Philip yang Baik"
"moderne","23 décembre 1482","hard","Traité d’Arras entre Frédéric III de Habsbourg et Louis XI qui récupère la Picardie et la Bourgogne","Perjanjian Arras antara Frederick III dari Habsburg dan Louis XI yang pulih dari Picardy dan Burgundy"
"moderne","11 avril 1713","hard","Traité d’Utrecht mettant fin à la guerre de succession d’Espagne","Perjanjian Utrecht menghentikan perang berturut-turut Sepanyol"
"Moyen-âge","8 mai 1360","hard","Traité de Brétigny_ Édouard III d’Angleterre renonce au trône de France en échange de l’Aquitaine","Perjanjian Bretigny_ Edward III dari England meninggalkan takhta Perancis sebagai pertukaran untuk Aquitaine"
"moderne","11 novembre 1500","hard","Traité de Grenade entre Louis XII et Ferdinand d’Aragon pour le partage du royaume de Naples","Perjanjian Granada antara Louis XII dan Ferdinand Aragon untuk pembahagian Kerajaan Naples"
"Moyen-âge","23 mai 1414","hard","Traité de Leicester marquant l’alliance entre l’Angleterre et la Bourgogne","Perjanjian Leicester menandakan perikatan antara England dan Burgundy"
"moderne","5 février 1679","hard","Traité de Nimègue avec les Impériaux marquant la fin de la guerre de Hollande_ La France a acquis la Franche-Comté_ Cambrai_ Valenciennes_ l’Alsace_ le Sénégal et la Guyane","Perjanjian Nijmegen dengan Imperialis menandakan berakhirnya perang di Belanda_ Perancis memperoleh Franche-Comté_ Cambrai_ Valenciennes_ Alsace_ Senegal dan Guyana"
"moderne","28 mars 1741","hard","Traité de Nymphenburg scellant l’alliance de la France_ l’Espagne_ la Bavière_ la Saxe et la Pologne contre Marie-Thérèse d’Autriche","Perjanjian Nymphenburg menyegel pakatan Perancis_ Sepanyol_ Bavaria_ Sachsen dan Poland terhadap Maria Theresa dari Austria"
"moderne","17 septembre 1678","hard","Traité de paix franco-espagnol","Perjanjian damai Franco-Sepanyol"
"contemporaine","30 mars 1856","hard","Traité de Paris mettant fin à la guerre de Crimée","Perjanjian Paris menamatkan Perang Crimean"
"moderne","10 février 1763","hard","Traité de Paris mettant fin à la guerre de sept ans marquant la perte de nombreux territoires","Perjanjian Paris berakhir perang tujuh tahun menandakan kehilangan banyak wilayah"
"Moyen-âge","28 mai 1258","hard","Traité de Paris sur la restitution d’une partie des possessions anglaises par Saint Louis_ Henri III d’Angleterre devient vassal du roi de France","Perjanjian Paris pada pengembalian sebahagian harta benda Inggeris oleh Saint Louis_ Henry III dari England menjadi vassal Raja Perancis"
"Moyen-âge","12 avril 1229","hard","Traité de Paris_ Beaucaire Nîmes et Carcassonne sont rattachés au royaume (fin de la croisade des Albigeois)","Perjanjian Paris_ Beaucaire Nimes dan Carcassonne dilampirkan ke kerajaan (akhir perang Salib Albigensian)"
"contemporaine","25 août 1883","hard","Traité de protectorat français sur le Tonkin et la Cochinchine","Perjanjian Protektorat Perancis di Tonkin dan Cochin China"
"moderne","16 août 1684","hard","Traité de Ratisbonne entre Louis XIV_ Léoplod Ier d’Autriche et Charles II d’Espagne accordant à la France les villes et territoires conquis","Perjanjian Regensburg antara Louis XIV_ Leoplod I Austria dan Charles II dari Sepanyol yang memberikan kepada Perancis bandar dan wilayah yang ditawan"
"moderne","30 octobre 1697","hard","Traité de Ryswick mettant fin à la guerre de la ligue d’Augsbourg où Louis XIV est contraint à de fortes concessions","Perjanjian Ryswick mengakhiri perang liga Augsburg di mana Louis XIV dipaksa untuk konsesi kuat"
"contemporaine","7-9 juillet 1807","hard","Traité de Tilsit scellant la paix et l’alliance de Napoléon et du Tsar","Perjanjian Tilsit menyegel keamanan dan persekutuan Napoleon dan Tsar"
"contemporaine","24 mars 1860","hard","Traité de Turin : La France cède la Sardaigne en contrepartie de Nice et la Savoie","Perjanjian Turin: Perancis menjual Sardinia sebagai balasan untuk Nice dan Savoy"
"Moyen-âge","Août 843","hard","Traité de Verdun sur le partage de l’empire entre les trois frères","Perjanjian Verdun mengenai perkongsian empayar antara tiga saudara lelaki"
"moderne","1 mai 1756","hard","Traité de Versailles scellant l’alliance de la France à l’Autriche contre la Prusse et l’Angleterre","Perjanjian Versailles menyegel pakatan Perancis ke Austria terhadap Prussia dan England"
"moderne","2 mai 1598","hard","Traité de Vervins entre Henri IV et Philippe II d’Espagne","Perjanjian Vervins antara Henry IV dan Philip II dari Sepanyol"
"moderne","18 novembre 1738","hard","Traité de Vienne mettant fin à la guerre de succession de Pologne","Perjanjian Vienna menghentikan perang berturut-turut Poland"
"moderne","3 avril 1559","hard","Traité du Cateau-Cambresis mettant fin à la guerre entre la France d’un côté et l'Espagne et le Saint-Empire romain germanique de l’autre","Perjanjian Cateau-Cambresis mengakhiri perang antara Perancis di satu pihak dan Sepanyol dan Empayar Rom Suci di sisi lain"
"moderne","24 août 1774","hard","Turgot_ contrôleur général des finances_ lance une réforme économique libérale","Turgot_ Pengawas Ketua Kewangan_ melancarkan pembaharuan ekonomi liberal"
"contemporaine","7 mai 1915","hard","Un sous-marin allemand coule le Lusitania (1 198† dont 128 américains) au sud-est de l’Irlande","Kapal selam Jerman menenggelamkan Lusitania (1_198 † termasuk 128 AS) tenggara Ireland"
"Moyen-âge",719,"hard","Victoire de Charles Martel à Néry contre les troupes de Neustrie","Kemenangan Charles Martel di Néry terhadap tentera Neustrie"
"Moyen-âge",507,"hard","Victoire de Clovis contre les Wisigoths","Kemenangan Clovis terhadap Visigoths"
"moderne","20 septembre 1792","hard","Victoire de Dumouriez et Kellerman contre les Prussiens à Valmy","Kemenangan Dumouriez dan Kellerman terhadap Prusia di Valmy"
"moderne","20 octobre 1587","hard","Victoire de Henri de Navarre à Coutras sur la Ligue","Kemenangan Henri de Navarre di Coutras di Liga"
"moderne","14 mars 1590","hard","Victoire de Henri IV à Ivry contre la ligue","Kemenangan Henry IV ke Ivry terhadap liga"
"moderne","20 septembre 1589","hard","Victoire de Henri IV sur la Ligue à Arques","Kemenangan Henry IV di Liga di Arques"
"moderne","15 juin 1595","hard","Victoire de Henri IV sur les Espagnols à Fontaine-Française","Kemenangan Henry IV di Sepanyol di Fontaine-Française"
"contemporaine","3 juillet 1830","hard","Victoire de la gauche aux élections législatives","Kemenangan kiri dalam pilihan raya perundangan"
"contemporaine","14 octobre 1806","hard","Victoire de Napoléon à Iéna et à Auerstadt","Kemenangan Napoleon untuk Jena dan Auerstadt"
"contemporaine","14 juin 1807","hard","Victoire de Napoléon contre les Russes à Friedland","Kemenangan Napoleon terhadap Rusia di Friedland"
"Moyen-âge","27 juillet 1214","hard","Victoire de Philippe Auguste à Bouvines sur la coalition Boulogne-Flandre-Othon","Kemenangan Philippe Auguste ke Bouvines pada gabungan Boulogne-Flanders-Othon"
"Moyen-âge","12 septembre 1213","hard","Victoire des armées catholiques contre le comte de Toulouse et le roi d’Aragon lors de la bataille du Muret","Kemenangan pasukan Katolik terhadap kiraan Toulouse dan raja Aragon semasa pertempuran Muret"
"contemporaine","13 mai 1849","hard","Victoire des monarchistes aux élections législatives","Kemenangan kaum monarki dalam pilihan raya perundangan"
"contemporaine","5 mars 1876","hard","Victoire des républicains aux élections législatives (III République)","Kemenangan Republikan dalam pilihan raya legislatif (III Republik)"
"contemporaine","28 octobre 1877","hard","Victoire des républicains aux élections législatives (III République)","Kemenangan Republikan dalam pilihan raya legislatif (III Republik)"
"Moyen-âge",1047,"hard","Victoire des troupes de Guillaume et Henri Ier contre les barons rebelles à Val-les-Dunes","Kemenangan pasukan Guillaume dan Henry I terhadap baron pemberontak di Val-les-Dunes"
"contemporaine","30 novembre 1919","hard","Victoire du Bloc national aux élections législatives (Chambre Bleu Horizon)","Kemenangan Blok Nasional dalam pilihan raya perundangan (Blue Horizon Chamber)"
"contemporaine","8 janvier 1961","hard","Victoire du oui au référendum sur l’autodétermination en Algérie","Kemenangan ya dalam referendum mengenai penentuan nasib sendiri di Algeria"
"Moyen-âge","21 juillet 1242","hard","Victoire sur Henri III (roi d’Angleterre) et les Poitevins à Taillebourg et à Saintes","Kemenangan ke atas Henry III (Raja Inggeris) dan Poitevins di Taillebourg dan Saintes"
"contemporaine","15 mars 1850","hard","Vote de la loi Falloux confiant l’enseignement à l’église","Undang-undang Vote Falloux mempercayakan pengajaran kepada gereja"
"contemporaine","21-25 avril 1961","medium","« Putsch des généraux » à Alger_ tentative de coup d’État","Putsch daripada jeneral di Algiers_ percubaan kudeta "
"contemporaine","18 mars 1962","medium","Accords d’Évian mettant fin à la guerre d’Algérie","Perjanjian Evian Mengakhiri Perang Algeria"
"contemporaine","19 décembre 1974","medium","Adoption du projet de loi sur l’Interruption Volontaire de Grossesse (IVG) pour une durée probatoire de 5 ans","Angkat rang undang-undang mengenai Gangguan Sukarela Kehamilan (IVG) untuk tempoh percubaan selama 5 tahun"
"contemporaine","28 décembre 1967","medium","Adoption par l’assemblée de la Loi Neuwirth légalisant la contraception","Pengambilan oleh perhimpunan Undang-undang Neuwirth mengesahkan kontrasepsi"
"Moyen-âge",796,"medium","Aix-la-Chapelle est choisie pour capitale","Aachen dipilih untuk modal"
"Moyen-âge",788,"medium","Annexion de la Bavière","Pengambilan Bavaria"
"contemporaine","18 juin 1940","medium","Appel à la résistance du général De Gaulle réfugié à Londres","Panggil untuk tahanan dari pelarian Jeneral de Gaulle di London"
"contemporaine","17 juin 1940","medium","Appel radiophonique du maréchal Pétain à cesser le combat","Panggilan radio Marshal Petain untuk menghentikan perjuangan"
"contemporaine","2 juin 1793","medium","Arrestation des chefs girondins","Penangkapan pemimpin Girondin"
"contemporaine","15 octobre 1894","medium","Arrestation du capitaine Dreyfus soupçonné d’espionnage (l’affaire Dreyfus)","Penangkapan Kapten Dreyfus yang disyaki pengintipan (kes Dreyfus)"
"moderne","2 août 1589","medium","Assassinat d’Henri III_ Henri de Navarre lui succède","Pembunuhan Henry III_ Henry dari Navarre menggantikannya"
"contemporaine","24 juin 1894","medium","Assassinat du président Sadi Carnot par Santo Caserio_ anarchiste italien à Lyon","Pembunuhan Presiden Sadi Carnot oleh Santo Caserio_ anarkis Itali di Lyon"
"contemporaine","14 janvier 1858","medium","Attentat d’Orsini contre l’empereur (8†)","Serangan Orsini terhadap maharaja (8 †)"
"contemporaine","22 août 1962","medium","Attentat manqué de l’OAS (Organisation armée secrète_ pour une Algérie française) contre De Gaulle au Petit-Clamart","Serangan Miss OAS (Organisasi Tentera Rahsia_ untuk Algeria Perancis) terhadap De Gaulle di Petit-Clamart"
"contemporaine","2 septembre 1870","medium","Capitulation de Napoléon III à Sedan qui devient prisonnier","Kaum Napoleon III di Sedan yang menjadi tahanan"
"Moyen-âge",806,"medium","Charlemagne partage son royaume entre ses trois fils Charles_ Louis (Aquitaine) et Pépin (Lombardie)","Charlemagne berkongsi kerajaannya antara tiga anak lelaki Charles_ Louis (Aquitaine) dan Pepin (Lombardy)"
"Moyen-âge","Novembre 887","medium","Charles II est déposé et enfermé dans une abbaye","Charles II digulingkan dan dikurung dalam sebuah biara"
"Moyen-âge",716,"medium","Charles Martel devient maire du palais (plus hauts dignitaires_ après les rois_ des royaumes francs) d’Austrasie","Charles Martel menjadi walikota istana (penguasa tertinggi_ setelah raja-raja_ kerajaan Frank) dari Austrasia"
"contemporaine","1 août 1908","medium","Clémenceau ordonne l’arrestation de syndicalistes CGT","Clemenceau memerintahkan penangkapan serikat pekerja dagang CGT"
"moderne","10 septembre 1567","medium","Condé et Coligny attaquent Paris_ 2eme guerre de religion","Condé dan Coligny menyerang Paris_ perang ke-2"
"Moyen-âge",1204,"medium","Conquête de la Normandie par Philippe Auguste","Penaklukan Normandy oleh Philippe Auguste"
"contemporaine","8 août 1829","medium","Constitution du gouvernement Polignac (ultra-royaliste)","Perlembagaan kerajaan Polignac (ultra-royalis)"
"contemporaine","2 décembre 1851","medium","Coup d’État de Louis-Napoléon Bonaparte prolongeant son mandat pour 10 ans","Ganjaran Louis-Napoleon Bonaparte melanjutkan mandatnya selama 10 tahun"
"contemporaine","3 octobre 1940","medium","Création d’un statut pour les Juifs en France leur interdisant un certain nombre de fonctions","Penciptaan status untuk orang Yahudi di Perancis melarang beberapa fungsi"
"contemporaine","28 mars 1803","medium","Création du Franc germinal (monnaie)","Penciptaan Franc Germinal (mata wang)"
"contemporaine","10 mars 1793","medium","Création du Tribunal Révolutionnaire","Penciptaan Tribunal Revolusi"
"contemporaine","14 janvier 1963","medium","De Gaulle s’oppose à l’entrée de la Grande Bretagne au sein du marché commun","De Gaulle menentang kemasukan Britain ke pasaran biasa"
"contemporaine","8 novembre 1942","medium","Débarquement allié en Afrique du nord (opération Torch)","Pendaratan bersekutu di Afrika Utara (operasi obor)"
"contemporaine","1 novembre 1954","medium","Début de l’insurrection algérienne dans le massif des Aurès","Permulaan pemberontakan Algeria di Aurès massif"
"contemporaine","10 mars 1793","medium","Début de l’insurrection en Vendée","Permulaan pemberontakan di Vendée"
"contemporaine","24-29 janvier 1960","medium","Début de la semaine des barricades à Alger contre l’autodétermination","Permulaan minggu barikade di Algiers terhadap penentuan nasib sendiri"
"Moyen-âge",885,"medium","Début du siège de Paris par les Normands","Permulaan pengepungan Paris oleh Norman"
"moderne","8 mars 1759","medium","Décret du Conseil d’État interdisant l’Encyclopédie ou Dictionnaire raisonné des sciences_ des arts et des métiers est une encyclopédie française_ éditée sous la direction de Denis Diderot et_ partiellement_ de Jean Le Rond d'Alembert","Keputusan Dewan Negara yang melarang Ensiklopedia atau Kamus yang berasaskan sains_ seni dan kraf adalah ensiklopedia Perancis_ diedit di bawah arahan Denis Diderot dan sebahagiannya Jean Le Rond dAlembert"
"moderne","24 février 1525","medium","Défaite de Pavie_ François Ier est fait prisonnier","Kekalahan Pavia_ Francis I ditawan"
"Moyen-âge","26 août 1346","medium","Défaite des armées françaises à Crécy face aux Anglais","Mengalahkan tentera Perancis di Crécy melawan bahasa Inggeris"
"contemporaine","7 mai 1954","medium","Défaite française à Dien Biên Phû","Kekalahan Perancis di Dien Biên Phû"
"contemporaine","20 janvier 1946","medium","Démission du général De Gaulle opposé au régime « des partis »","Peletakan jawatan Ketua Umum De Gaulle menentang rejim pihak "
"contemporaine","13 juillet 1870","medium","Dépêche d’Ems de Bismarck_ est un imbroglio diplomatique (mauvaise lecture d’un télégramme)_ qui a servi de prétexte pour engager la guerre franco-allemande","Pengiriman Ems Bismarck_ adalah imbroglio diplomatik (pembacaan telegram buruk)_ yang menjadi alasan untuk melibatkan perang Perancis-Jerman"
"Moyen-âge","24 juin 1340","medium","Destruction de la flotte française lors de la bataille de l’Écluse (près de Bruges)","Pemusnahan armada Perancis semasa Pertempuran Kunci (berhampiran Bruges)"
"contemporaine","5 novembre 1827","medium","Dissolution de la Chambre des députés","Pembubaran Dewan Perwakilan"
"contemporaine","15 mai 1991","medium","Édith Cresson est la première femme à devenir premier ministre","Edith Cresson adalah wanita pertama yang menjadi perdana menteri"
"Moyen-âge","7 octobre 1337","medium","Édouard III d’Angleterre revendique le trône de France","Edward III dari England mendakwa takhta Perancis"
"contemporaine","19 décembre 1965","medium","Élection du général De Gaulle à la présidence de la république au second tour (55%) au suffrage universel","Pemilihan Umum De Gaulle kepada presiden republik pada pusingan kedua (55%) oleh hak pilih sejagat"
"contemporaine","3 mai 1814","medium","Entrée de Louis XVIII à Paris","Penyertaan Louis XVIII di Paris"
"moderne","7-24 juin  1520","medium","Entrevue du Camp du Drap d’Or. François Ier rencontra Henri VIII d’Angleterre qui resta neutre Face à Charles Quint","Wawancara Camp Drap dOr. Francis Saya berjumpa Henry VIII dari England yang kekal netral Menghadapi Charles V"
"contemporaine","7 juillet 1904","medium","Exclusion des congrégations de l’enseignement (Loi Combes)","Pengecualian Jemaah Pendidikan (Menggabungkan Undang-Undang)"
"contemporaine","25 avril 1905","medium","Fondation de la Section Française de l’Internationale Ouvrière (SFIO)","Yayasan Seksyen Perancis Antarabangsa Pekerja (SFIO)"
"antique",-598,"medium","Fondation Marseille par les Grecs (Phocéens)","Yayasan Marseille oleh orang-orang Yunani (Phoenicians)"
"Moyen-âge","25 décembre 1066","medium","Guillaume de Normandie est couronné roi d’Angleterre à Westminster","William of Normandy dinobatkan sebagai King of England di Westminster"
"Moyen-âge","Mai 987","medium","Hugues Capet_ comte de Paris et d’Orléans est élu roi à Senlis par les Grands du Royaume","Hugues Capet_ Count of Paris dan Orleans dipilih raja di Senlis oleh Grands of the Kingdom"
"contemporaine","24 août 1837","medium","Inauguration de la première voie de chemin de fer entre Paris et Orléans","Pelantikan jalur kereta api pertama antara Paris dan Orleans"
"Moyen-âge",1309,"medium","Installation du pape Clément V en Avignon","Pemasangan Paus Clement V di Avignon"
"Moyen-âge","19 septembre 1356","medium","Jean II est fait prisonnier par les Anglais lors de la défaite de Poitiers","John II ditawan oleh orang Inggeris semasa kekalahan Poitiers"
"Moyen-âge","23 mai 1430","medium","Jeanne d’Arc est capturée par les Bourguignons devant Compiègne","Jeanne dArc ditangkap oleh orang-orang Burgundy di hadapan Compiegne"
"moderne","12 mai 1588","medium","Journée des barricades_ insurrection des Parisiens contre Henri III","Hari pembongkaran_ pemberontakan rakyat Paris melawan Henry III"
"moderne","11 novembre 1630","medium","Journée des dupes_ le roi confirme Richelieu dans ses fonctions","Hari penindasan_ raja mengesahkan Richelieu dalam fungsinya"
"contemporaine","5 juillet 1974","medium","L’âge de la majorité est abaissé à 18 ans","Umur majoriti diturunkan kepada 18 tahun"
"moderne","20 avril 1792","medium","L’Assemblée législative déclare la guerre au roi de Bohême et de Hongrie","Dewan Undangan mengisytiharkan perang terhadap Raja Bohemia dan Hungary"
"moderne","4 août 1789","medium","L’assemblée vote l’abolition des privilèges","Perhimpunan mengutip penghapusan keistimewaan"
"contemporaine","23 mai 1915","medium","L’Italie déclare la guerre à la l’Autriche-Hongrie","Itali mengisytiharkan perang di Austria-Hungary"
"contemporaine","17 septembre 1793","medium","La Convention adopte la Loi des suspects_  début de la terreur","Konvensyen mengamalkan Hukum suspek_ permulaan keganasan"
"moderne","10 juillet 1778","medium","La France déclare la guerre à l’Angleterre car elle cherche à récupérer de l'influence_ voire des territoires d'Amérique du Nord cédés à la Grande-Bretagne lors du traité de Paris de 1763. ","Perancis mengisytiharkan perang ke atas England kerana ia berusaha untuk memulihkan pengaruh_ bahkan wilayah Amerika Utara diserahkan kepada Britain semasa perjanjian Paris pada 1763."
"contemporaine","1 juillet 1966","medium","La France se retire du dispositif intégré de l’OTAN","Perancis menarik diri dari sistem NATO bersepadu"
"moderne","27 décembre 1788","medium","Le Conseil royal décide de la double représentation du tiers-état","Majlis Diraja memutuskan pada dua perwakilan negara ketiga"
"Moyen-âge","30 octobre 1422","medium","Le dauphin (héritier de la couronne) se proclame roi à Bourges","Lumba-lumba (pewaris kepada mahkota) mengisytiharkan dirinya raja di Bourges"
"contemporaine","13 mai 1958","medium","Le général Massu lance l’insurrection en Algérie et crée un comité de salut public et appelle de Gaulle","Jenderal Massu melancarkan pemberontakan di Algeria dan menciptakan jawatankuasa keselamatan publik dan panggilan de Gaulle"
"contemporaine","26 mars 1918","medium","Le maréchal Foch est nommé généralissime des forces alliées","Marshal Foch dinamakan Generalissimo dari Angkatan Bersekutu"
"contemporaine","24 mai 1873","medium","Le maréchal Mac-Mahon est élu président de la république","Marshal Mac-Mahon dipilih Presiden Republik"
"moderne","4 octobre 1511","medium","Le pape Jules II crée la Sainte Ligue contre la France. Excommunication de Louis XII","Paus Julius II mencipta Liga Kudus melawan Perancis_ pengasingan Louis XII"
"moderne","16 juillet 1789","medium","Le roi ordonne le renvoi des troupes rassemblées autour de Paris et signe l'ordre de rappel  Necker_ qui tente de s’opposer à la confiscation des biens du clergé.","Raja memerintahkan pemberhentian pasukan yang berkumpul di sekitar Paris dan menandatangani perintah mengundurkan diri Necker_ yang cuba menentang penyitaan harta para ulama."
"contemporaine","7 août 1913","medium","Le service militaire et porté à trois ans","Perkhidmatan tentera dan meningkat kepada tiga tahun"
"moderne","17 juin 1789","medium","Le Tiers-état se proclame assemblée nationale (490 pour et 90 contre)","Ladang Ketiga memproklamasikan perhimpunan kebangsaan (490 untuk dan 90 menentang)"
"contemporaine","13 février 1937","medium","Léon Blum annonce une pause dans les réformes","Léon Blum mengumumkan jeda dalam pembaharuan"
"contemporaine","5 octobre 1944","medium","Les femmes acquièrent le droit de vote","Wanita memperoleh hak untuk mengundi"
"moderne","30 septembre 1681","medium","Les français s’emparent de Strasbourg","Perancis merampas Strasbourg"
"moderne","23 août 1568","medium","Les Protestants reprennent les armes_ début de la troisième guerre de religion","Protestan mengambil senjata lagi_ permulaan perang agama ketiga"
"contemporaine","21 mars 1884","medium","Loi « Wladeck-Rousseau » reconnaissant le droit syndical","Hukum Wladeck-Rousseau mengiktiraf hak untuk mengatur"
"contemporaine","28 juillet 1999","medium","Loi instituant la Couverture Maladie Universelle (CMU)","Akta untuk mewujudkan Liputan Kesihatan Sejagat (CMU)"
"contemporaine","1 juillet 1901","medium","Loi sur les associations à but non lucratif","Undang-undang mengenai persatuan bukan keuntungan"
"moderne","1er novembre 1511","medium","Louis XII réunit un concile à Pise qui suspend Jules II (pape)","Louis XII mengadakan sidang di Pisa yang menggantungkan Julius II (Paus)"
"moderne","7 septembre 1651","medium","Louis XIV est officiellement reconnu majeur","Louis XIV diiktiraf secara rasmi utama"
"moderne","17 juillet 1789","medium","Louis XVI reçoit de La Fayette la cocarde tricolore à l’hôtel de ville","Louis XVI menerima dari La Fayette trotoar tiga di Dewan Bandaraya"
"contemporaine","24 février 1848","medium","Louis-Philippe abdique en faveur de son petit-fils_ le comte de Paris_ ce que la chambre refuse","Louis-Philippe abdicates memihak kepada cucunya_ Count of Paris_ apa ruangan menolak"
"contemporaine","9 août 1830","medium","Louis-Philippe Ier devient roi des Français_ début de la monarchie de Juillet","Louis-Philippe saya menjadi raja Perancis_ permulaan monarki Julai"
"contemporaine","17 février 1864","medium","Manifeste des soixante proclamant le besoin de représentation des ouvriers","Manifesto Enam puluh mengisytiharkan perlunya perwakilan pekerja"
"Moyen-âge","28 janvier 814 ","medium","Mort de Charlemagne à Aix-la-Chapelle_ son fils Louis lui succède","Kematian Charlemagne di Aix-la-Chapelle_ anaknya Louis berjaya"
"moderne","10 juin 1584","medium","Mort de François d’Anjou_ Henri de Navarre devient héritier du trône de France","Kematian François dAnjou_ Henry dari Navarre menjadi pewaris takhta Perancis"
"moderne","1 septembre 1715","medium","Mort de Louis XIV_ son arrière-petit-fils Louis_ lui succède","Kematian Louis XIV_ cucunya cucu Louis_ berjaya"
"moderne","4 décembre 1642","medium","Mort de Richelieu_ le cardinal Mazarin le remplace","Kematian Richelieu_ Kardinal Mazarin menggantikannya"
"antique","Janvier 395","medium","Mort de Théodose_ l’empire romain est désormais séparé entre Orient et Occident","Kematian Theodosius_ Empayar Roma kini dipisahkan antara Timur dan Barat"
"contemporaine","4 avril 1814","medium","Napoléon abdique à Fontainebleau sans conditions","Napoleon menyerahkan diri ke Fontainebleau tanpa syarat"
"contemporaine","6 juillet 1809","medium","Napoléon fait arrêter le pape_ et remporte la victoire contre l’Autriche à Wagram","Napoleon membuat paus berhenti_ dan menang kemenangan melawan Austria di Wagram"
"contemporaine","20 mars 1815","medium","Napoléon retourne en France et entre à Paris","Napoleon kembali ke Perancis dan memasuki Paris"
"contemporaine","1 mars 1815","medium","Napoléon s’évade de l’île d’Elbe et débarque à Golfe-Juan (Provence)","Napoleon melarikan diri dari pulau Elba dan tiba di Golfe-Juan (Provence)"
"moderne","27 octobre 1614","medium","Ouverture des États Généraux (assemblée extraordinaire réunissant les trois ordres (les états) de la société : la noblesse_ le clergé et le tiers état (le reste))_ avec pour objectif d’affermir le nouveau pouvoir royal face aux manœuvres des grands féodaux","Pembukaan Ketua Negara (mesyuarat luar biasa membawa bersama tiga perintah (negeri) masyarakat: bangsawan_ paderi dan negara ketiga (yang lain)_ dengan objektif untuk menggabungkan kekuatan diraja baru vis-a-vis manuver besar feudal "
"moderne","5 mai 1789","medium","Ouverture des États Généraux à Versailles","Pembukaan Ketua Negara di Versailles"
"moderne","19 mars 1563","medium","Paix d’Amboise accordant liberté de culte et de conscience aux Protestants chez eux","Keamanan Amboise yang memberikan kebebasan beribadah dan hati nurani kepada Protestan di rumah"
"Moyen-âge","24 octobre 1360","medium","Paix de Calais_ ratification du traité de Brétigny (trève de 9 ans dans la guerre de cent ans)","Keamanan Calais_ pengesahan Perjanjian Bretigny (gencatan senjata 9 tahun dalam Perang Seratus Tahun)"
"moderne","23 mars 1568","medium","Paix de Longjumeau mettant fin à la 2eme guerre de religion en confirmant l’édit d’Amboise","Keamanan Longjumeau berakhir perang ke-2 dengan mengesahkan Edisi Amboise"
"moderne","8 août 1570","medium","Paix de Saint-Germain mettant fin à la 3eme guerre de religion et accordant des places fortes aux Protestants","Damai St. Germain yang mengakhiri Perang Ketiga Agama dan memberikan kubu kuat kepada Protestan"
"moderne","29 novembre  1516","medium","Paix perpétuelle entre François Ier et les cantons suisses","Perdamaian kekal antara Francis I dan kanton Swiss"
"Moyen-âge",751,"medium","Pépin est élu roi à Soissons par une assemblée de nobles et d’évêques","Pepin dipilih raja di Soissons oleh kumpulan bangsawan dan uskup"
"contemporaine","10 juillet 1940","medium","Pétain abroge la constitution de la IIIeme République et devient chef de l’état","Petain mengulangi perlembagaan Republik Ketiga dan menjadi ketua negara"
"Moyen-âge","Mars 845","medium","Pillage de Paris par les Normands_ Charles paye une rançon contre leur départ","Pillage of Paris oleh Norman_ Charles membayar tebusan terhadap keberangkatan mereka"
"contemporaine","23 juillet 1926","medium","Poincaré prend la tête d’un gouvernement d’union nationale","Poincaré mengambil ketua kerajaan perpaduan negara"
"contemporaine","10 février 1998","medium","Première loi Aubry sur les 35 heures (35 heures de travail)","Hukum pertama Aubry pada 35 jam (35 jam kerja)"
"antique",286,"medium","Premières incursions des Burgondes en Gaule","Pencerobohan pertama Burgundia di Gaul"
"antique",253,"medium","Premières incursions des Francs en Gaule","Penyerangan pertama orang Franks di Gaul"
"contemporaine","5 juillet 1830","medium","Prise d’Alger par les troupes françaises_ exil du dey (le dey d’Alger est le titre des souverains de la régence d'Alger sous l'autorité nominale de l'Empire ottoman)","Tangkap Algiers oleh tentera Perancis_ pengasingan (nama Algiers adalah gelaran raja-raja wilayah Algiers di bawah kuasa nominal Empayar Uthmaniyyah)"
"Moyen-âge","4 août 1347","medium","Prise de Calais par Édouard III d’Angleterre","Calais yang diambil oleh Edward III dari England"
"Moyen-âge","15 juillet 1099","medium","Prise de Jérusalem par les croisés qui vont se livrer au pillage et au massacre de la population","Mengambil Yerusalem oleh Tentara Salib yang akan terlibat dalam penjarahan dan pembunuhan orang ramai"
"moderne","10 août 1792","medium","Prise du Palais des Tuileries (600† parmi les gardes suisses et 100† parmi le peuple)","Tangkap Istana Tuileries (600 † antara pengawal Swiss dan 100 † di kalangan rakyat)"
"contemporaine","27 février 1998","medium","Publication de la liste de onze pays répondant aux critères économiques en vue de l’instauration de l’Euro","Penerbitan senarai sebelas negara memenuhi kriteria ekonomi untuk penubuhan Euro"
"contemporaine","1 juin 1958","medium","Rappelé par le président_ De Gaulle devient président du Conseil","Dikenang oleh presiden_ De Gaulle menjadi presiden Majlis"
"contemporaine","31 mai 1850","medium","Réforme électorale restreignant le suffrage universel_ amputant d’un tiers le corps électoral","Pembaharuan Pemilihan Membatasi Penguasaan Suara Umum_ Memotong Badan Pemilihan oleh Ketiga"
"contemporaine","3 - 4 avril 2009","medium","Réintégration de la France dans le commandement intégré de l'OTAN","Penyatuan semula Perancis ke dalam arahan bersepadu NATO"
"Moyen-âge",830,"medium","Révolte des grands du royaume contre Louis le Pieux","Pemberontakan kerajaan besar melawan Louis the Pious"
"contemporaine","21 juillet 1954","medium","Signature des accords de Genève mettant fin à la guerre d’Indochine","Tandatangan Perjanjian Geneva Mengakhiri Perang Indokina"
"contemporaine","15 juillet 1801","medium","Signature du Concordat_ ce dernier organise les rapports entre les différentes religions et l’État dans toute la France","Signature Concordat_ yang terakhir menganjurkan hubungan antara agama yang berbeza dan negara di seluruh Perancis"
"contemporaine","28 juin 1919","medium","Signature du traité de Versailles où la France obtient l’Alsace-Lorraine_ des indemnités et occupe la rive gauche du Rhin","Tandatangan Perjanjian Versailles di mana Perancis memperoleh Alsace-Lorraine_ ganti rugi dan menduduki tebing kiri Rhine"
"moderne","3 août 1529","medium","Traité de Cambrai (Paix des Dames). François Ier conserve la Bourgogne et verse une rançon pour récupérer ses fils","Perjanjian Cambrai (Peace of the Ladies). Francis I memelihara Burgundy dan membayar tebusan untuk memulihkan anaknya "
"moderne","15 janvier 1552","medium","Traité de Chambord entre Henri II et les princes allemands contre Charles Quint","Perjanjian Chambord antara Henry II dan putera Jerman melawan Charles V"
"moderne","6 février 1778","medium","Traité de commerce et d’alliance entre la France et les États-Unis","Perjanjian Perdagangan dan Perikatan antara Perancis dan Amerika Syarikat"
"Moyen-âge","21 mai 1420","medium","Traité de Troyes entre Philippe le Bon_ Charles VI et Henri V. Le dauphin (héritier de la couronne) perd le trône de France","Perjanjian Troyes antara Philip yang Baik_ Charles VI dan Henry V. Dolphin (pewaris kepada mahkota) kehilangan takhta Perancis"
"moderne","24 octobre 1648","medium","Traité de Westphalie_ il met fin à la guerre de trente ans avec l’Espagne","Perjanjian Westphalia_ ia menamatkan perang tiga puluh tahun dengan Sepanyol"
"contemporaine","12 mai 1881","medium","Traité du Bardo_ la Tunisie devient protectorat français","Perjanjian Bardo_ Tunisia menjadi protektorat Perancis"
"Moyen-âge","27 novembre 1095","medium","Urbain II prêche la première croisade lors du concile de Clermont","Urban II memberitakan perang salib pertama di Majlis Clermont"
"antique",-53,"medium","Victoire de Jules César contre les Belges_  fin de la ‘Guerre des Gaules’","Kemenangan Julius Caesar terhadap orang Belgia_ berakhirnya Perang Gallic"
"antique",-58,"medium","Victoire de Jules César contre les Helvètes_ début de la ‘Guerre des Gaules’","Kemenangan Julius Caesar terhadap Helvetii_ permulaan Perang Gallic"
"contemporaine","8 février 1807","medium","Victoire de Napoléon contre les Russes à Eylau","Kemenangan Napoleon terhadap Rusia di Eylau"
