"period","date","level","fact_fr","fact_hy"
"contemporaine","18 septembre 1981","easy","Abolition de la peine de mort","«Մահապատժի վերացումը»"
"moderne","26 août 1789","easy","Adoption de la déclaration des droits de l’Homme et du citoyen","«Մարդու և քաղաքացու իրավունքների հռչակագրի ընդունում»"
"contemporaine","14 janvier 1930","easy","Adoption de la loi Maginot instaurant une ligne de défense","«Օրենքի ընդունում Maginot- ը ստեղծում է պաշտպանության գիծ»"
"contemporaine","13 octobre 1946","easy","Adoption de la nouvelle constitution (IVeme république) par référendum","«Նոր սահմանադրության (չորրորդ հանրապետություն) հանրաքվեի ընդունումը»"
"contemporaine","28 septembre 1958","easy","Approbation de la constitution de la Veme république par référendum (79% de oui)","«Հինգերորդ հանրապետության սահմանադրության հաստատումը հանրաքվեով (այո_ 79% այո)»"
"contemporaine","28 janvier 1871","easy","Armistice franco-allemand_ capitulation de Paris","«Ֆրանս-գերմանական զինադադար_ Փարիզի կապիտուլյացիա»"
"moderne","21 juin 1791","easy","Arrestation de la famille royale à Varennes","«Արքայական ընտանիքի ձերբակալությունը Վարեննեսում»"
"contemporaine","16-17 juillet 1942","easy","Arrestation de nombreux Juifs parisiens lors de la rafle du « Vel’ d’hiv »","«Փարիզյան շատ հրեաների ձերբակալություն« Վել dՀիվ »-ի արշավանքի ժամանակ»"
"Moyen-âge","13 octobre 1307","easy","Arrestation des Templiers en France","«Ֆրանսիայում տաճարների ձերբակալություն»"
"contemporaine","31 juillet 1914","easy","Assassinat à Paris de Jean Jaurès hostile à la guerre par R. Villain","«Assեն Ժաուրում Փարիզում կատարված սպանությունը թշնամաբար է տրամադրված պատերազմին Ռ. Վիլենի կողմից»"
"contemporaine","28 juin 1914","easy","Assassinat de l’archiduc François-Ferdinand d’Autriche à Sarajevo_ ce tragique évènement augmenta les tensions existantes","«Ավստրիայի Արքդուկե Ֆրանց Ֆերդինանդի սպանությունը Սարաևոյում. Այս ողբերգական իրադարձությունը մեծացրեց առկա լարվածությունը»"
"Moyen-âge","25 décembre 498","easy","Baptême de Clovis à Reims","«Կլովիսի մկրտությունը Ռեյմսում»"
"contemporaine","11 novembre 1918","easy","Capitulation de l’Allemagne à Rethondes","«Գերմանիայի կապիտուլյացիան Ռեթոնդում»"
"moderne","5 et 6 octobre 1789","easy","Ces deux jours font partis des « grandes journées » de la Révolution française et ont abouti au retour définitif et contraint du roi Louis XVI et de sa famille à Paris_ « Journées d’octobre ». La foule envahit le château de Versailles","«Այս երկու օրերը Ֆրանսիական հեղափոխության« մեծ օրերի »մի մասն են և հանգեցրին Լուի XVI թագավորի և նրա ընտանիքի վերջնական և հարկադիր վերադարձին Փարիզում ՝« Հոկտեմբերյան օրեր »: Հավաքվածները ներխուժում են Վերսալյան պալատ»:"
"Moyen-âge","25 décembre 800","easy","Charlemagne est couronné empereur de l’empire des Romains à Rome par le pape Léon III","«Charlemagne- ը Հռոմում կայսրության Հռոմեական կայսրության թագադրվում է Հռոմի Պապ Լեո III- ի կողմից»"
"Moyen-âge",732,"easy","Charles Martel remporte la bataille à Poitiers contre les Musulmans mettant fin à l’invasion sarrasine en France","«Չարլզ Մարտելը հաղթում է Պաուտիերի ճակատամարտում մուսուլմանների դեմ ՝ ավարտելով Սարացենի արշավանքը Ֆրանսիայում»"
"contemporaine","4 septembre 1870","easy","Chute du Second Empire. Proclamation de la République","«Երկրորդ կայսրության անկում_ հանրապետության հռչակագիր»"
"Moyen-âge",481,"easy","Clovis roi des Francs. Avènement de Clovis_ qui devient roi des Francs","«Ֆրանկների Կլովիս արքա_ Կլովիսի գալուստը_ որը դառնում է ֆրանկների թագավորը»"
"contemporaine","20 août 1857","easy","Condamnation de Baudelaire pour les « Fleurs du mal »","«Բուդելայի դատապարտումը« Չարի ծաղիկները »"
"contemporaine","18 mai 1804","easy","Constitution de l’An XII_ Napoléon devient empereur","«XII տարվա սահմանադրություն_ Նապոլեոնը դառնում է կայսր»"
"contemporaine","1 janvier 1958","easy","Création de la Communauté Économique Européenne (CEE)","«Եվրոպական տնտեսական համայնքի ստեղծում (ԵՏՀ)»"
"contemporaine","22 juillet 1940","easy","Création des Forces Françaises Libres (FFL)_ nom donné aux forces armées ralliées à la France libre sous l'égide du général de Gaulle","«Ֆրանսիական ազատ ուժերի ստեղծում (FFL)_ անունը տրված է զինված ուժերին_ որոնք հավաքվել են ազատ Ֆրանսիային ՝ գեներալ դե Գոլի հովանու ներքո»"
"contemporaine",2015,"easy","Crise migratoire_ plus d’un million de migrants sont arrivés cette année-là en Europe","«Միգրացիոն ճգնաժամ_ այդ տարի Եվրոպայում ժամանել են ավելի քան միլիոն միգրանտներ»"
"contemporaine","21 décembre 1958","easy","De Gaulle devient président de la République","«Դե Գոլը դառնում է Հանրապետության Նախագահ»"
"contemporaine","2 juin 1958","easy","De Gaulle obtient les pleins pouvoirs constitutionnels","«Դե Գոլը ձեռք է բերում սահմանադրական ամբողջ լիազորությունները»"
"contemporaine","6 juin 1944","easy","Débarquement allié en Normandie (opération Overlord)","«Դաշնակից վայրէջք Նորմանդիում (Operation Overlord)»"
"contemporaine","27 juillet 1830","easy","Début de l’insurrection à Paris (Les Trois Glorieuses)_ la révolution de Juillet est la deuxième révolution française","«Ապստամբության սկիզբը Փարիզում (երեք փառավոր)_ հուլիսյան հեղափոխությունը ֆրանսիական երկրորդ հեղափոխությունն է»"
"contemporaine","21 février 1916","easy","Début de l’offensive allemande sur Verdun","«Վերդունի վրա գերմանական հարձակման սկիզբը»"
"contemporaine","7 novembre 1917","easy","Début de la « Révolution d’octobre » en Russie_ un mois après l'Armistice de Brest-Litovsk entre la Russie et l’Allemagne est conclue","«Ռուսաստանում« Հոկտեմբերյան հեղափոխության »սկիզբը ՝ Ռուսաստանի և Գերմանիայի միջև Բրեստ-Լիտովսկի զինադադարի կնքումը մեկ ամիս անց»"
"contemporaine","6-13 septembre 1914","easy","Début de la bataille de la Marne","«Մառնի ճակատամարտի սկիզբը»"
"contemporaine","6 mai 1968","easy","Début des manifestations d'étudiants_ ainsi que des grèves générales et sauvages_ plus connu sous le nom de Mai…","«Ուսանողական ցույցերի սկիզբ_ ինչպես նաև ընդհանուր և վայրի գործադուլներ_ որոնք ավելի լավ հայտնի են որպես Մայ ...»:"
"contemporaine","19 juillet 1870","easy","Déclaration de guerre à la Prusse","«Պատերազմի հայտարարություն Պրուսային»"
"contemporaine","21 septembre 1792","easy","Déclaration de la république_  An I de la république","«Հանրապետության հռչակագիր_ հանրապետության առաջին տարին»"
"contemporaine","18 juin 1815","easy","Défaite de Napoléon à Waterloo","«Նապոլեոնի պարտությունը Վաթերլոյում»"
"contemporaine","25-29 nov. 1812","easy","Désastre de la Bérézina_ les troupes impériales en retraite subissent de grosse perte face une armée russe inférieure en nombre. Ce fait a tellement marqué la mémoire française_ que l’expression « C'est une Bérézina » est fréquemment utilisée pour caractériser une déroute sur le plan sportif ou électoral","«Բերեզինայի աղետը_ նահանջող կայսերական զորքերը մեծ կորուստ են կրում առջևում գտնվող Ռուսաստանի բանակի թվաքանակով անլիարժեք: Այս փաստն այնքան է նշում Ֆրանսիայի հիշողությունը_ որ« Դա Բերեզինա է »արտահայտությունը հաճախ օգտագործվում է պարտություն բնութագրելու համար: մարզական կամ ընտրական »"
"contemporaine","23 décembre 1973","easy","Doublement du prix du pétrole brut lors de la réunion de l’Opep à Téhéran_  début de la première crise pétrolière","«Թբիլիսիում ՕՊԵԿ-ի հանդիպմանը կրկնապատկելով նավթի գինը ՝ առաջին նավթային ճգնաժամի սկիզբը»"
"moderne","18 octobre 1685","easy","Édit de Fontainebleau révoquant l’édit de Nantes","«Fontainebleau- ի հրահանգը_ որը հետ է կանչում Նանտի հրավերը»"
"moderne","13 avril 1598","easy","Édit de Nantes_ le catholicisme est religion d’état et le protestantisme minorité reconnue","«Նանտի հրահանգ. Կաթոլիկությունը պետական կրոն է_ և բողոքականությունը ճանաչված փոքրամասնություն»"
"moderne","17 janvier 1562","easy","Édit de Saint-Germain réglementant l’exercice du culte protestant","«Սենտ-ainերմենի հրահանգը_ որը կարգավորում է բողոքական երկրպագությունը»"
"moderne","Août 1539","easy","Édit de Villers-Cotterêts instituant le français comme langue officielle du royaume","«Ֆրանսերենը որպես թագավորության պաշտոնական լեզու հաստատող Villers-Cotterêts- ի հրատարակություն»"
"contemporaine","16 mai 2007","easy","Election de Nicolas Sarkozy à la présidence de la république","«Նիկոլա Սարկոզիի ընտրությունը հանրապետության նախագահությանը»"
"contemporaine","7 mai 2017","easy","Emmanuel Macron devient le 8e président de la République.","«Էմանուել Մակրոնը դառնում է Հանրապետության 8-րդ նախագահը»:"
"contemporaine",2002,"easy","Entrée en vigueur de l’Euro (1er janvier). Jacques Chirac est réélu président","«Եվրոյի ուժի մեջ մտնելը (հունվարի 1-ին) Ժակ Շիրակը վերընտրվեց նախագահ»"
"Moyen-âge","30 mai 1431","easy","Exécution de Jeanne d’Arc place du vieux marché à Rouen","«Ռուենի հին շուկայի Joan of Arc- ի կատարման վայրը»"
"contemporaine","16 octobre 1793","easy","Exécution de Marie-Antoinette","«Մարի Անտուանետի մահապատիժ»"
"contemporaine","21 janvier 1793","easy","Exécution du roi Louis XVI","«Լուի Լուի XVI թագավորի մահապատիժ»"
"contemporaine","28 juillet 1794","easy","Exécution sans jugement de Robespierre_ Saint-Just et leurs amis","«Դատապարտում առանց Robespierre- ի_ Saint-Just- ի և նրանց ընկերների դատաստանի»"
"antique","août 476","easy","Fin de l’empire romain d’Occident. Romulus Augustule est déposé_ marquant la fin de l’empire romain d’Occident","«Արեւմտյան Հռոմեական կայսրության վերջը գանձվում է ՝ նշելով Արեւմտյան Հռոմեական կայսրության ավարտը»"
"antique",-43,"easy","Fondation de la colonie romaine de Lugdunum (Lyon)","«Լուգդունումի (Լիոն) Հռոմեական գաղութի հիմնադրում»"
"antique",-118,"easy","Fondation de Narbonne par les Romains","«Նարբոնայի հիմնադրումը հռոմեացիների կողմից»"
"contemporaine","15 mai 2012","easy","François Hollande devient président de la république.","«Ֆրանսուա Օլանդը դառնում է հանրապետության նախագահ»:"
"contemporaine","8 mai 1988","easy","François Mitterrand (54_01 %) est réélu président de la république devant Jacques Chirac","«Ֆրանսուա Միտերանդը (54_01%) վերընտրվել է հանրապետության նախագահ Ժակ Շիրակի դիմաց»"
"moderne","20 juin 1791","easy","Fuite de la famille royale","«Փախչել թագավորական ընտանիքից»"
"contemporaine","15 juin 1969","easy","Georges Pompidou remporte les élections (58%) présidentielles devant Alain Poher","«Ժորժ Պոմպիդուն հաղթում է նախագահական ընտրություններում (58%) Ալեն Պոհերին ընդառաջ»"
"Moyen-âge",1348,"easy","Grande Peste en France","«Մեծ ժանտախտը Ֆրանսիայում»"
"moderne","13 juin 1576","easy","Henri de Navarre abjure le catholicisme et reprend la tête du parti protestant","«Անրի դե Նավարը չարաշահում է կաթոլիկությունը և վերցնում բողոքական կուսակցության ղեկավարը»"
"moderne","25 juillet 1593","easy","Henri IV abjure le protestantisme et devient catholique. « Paris vaut bien une messe »","«Հենրի IV- ը հրաժարվում է բողոքականությունից և դառնալ կաթոլիկ« Փարիզն արժե զանգված »»"
"contemporaine","7 mai 1995","easy","Jacques Chirac (52_64%) remporte au second tour les élections présidentielles","«Ժակ Շիրակը (52_64%) հաղթում է նախագահական ընտրություններում երկրորդ փուլում"
"Moyen-âge","8 mai 1429","easy","Jeanne d’Arc délivre Orléans","«Joan of Arc- ը առաքում է Օրլեներին»"
"contemporaine","3 août 1914","easy","L’Allemagne déclare la guerre à la France","«Գերմանիան պատերազմ է հայտարարում Ֆրանսիայի դեմ»"
"contemporaine","1 août 1914","easy","L’Allemagne déclare la guerre à la Russie","«Գերմանիան պատերազմ է հայտարարում Ռուսաստանի դեմ»"
"contemporaine","4 août 1914","easy","L’Angleterre déclare la guerre à l’Allemagne suite à la violation de la neutralité belge","«Անգլիան պատերազմ է հայտարարում Գերմանիայի դեմ ՝ բելգիական չեզոքության խախտումից հետո»"
"contemporaine","23 juin 1916","easy","L’offensive allemande sur Verdun est stoppée","«Վերդունի վրա գերմանական հարձակումը դադարեցված է»"
"antique",-52,"easy","La bataille d’Alésia. Échec de l’insurrection des Gaules de Vercingétorix","«Ալեսիայի ճակատամարտը_ Վերսինգետորիքսի դահիճների ապստամբության ձախողումը»"
"contemporaine","18 décembre 1916","easy","La bataille de Verdun s’achève sur une victoire française","«Վերդունի ճակատամարտը ավարտվում է ֆրանսիական հաղթանակով»"
"Moyen-âge","19 octobre 1453","easy","La capitulation de Bordeaux marque la fin de la guerre de Cent Ans et le retour de la Guyenne (ancienne province_ située dans le sud-ouest de la France) sous domination française","«Բորդոյի կապիտուլյացիան նշում է հարյուրամյա պատերազմի ավարտը և Գայենի (նախկին նահանգը_ որը գտնվում է Ֆրանսիայի հարավ-արևմուտքում) վերադարձը ֆրանսիական տիրապետության տակ»:"
"moderne","14 juillet 1789","easy","La foule s’empare de la Bastille et massacre De Launay_ son gouverneur (date de la fête nationale française)","«Ամբոխը գրավում է Բաստիլը և կոտորած անում իր նահանգապետ Դե Լաունիի (ֆրանսիական ազգային տոնի ամսաթիվը)»"
"contemporaine",2015,"easy","La France est la cible d’une série d’attentats_ revendiqués par des terroristes se disant islamistes","«Ֆրանսիան մի շարք հարձակումների թիրախ է_ որոնք պնդում են ահաբեկիչները_ որոնք իրենք իրենց անվանում են իսլամիստներ»:"
"contemporaine","3 septembre 1939","easy","La France et l’Angleterre déclarent la guerre à l’Allemagne (début de la Seconde Guerre Mondiale pour la France)","«Ֆրանսիան և Անգլիան պատերազմ են հայտարարում Գերմանիայի դեմ (Ֆրանսիայի համար Երկրորդ համաշխարհային պատերազմի սկիզբը)»"
"contemporaine","2 septembre 1939","easy","La France ordonne la mobilisation générale","«Ֆրանսիան հրամայում է ընդհանուր մոբիլիզացիա»"
"contemporaine","28 avril 1969","easy","Le général De Gaulle annonce sa démission_ suite à l’échec du référendum sur la régionalisation du Sénat","«Գեներալ Դե Գոլը հայտարարում է իր հրաժարականի մասին ՝ Սենատի տարածաշրջանայինացման վերաբերյալ հանրաքվեի տապալումից հետո»"
"contemporaine","10 juillet 1940","easy","Le Parlement accorde au maréchal Pétain les pleins pouvoirs (569 voix pour 80 contre et 17 absentions)","«Խորհրդարանը շնորհում է Մարշալ Պիտենին լիակատար լիազորություններ (569 ձայն ՝ 80 դեմ և 17 ձեռնպահ)"
"contemporaine","21 juin 1981","easy","Le parti socialiste remporte les élections législatives suite à la dissolution","«Սոցիալիստական կուսակցությունը հաղթում է խորհրդարանական ընտրություններին լուծարումից հետո»"
"antique",-390,"easy","Le Sac de Rome. Les Gaulois de Brennus s’emparent de Rome après 7 mois de siège et se retire contre une forte rançon","«Հռոմի պայուսակը. Brennus- ի դահիճները 7 ամսվա պաշարումից հետո գրավում են Հռոմը և դուրս գալիս ուժեղ փրկագնի դեմ»"
"contemporaine","2007-2009","easy","Le traité de Lisbonne donne naissance à une nouvelle entité juridique : l’Union Européenne","«Լիսաբոնի պայմանագիրը ծնում է նոր իրավաբանական անձ. Եվրամիություն»"
"Moyen-âge",711,"easy","Les Arabes débarquent en Espagne","«Արաբները վայրէջք են կատարում Իսպանիայում»"
"Moyen-âge","10 avril 1302","easy","Les États Généraux confirme l’indépendance du roi face au pape","«Գեներալ պետությունները հաստատում են թագավորի անկախությունը Հռոմի պապի նկատմամբ»"
"contemporaine","2 avril 1917","easy","Les États-Unis déclarent la guerre à l’Allemagne","«Միացյալ Նահանգները պատերազմ է հայտարարել Գերմանիայի դեմ»"
"Moyen-âge","24 juin  843","easy","Les Normands s’emparent de Nantes","«Նորմալները գրավում են Նանտին»"
"Moyen-âge","1 novembre 1337","easy","Lettre de défi d’Édouard III_ Début de la guerre de cent ans","«Մարտահրավեր նամակը Էդվարդ III- ից ՝ հարյուրամյա պատերազմի սկիզբը»"
"contemporaine","25 août 1944","easy","Libération de Paris","«Փարիզի ազատագրում»"
"contemporaine","5 avril 1884","easy","Loi d’organisation municipale prévoyant le suffrage universel pour les élections","«Համայնքային կազմակերպության ակտը նախատեսում է ընտրությունների համընդհանուր ընտրություն»"
"contemporaine","16 juin 1881","easy","Loi Jules Ferry sur la gratuité de l’enseignement primaire","«Ժյուլ Ferry օրենքը անվճար տարրական կրթության մասին»"
"contemporaine","9 mars 1868","easy","Loi rétablissant la liberté de la presse","«Գործողություն ՝ վերականգնելով մամուլի ազատությունը»"
"contemporaine","29 juillet 1881","easy","Loi sur la liberté de la presse","«Մամուլի ազատության ակտ»"
"contemporaine","30 juin 1881","easy","Loi sur la liberté de réunion","«Հավաքների ազատության մասին օրենք»"
"contemporaine","10 juin 1794","easy","Lois de prairial sur le tribunal révolutionnaire_ début de la Grande Terreur","«Քրեական օրենքներ հեղափոխական տրիբունալի մասին_ մեծ տեռորի սկիզբ»"
"Moyen-âge",817,"easy","Louis Ier proclame (Ordinatio imperii) son fils Lothaire empereur rompant avec la tradition Franque (Partage)","«Louis I- ը հայտարարում է (Ordinatio imperii) իր որդի Լոթեր կայսրին` խախտելով ավանդույթը Franque (Partage) »"
"contemporaine","10 décembre 1848","easy","Louis-Napoléon Bonaparte est élu président de la République (74_2%)","«Լուի-Նապոլեոն Բոնապարտը ընտրվել է Հանրապետության Նախագահ (74.2%)»:"
"moderne","24 août 1572","easy","Massacre de la Saint-Barthélemy_ mort de Coligny_ abjuration de Condé et de Henri de Navarre_ début du siège de La Rochelle et de la quatrième Guerre de religion","«Սուրբ Բարդուղիմեոսի կոտորածը_ Կոլինջիի մահը_ Քոնդեի և Նավարի Անրիի նահանջը_ Լա Ռոշելի պաշարման սկիզբը և կրոնի չորրորդ պատերազմը»"
"moderne","1 mars 1562","easy","Massacre des protestants à Wassy par le duc de Guise_ permière guerre de religion","«Բողոքի դքսության կողմից Վասիում բողոքականների զանգվածային սպանդը_ առաջին կրոնական պատերազմը»"
"Moyen-âge","24 septembre 768","easy","Mort de Pépin le bref à Saint-Denis_ son fils Charlemagne lui succède","«Մահացավ Պեպինի կարճամետրաժը Սեն-Դենիսում_ նրա որդին` Շառլամենը_ նրան հաջողություն է բերում »"
"contemporaine","18 septembre 1812","easy","Napoléon quitte Moscou en flammes_ début de la retraite de Russie","«Նապոլեոնը Մոսկվայից հեռանում է կրակի միջից ՝ վաղաժամկետ թոշակի անցնել Ռուսաստանից»"
"moderne","1 juillet 1573","easy","Paix de La Rochelle accordant liberté de conscience et de culte à La Rochelle_ Nîmes et Montauban","«Լա Ռոշելի խաղաղությունը_ որը տալիս է խղճի և պաշտամունքի ազատություն Լա Ռոշելում_ Նիմեսում և Մոնթաուբանում»"
"contemporaine","2 décembre 1852","easy","Proclamation du Second Empire","«Երկրորդ կայսրության հռչակումը»"
"contemporaine","4 mai 1848","easy","Proclamation officielle de la République par l’Assemblée","«Համագումարի կողմից հանրապետության պաշտոնական հռչակումը»"
"contemporaine","21 mars 1804","easy","Promulgation du Code Civil","«Քաղաքացիական օրենսգրքի հրապարակումը»"
"contemporaine","20 septembre 1992","easy","Référendum sur le traité de Maastricht (51_04 % de oui)","«Հանրաքվե Մաաստրիխտի պայմանագրի վերաբերյալ (51_04% այո)»"
"contemporaine","2 décembre 1804","easy","Sacre de Napoléon en présence de Pie VII à Notre-Dame","«Նապոլեոնի ծես ՝ Պեուս VII- ի ներկայությամբ Նոտր Դեմում»"
"Moyen-âge","7 juillet 1438","easy","Sanction de Bourges de Charles VII affranchissant l’église de la tutelle du pape","«Պատժամիջոցներ Բուրժ Չարլզ VII- ը հովանավորում է Հռոմի պապի խնամակալության եկեղեցին»"
"moderne","20 juin 1789","easy","Serment du jeu de paume : l’Assemblée Nationale se proclame Assemblée Nationale Constituante","«Երդման խաղ ափի խաղ. Ազգային ժողովը հայտարարում է Ազգային Հիմնադիր ժողով»"
"contemporaine","22 juin 1940","easy","Signature de l’armistice à Rethondes_  la moitié nord et les côtes atlantiques sont occupés par l’armée allemande","«Զինադադարի ստորագրությունը Ռեթոնդեսում_ հյուսիսային կեսը և Ատլանտյան ափերը գրավված են գերմանական բանակի կողմից»"
"contemporaine","8-9 mai 1945","easy","Signature officielle de la capitulation allemande par le général Keitel à Berlin","«Բեռլինում գեներալ Կիտելի կողմից գերմանական կապիտուլյացիայի պաշտոնական ստորագրումը»"
"contemporaine","25 mai 1864","easy","Suppression du droit de coalition accordant ainsi le droit de grève","«Կոալիցիայի իրավունքի ճնշումը_ այդպիսով_ գործադուլի իրավունք տալը»"
"contemporaine","31 août 1871","easy","Thiers est élu président de la république et l’assemblée nationale devient constituante","«Թերը ընտրվում է հանրապետության նախագահ_ իսկ ազգային ժողովը դառնում է բաղկացուցիչ»"
"contemporaine","18 avril 1951","easy","Traité créant la Communauté Européenne du Charbon et de l’Acier (CECA)","«Եվրոպայում ածուխի և պողպատի համայնքի ստեղծման մասին պայմանագիր (ECSC)»"
"contemporaine","10 mai 1871","easy","Traité de Francfort instituant la paix avec l’Allemagne en contrepartie de l’Alsace_ la Lorraine et d’indemnités","«Ֆրանկֆուրտի պայմանագիրը ՝ Գերմանիայի հետ խաղաղություն հաստատելու_ Ալսասի_ Լորենի և փոխհատուցման դիմաց»"
"moderne"," 3 septembre 1783","easy","Traité franco-anglais de Versailles reconnaissant l’indépendance des États-unis","«Վերսիլի Ֆրանս-անգլիական պայմանագիրը_ որը ճանաչում է Միացյալ Նահանգների անկախությունը»"
"contemporaine","19 mai 1974","easy","Valéry Giscard-d’Estaing (50_71%) remporte les élections présidentielles devant François Mitterrand","«Վալերի Գիսքարդ-դՍստաինգը (50_71%) հաղթում է նախագահական ընտրություններին Ֆրանսուա Միտերանդին ընդառաջ»"
"moderne","14 septembre 1515","easy","Victoire de François Ier à Marignan","«Ֆրանցիսկ I- ի հաղթանակը Մարինեանում»"
"contemporaine","10 mai 1981","easy","Victoire de François Mitterrand (51_75%) aux élections présidentielles devant Valéry Giscard-d’Estaing","«Ֆրանսուա Միտերանդի հաղթանակը (51_75%) նախագահական ընտրություններում ՝ Վալերի Գիսքարդ-Դե Էստաինգի դիմաց»"
"contemporaine","2 décembre 1805","easy","Victoire de Napoléon à Austerlitz contre les Russes et les Autrichiens","«Նապոլեոնի հաղթանակը Օուստերլիցում ռուսների և ավստրիացիների դեմ»"
"Moyen-âge",759,"easy","Victoire de Pépin le Bref près de Narbonne contre les Arabes qui replient en Espagne","«Պեպինի կարճ հաղթանակը Նարբոնումի մերձակայքում Իսպանիայում ծալած արաբների դեմ»"
"contemporaine","24 mai 1869","easy","Victoire républicaine aux élections législatives","«Հանրապետական հաղթանակը խորհրդարանական ընտրություններում»"
"Moyen-âge",639,"hard","« Début du règne des maires du palais ». Les maires du palais étaient les plus hauts dignitaires_ après les rois_ des royaumes francs qui couvraient alors l'essentiel de la France_ l'Allemagne et le Benelux actuels.","«« Պալատի քաղաքապետների թագադրման սկիզբը »: Պալատի քաղաքապետերը թագավորներից հետո ամենաբարձր պաշտոնատար անձինք էին այն ֆրանկյան թագավորությունների կողմից_ որոնք այդ ժամանակ ընդգրկում էին Ֆրանսիայի_ Գերմանիայի և Բենելյուքսի հոսանքները:"
"contemporaine","21 octobre 1945","hard","Abolition de la constitution de la IIIe République et élection d’une assemblée constituante","«Երրորդ հանրապետության սահմանադրության վերացումը և հիմնադիր ժողովի ընտրությունը»"
"contemporaine","7 juin 1936","hard","Accords de Matignon entre patronat et syndicats","«Matignon- ի համաձայնագրերը գործատուների և արհմիությունների միջև»"
"contemporaine","25 juin 1928","hard","Adoption d’une loi monétaire dévaluant le franc marquant l’abandon du franc germinal","«Ֆրանկային տերմինի լքումը նշող ֆրանկը արժեզրկող դրամական օրենքի ընդունում»"
"moderne","12 juillet 1790","hard","Adoption de la Constitution civile du clergé","«Հոգևորականների քաղաքացիական սահմանադրության ընդունում»"
"contemporaine","2 juillet 1914","hard","Adoption de la loi Caillaux sur l’impôt sur le revenu","«Օրենքի ընդունումը Caillaux- ը եկամտահարկի մասին»"
"contemporaine","26 octobre 1981","hard","Adoption de la loi sur les nationalisations","«Ազգայինացման մասին» օրենքի ընդունում"
"contemporaine","27 septembre 1981","hard","Adoption du projet d’impôt sur la fortune","«Հարստության հարկի նախագծի ընդունում»"
"contemporaine","28 janvier 1982","hard","Adoption du projet de loi sur la décentralisation","«« Ապակենտրոնացման մասին »օրենքի նախագծի ընդունում"
"contemporaine","2 octobre 1981","hard","Adoption du projet de loi sur les radios libres","«Օրենքի ընդունումը անվճար ռադիոյով»"
"contemporaine","24 septembre 2000","hard","Adoption du quinquennat (la présidence dure 5 années) (73_24%) lors d’un référendum marqué par l’abstention (68%)","«Quinquennium- ի (նախագահությունը տևում է 5 տարի) (73_24%) ընդունումը հանրաքվեով_ որը նշանակված է ձեռնպահ քվեարկությամբ (68%)»:"
"antique","Juin 451","hard","Aetius bat les Huns sur les Champs Catalauniques près de Troyes","«Aetius- ը հաղթում է որսորդներին Տրոյեսի մերձակայքում գտնվող կատալոնյան դաշտերում»"
"Moyen-âge","2 décembre 1419","hard","Alliance entre Philippe le Bon_ duc de Bourgogne et Henri V d’Angleterre","«Դաշինք Ֆիլիպ Լավի_ Բուրգունդիայի Duke- ի և Անգլիայի Հենրի V- ի միջև»"
"contemporaine","30 janvier 1875","hard","Amendement Wallon instituant la république","«Վալոնյան փոփոխություն_ որը ստեղծում է հանրապետությունը»"
"Moyen-âge",774,"hard","Annexion de la Lombardie","«Լոմբարդիայի հավելված»"
"moderne","5 septembre 1661","hard","Arrestation de Fouquet à Nantes_ accusé de détournement de fonds","«Ֆուչեի ձերբակալությունը Նանտում_ մեղադրվում է յուրացման մեջ»"
"Moyen-âge","31 juillet  1451","hard","Arrestation de Jacques Cœur accusé de conspiration et malversation","«Ժակ Կոների ձերբակալությունը_ որը մեղադրվում է դավադրության և անօրինական գործողությունների համար»"
"contemporaine","30-31 mars 1794","hard","Arrestation des chefs des Indulgents (Danton_ Desmoulins_ Delacroix_ Philippeaux_ Westerman…) 1794 5 avril Condamnation et exécution de Danton_ Desmoulins_ Fabre d’Eglantine et des Indulgents","«Ինդուլգենցիների (Դանթոն_ Դեսմուլինս_ Դելակրոքս_ Ֆիլիպպե_ Ուեսթերման ...) առաջնորդների ձերբակալություն 1794 ապրիլի 5-ին Դանտոնի_ Դեսմուլինների_ Էգլանտինի և Ֆաբրեի բանտերի մահապատժի դատապարտումը և կատարումը»"
"Moyen-âge",584,"hard","Assassinat de Chilpéric (Neustrie) sur ordre de Frédégonde","«Չիլպերի (Նեուստրիա) սպանությունը Ֆրեդեգոնդեի հրամանով»"
"moderne","14 mai 1610","hard","Assassinat de Henri IV par Ravaillac_ son fils Louis lui succède","«Հենրի IV- ի սպանությունը Ռավիլյակի կողմից_ նրա որդին ՝ Լուիը_ նրան հաջողացնում է»"
"Moyen-âge","10 septembre 1419","hard","Assassinat de Jean sans Peur au pont de Montereau_ son fils Philippe le Bon lui succède","«Montոն Սարսափելի սպանությունը Մոնտերոյի կամրջում_ նրա որդին ՝ Ֆիլիպ Բարին հաջողվում է նրան»"
"Moyen-âge",575,"hard","Assassinat de Sigebert (Austrasie) sur ordre de Frédégonde","«Սիգերբերգի (Ավստրալիա) սպանությունը Ֆրեդեգոնդեի հրամանով»"
"contemporaine","13 février 1820","hard","Assassinat du duc de Berry (neveu du roi) par Louvel","«Բերլի դքսուհու սպանությունը (թագավորի եղբորորդին) Լուվելի կողմից»"
"Moyen-âge","7 septembre 1303","hard","Attentat d’Anagni de Guillaume de Nogaret contre Boniface VIII","«Anagni Guillaume de Nogaret- ի հարձակումը Boniface VIII- ի դեմ»"
"contemporaine","28 juillet 1835","hard","Attentat de Fieschi contre Louis-Philippe_ provoquant la mort de 12 personnes","«Ֆիշչիի հարձակումը Լուի-Ֆիլիպի դեմ ՝ պատճառելով 12 մարդու մահվան»"
"antique",451,"hard","Avènement du chef franc Mérové","«Merové Frankish Head- ի գալուստը»"
"contemporaine","13 juin 1982","hard","Blocage des prix et des salaires","«Արգելափակում են գները և աշխատավարձերը»"
"moderne","28 octobre 1628","hard","Capitulation de La Rochelle","«Լա Ռոշելիի կապիտուլյացիան»"
"moderne","25 février 1497","hard","Capitulation de Tarente_ perte du royaume de Naples","«Տարանտոյի կապիտուլյացիա_ Նեապոլների Թագավորության կորուստ»"
"moderne","21 décembre 1560","hard","Catherine de Médicis et Antoine de Bourbon sont nommés régents par le Conseil d’État","«Քեթրին դե Մեդիչին և Անտուան դը Բուրբոնը նշանակվել են Պետխորհրդի կողմից ռեագենտներ»"
"moderne","22 juillet 1472","hard","Charles le Téméraire échoue devant Beauvais","«Շառլ Բոլդը ձախողվում է Բոուի դիմաց»"
"contemporaine","16 mai 1830","hard","Charles X dissout la Chambre des députés","«Չարլզ X- ը լուծարում է Պատգամավորների պալատը»"
"antique",193,"hard","Claudius Albinus se fait proclamer empereur par ses légions en Bretagne","«Կլավդիոս Ալբինուսը կայսր է հռչակվել Բրիտանիայի իր լեգեոններով»"
"Moyen-âge",613,"hard","Clotaire II fait exécuter Sigebert II et Brunehaut_ réunification du royaume","«Կլոտեյրան II- ը ստիպում է մահապատժի ենթարկել Սիգերբերտ II- ին և Բրյունհաութին ՝ թագավորության վերամիավորում»"
"Moyen-âge",524,"hard","Clothaire épouse Gontheuque_ veuve de Clodomir_ fait assassiner ses fils et s’empare de son royaume","«Հագուստի կինը ՝ Գոնտեուկան_ Կլոդոմիրի այրին_ սպանեց իր որդիներին և գրավեց իր թագավորությունը»"
"moderne","30 août 1455","hard","Compromis dans un complot_ le dauphin s’enfuit à Louvain","«Փոխզիջում հողամասում. Դելֆինը փախավ Լյուվեն»"
"contemporaine","24 mars 1794","hard","Condamnation et exécution des chefs des Cordeliers (Hébert…)","«Կորդերի առաջնորդների դատապարտում և մահապատժի դատապարտում (Հեբերտ ...)»"
"contemporaine","29-30 septembre 1938","hard","Conférence de Munich entre la France_ l’Angleterre_ l’Italie et l’Allemagne sur la question des Sudètes","«Մյունխենի կոնֆերանսը Ֆրանսիայի_ Անգլիայի_ Իտալիայի և Գերմանիայի միջև Սուդետենի հարցով»"
"contemporaine","23 novembre 1799","hard","Constitution de l’an VIII_  Napoléon Bonaparte_ Sieyès et Ducos sont nommés consuls ","«VIII տարվա Սահմանադրությունը_ Նապոլեոն Բոնապարտը_ Սիեյեսը և Դուկոսը կոչվում են հյուպատոսներ»"
"contemporaine","1 juillet 1911","hard","Coup d’Agadir ou crise d’Agadir des Allemands contre les Français_ provoqué par l'envoi d'une canonnière (navire léger armé de canons) de la marine de guerre allemande dans la baie d'Agadir au Maroc","«Գերմանացիների պետական հեղաշրջումը կամ« Ագադիր »ճգնաժամը ֆրանսիացիների դեմ ՝ կապված գերմանական նավատորմի հրազենային զենքի (թեթև նավը) զենքի ուղարկմամբ ՝ Մարոկկոյի Ագադիրի ծոցում»:"
"contemporaine","11 mai 1798","hard","Coup d’état du 22 floréal du directoire contre les députés jacobins élus en avril. Le jacobinisme est une doctrine politique qui défend la souveraineté populaire et l'indivisibilité de la République française","«Ապրիլին ընտրված Jacobin- ի պատգամավորների դեմ գրացուցակի 22 Floréal- ի պետական հեղաշրջումը քաղաքական դոկտրին է_ որը պաշտպանում է Ֆրանսիայի Հանրապետության ժողովրդական ինքնիշխանությունն ու անբաժանելիությունը»:"
"contemporaine","18 juin 1799","hard","Coup d’état du 30 prairial_ les conseils contraignent les directeurs Merlin et La Revellière à la démission","«30 գովասանքի հեղաշրջում_ խորհուրդները ստիպում են տնօրեններին Մերլինին և Լա Ռվելելիերին հրաժարական տալ»"
"contemporaine","4 septembre 1797","hard","Coup d’état du directoire contre les royalistes_ Barras aidé de Napoléon prend le pouvoir","«Ռեալիդիստների դեմ գրացուցակի հեղաշրջում. Նապոլեոնի օգնությամբ Բարասը վերցնում է իշխանությունը»"
"Moyen-âge","29 février 888","hard","Couronnement de Eudes à Compiègne","«Եդեսների թագադրումը Compiegne- ում»"
"moderne"," 8 juin 1576","hard","Création de la Sainte Ligue qui avait pour objectif de briser la progression des Turcs ottomans","«Սուրբ լիգայի ստեղծում_ որը նպատակ ուներ խափանել օսմանյան թուրքերի առաջընթացը»"
"contemporaine","29 décembre 1943","hard","Création des Forces Françaises de l’Intérieur (FFI)","«Ֆրանսիական ներքին գործերի ուժերի ստեղծում (FFI)»"
"contemporaine","24 septembre 1941","hard","Création du Comité National de la France Libre à Londres par le général de Gaulle","«Լոնդոնում Ազատ Ֆրանսիայի ազգային հանձնաժողովի ստեղծումը ՝ գեներալ դե Գոլի կողմից»"
"contemporaine","15 mai 1943","hard","Création du Conseil National de la Résistance (CNR)","«Դիմադրության ազգային խորհրդի (CNR) ստեղծում»"
"contemporaine","16 février 1943","hard","Création du Service du Travail Obligatoire (STO)","«Պարտադիր աշխատանքային ծառայության ստեղծում (STO)»"
"contemporaine","30 juin 1968","hard","De Gaulle remporte les élections législatives","«Դե Գոլը հաղթում է խորհրդարանական ընտրություններում»"
"contemporaine","27 juin 1795","hard","Débarquement d’une armée de quatre mille émigrés à Quiberon","«Քվիբրոնում չորս հազար արտագաղթած բանակի վայրէջք»"
"contemporaine","28 décembre 1933","hard","Début de l’affaire Stavisky (escroc qui magouillait avec les politiques et est mort dans des circonstances étranges)","«Ստավսկու գործի սկիզբը (խաբեբան_ ով պայքարում էր քաղաքականության հետ և մահացավ տարօրինակ հանգամանքներում)»"
"moderne","1 octobre 1791","hard","Début de l’Assemblée législative et de la monarchie constitutionnelle","«Օրենսդիր ժողովի և Սահմանադրական միապետության սկիզբ»"
"antique",-800,"hard","Début de l’invasion des Celtes qui vont remplacer peu à peu les Ligures","«Կելտերի արշավանքի սկիզբը_ ովքեր աստիճանաբար կփոխարինեն Լիգուրյաններին»"
"contemporaine","21 mars 1918","hard","Début de l’offensive allemande sur la Somme","«Սոմմի վրա գերմանական հարձակման սկիզբը»"
"moderne","Mars 1465","hard","Début de la guerre de Louis XI contre la Ligue du Bien Public de Charles le Téméraire et Charles de France","«Լուի XI- ի պատերազմի սկիզբը Ֆրանսիայի Չարլզ Բոլդ և Շառլ հանրային գույքի լիգայի դեմ»"
"moderne","2 septembre 1792","hard","Début des « Massacres de septembre » dans les prisons (jusqu’au 6)","«« Սեպտեմբերի կոտորածները »բանտերում (մինչև 6-ը)»"
"contemporaine","1 novembre 1795","hard","Début du directoire_ Il tire son nom du « directoire » c'est-à-dire l'ensemble des cinq directeurs_ chefs du gouvernement entre lesquels le pouvoir exécutif et les ministres sont répartis_ pour éviter la tyrannie_ et dont le siège est au palais du Luxembourg","«Գրացուցակի սկիզբը_ այն իր անունն է վերցնում« Գրացուցակ »-ից_ այսինքն ՝ բոլոր հինգ տնօրենները_ կառավարության ղեկավարները_ որոնց միջև բաժանված են գործադիր իշխանությունն ու նախարարները ՝ խուսափել բռնակալությունից_ և ում նստավայրն է գտնվում է Լյուքսեմբուրգի պալատում »"
"contemporaine","21 novembre 1806","hard","Décret de Berlin instituant un blocus contre l’Angleterre","«Բեռլինի հրամանագիր ՝ Անգլիայի դեմ շրջափակում հաստատելու մասին»"
"Moyen-âge","25 octobre 1415","hard","Défaite de la chevalerie française à Azincourt face aux Anglais","«Ֆրանսիական ձկնորսության պարտությունը Ազինկուրտում ընդդեմ անգլիացիների»"
"contemporaine","18 octobre 1813","hard","Défaite de Napoléon à Leipzig","«Նապոլեոնի պարտությունը Լայպցիգում»"
"contemporaine","25 août 1976","hard","Démission de Jacques Chirac_ Raymond Barre le remplace","«Ժակ Շիրակի հրաժարականը ՝ Ռեյմոնդ Բարրը փոխարինում է նրան»"
"contemporaine","2 décembre 1887","hard","Démission de Jules Grévy suite au scandale des décorations","«Ժյուլ Գրիվիի հրաժարականը դեկորացիաների սկանդալից հետո»"
"contemporaine","9 novembre 1799","hard","Démission de Sieyès_ Barras et Ducos de l’exécutif provoquant la vacance du pouvoir_ coup d’état du 18 Brumaire","«Սիեյսի_ Բարասի և Դուկոսի գործադիրի հրաժարականը` առաջացնելով իշխանությունների թափուր տեղ_ 18 Brumaire- ի հեղաշրջում »"
"contemporaine","30 janvier 1879","hard","Démission du président Mac-Mahon","«Նախագահ Մակ-Մահոնի հրաժարականը»"
"Moyen-âge","4 juillet 1190","hard","Départ de Philippe Auguste pour la troisième croisade","«Ֆիլիպ Օգոստեի մեկնումը երրորդ խաչակրաց արշավանքի համար»"
"Moyen-âge","12 juin 1248","hard","Départ de Saint-Louis pour la septième croisade","«Սեն-Լուի մեկնումը յոթերորդ խաչակրաց արշավանքի համար»"
"contemporaine","12 juin 1982","hard","Dévaluation du franc","«Ֆրանկի արժեզրկում»"
"contemporaine","25 juin 1877","hard","Dissolution de l’Assemblée nationale (III République)","«Ազգային ժողովի լուծարում (III հանրապետություն)»"
"contemporaine","27 septembre 1939","hard","Dissolution du PCF","«PCF- ի լուծարում»"
"contemporaine","30 décembre 1919","hard","Du congrès de Tours naît la scission entre SFIO et PCF","«Տուրերի համագումարից ծնվում է պառակտումը SFIO- ի և PCF- ի միջև»"
"Moyen-âge"," 2 octobre 1370","hard","Du Guesclin devient connétable (haute dignité)","«Du Guesclin- ը դառնում է կայուն (բարձր արժանապատվություն)»"
"antique",70,"hard","Échec de « l’empire des Gaules » de Sabinus","«Սաբինուսի« Գաուլի կայսրության »ձախողում»"
"moderne","17 mars 1560","hard","Échec de la conjuration d’Ambroise visant à enlever le roi","«Չհաջողվեց Ամբրոզին դավադրությունը թագավորին հեռացնելու համար»"
"contemporaine","12-13 mai 1839","hard","Échec des journées révolutionnaires de Barbès et Blanqui","«Բարբեսի և Բլանկիի հեղափոխական օրերի ձախողում»"
"contemporaine",2005,"hard","Echec du référendum pour une constitution européenne","«Հանրաքվեի ձախողումը եվրոպական սահմանադրության համար»"
"antique",313,"hard","Édit de Milan venant confirmer la liberté de culte pour les chrétiens et la restitution des biens confisqués","«Միլանի հրահանգ_ որը հաստատում է քրիստոնյաների համար պաշտամունքի ազատությունը և բռնագրավված գույքի վերադարձը»"
"moderne","8 août 1788","hard","Édit prévoyant la convocation des États Généraux (assemblée extraordinaire réunissant les trois ordres (les états) de la société : la noblesse_ le clergé et le tiers état (le reste)) pour le 1er mai","«Հոդված_ որը նախատեսում է մայիսի 1-ին գումարել Գլխավոր պետությունների (արտահերթ ժողով_ որը միավորում է հասարակության երեք կարգերը (պետությունները). Ազնվականությունը_ հոգևորականությունը և երրորդ պետությունը (մնացածը))»:"
"contemporaine","8 avril 1938","hard","Édouard Daladier remplace Léon Blum à la tête du gouvernement mettant fin au Front Populaire","«Էդուարդ Դալադիերը փոխարինում է Լեոն Բլումին ՝ կառավարության ղեկավարին ՝ վերջ տալով ժողովրդական ճակատին»"
"contemporaine","26 mars 1871","hard","Élections de la commune de Paris","«Փարիզի կոմունայի ընտրություններ»"
"contemporaine","1 mars 1948","hard","Embuscade du Viet-minh contre un convoi français en Indochine (82†)","«Viet-minh- ի ամբոխը Ինդոչինայում ֆրանսիական նավակի դեմ (82 †)"
"Moyen-âge","22 février 1358","hard","Étienne Marcel soulève Paris avec l’aide de Charles le Mauvais","«Իտյեն Մարսելը Չարլզ Բարի օգնությամբ բարձրացնում է Փարիզը»"
"moderne","31 juillet 1602","hard","Exécution de Biron ayant comploté contre le roi","«Բիրոնի մահապատժի գործադրումը ՝ արքայի դեմ դավադրություն ունենալով»"
"Moyen-âge",1314,"hard","Exécution de Jacques de Molay et Hugues de Pairaud","«Ժակ դե Մոլայի և Հյուգզ դե Պիրաուդի մահապատիժ»"
"contemporaine","31 octobre 1793","hard","Exécution des Girondins.  (Brissot_ Vergniaud…) 1794 13-14 mars Arrestation des chefs hébertistes (Hébert_ Vincent_ Momoro_ Ronsin_ Carrier)","«Theիրոնդինների մահապատիժ."
"contemporaine","15 septembre 1990","hard","F. Mitterrand annonce la participation de la France à la guerre du Golfe (opération « Daguet ») contre l’Irak","«Ֆ. Միտերրանը հայտարարում է Ֆրանսիայի մասնակցությունը Պարսից ծոցի պատերազմին (գործողություն« Դագուետ ») Իրաքի դեմ»"
"contemporaine","21 juin 1848","hard","Fermeture des ateliers nationaux_ l'État intervenait directement en fournissant_ en organisant et en payant le travail. Cette « expérience » sociale a duré tout juste trois mois","«Ազգային սեմինարների փակումը_ պետությունը անմիջականորեն միջամտեց` ապահովելով_ կազմակերպելով և վճարելով աշխատանքի համար: Այս սոցիալական «փորձը» տևեց ընդամենը երեք ամիս »:"
"moderne","14 juillet 1790","hard","Fête de la fédération au Champ-de-Mars_ Louis XVI prête serment à la constitution","«Ֆեդերացիայի տոնը Շամպ-դե Մարսում_ Լուի XVI- ը երդում է տալիս սահմանադրությանը»"
"contemporaine","2 novembre 1919","hard","Fondation du Syndicat Confédération des Travailleurs Chrétiens (CFTC)","«Քրիստոնյա աշխատողների դաշնության հիմնադրամ (CFTC)»"
"contemporaine","23 novembre 1945","hard","Formation d’un gouvernement tripartite (MRP-PCF–SFIO) autour du général de Gaulle","«Գեներալ դե Գոլի շուրջ եռակողմ կառավարության ձևավորում (MRP-PCF-SFIO)»"
"moderne","8 janvier 1558","hard","François_ duc de Guise s’empare de Calais","«Ֆրանսուան_ Գիզեի դուքը գրավում է Կալային»"
"moderne","17 juillet 1791","hard","Fusillade du Champ-de-Mars contre les pétitionnaires demandant la déchéance du roi (50†)","«Շամպ-դե-Մարս կրակոցը արքայի քայքայումը պահանջող հայցողների դեմ (50)»"
"Moyen-âge"," 14 octobre 1066","hard","Guillaume de Normandie remporte la bataille de Hastings (Angleterre) contre Harold qui y trouve la mort","«Նորմանդիայի Ուիլյամը հաղթում է Հաստինգսինգի (Անգլիա) ճակատամարտում Հարոլդի դեմ_ ով մահ է գտնում»"
"moderne","23 décembre 1588","hard","Henri III fait assassiner le duc de Guise et son frère par le capitaine du Guast","«Հենրի III- ը Գուաստի նավապետի կողմից սպանեց Գիզեյի դքսին և նրա եղբորը»"
"moderne","22 mars 1594","hard","Henri IV entre à Paris_ onze provinces se rallie à lui","«Անրի IV- ը մտնում է Փարիզ_ տասնմեկ նահանգներ հավաքում են նրան»"
"contemporaine","31 mars 1905","hard","Incident franco-allemand de Tanger. Guillaume II refuse de reconnaître la souveraineté française","«Ֆրանս-գերմանական միջադեպը Տանգիերում_ Ուիլյամ Երկրորդը հրաժարվում է ճանաչել Ֆրանսիայի ինքնիշխանությունը»"
"antique",162,"hard","Incursions germaniques repoussées en Gaule","«Գերմանական ներխուժումները հետ են մղվել Գաուլի»"
"contemporaine","23-26 juin 1848","hard","Insurrection ouvrière à Paris_ en partie due à la fermeture des ateliers nationaux","«Աշխատավորների ապստամբությունը Փարիզում ՝ մասամբ ազգային արհեստանոցների փակման պատճառով»"
"contemporaine","22 mars 1986","hard","Jacques Chirac devient premier ministre après avoir remporté les élections législatives_ première cohabitation (président de gauche et 1er ministre de droite)","«Ժակ Շիրակը վարչապետ է դառնում խորհրդարանական ընտրություններում_ առաջին համակեցությունից (ձախակողմյան նախագահ և աջակենտրոն վարչապետ) հաղթելուց հետո»:"
"Moyen-âge","23 novembre 1407","hard","Jean sans Peur_ duc de Bourgogne_ quitte Paris après avoir fait assassiner Louis d’Orléans","«John Fearless_ Burgundy Duke- ը_ հեռանում է Փարիզից ՝ Օռլեանի Louis- ին սպանելուց հետո»"
"contemporaine","25 janvier 1882","hard","Krach de l’Union Générale provoquant la ruine de nombreux épargnants","«Ընդհանուր միության Կրաչը շատ փրկիչների կործանում է»"
"contemporaine","4 novembre 1911","hard","L’Allemagne reconnaît le protectorat français sur le Maroc en contrepartie du bassin de la Sangha (Congo)","«Գերմանիան ճանաչում է Ֆրանսիայի պրոտեկտորատը Մարոկկոյի նկատմամբ ՝ Սանգայի ավազանի դիմաց (Կոնգո)»:"
"contemporaine","21 mai 1871","hard","L’armée de Versailles entre dans Paris_ début de la semaine sanglante","«Վերսալի բանակը մտնում է Փարիզ ՝ արյունոտ շաբաթվա սկիզբը»"
"contemporaine","5 octobre 1795","hard","L’armée réprime l’insurrection royaliste (300†)","«Բանակը ճնշում է արքայական ապստամբությանը (300)»"
"contemporaine","28 juillet 1914","hard","L’Autriche-Hongrie déclare la guerre à la Serbie","«Ավստրիա-Հունգարիան պատերազմ է հայտարարում Սերբիայի դեմ»"
"moderne","15 juin 1702","hard","La coalition déclare la guerre à la France_ début de la guerre de succession d’Espagne","«Կոալիցիան պատերազմ է հայտարարում Ֆրանսիայի դեմ_ Իսպանիայի հաջորդական պատերազմի սկիզբ»"
"moderne","5-6 janvier 1649","hard","La cour s’enfuit à Saint-Germain_ Condé assiège Paris","«Դատարանը փախավ Սեն Ժերմեն_ Քոնդեն պաշարեց Փարիզը»"
"contemporaine","28 mars 1993","hard","La droite remporte les élections législatives_ nouvelle cohabitation","«Rightիշտը հաղթում է օրենսդրական ընտրությունները_ նոր համակեցությունը»"
"contemporaine","1 août 1798","hard","La flotte française est détruite à Aboukir par l’amiral Nelson","«Ֆրանսիական նավատորմը ոչնչացվում է Աբուկերում ծովակալ Նելսոնի կողմից»"
"contemporaine","9 décembre 1905","hard","La France accepte le principe d’une conférence de paix internationale sur le Maroc","«Ֆրանսիան ընդունում է Մարոկկոյի վերաբերյալ միջազգային խաղաղության կոնֆերանսի սկզբունքը»"
"moderne","19 mai 1635","hard","La France déclare la guerre à l’Espagne","«Ֆրանսիան պատերազմ է հայտարարել Իսպանիայի դեմ»"
"moderne","26 novembre 1688","hard","La France déclare la guerre à la Hollande_ début de la guerre contre la ligue d’Augsbourg","«Ֆրանսիան պատերազմ է հայտարարում Հոլանդիայի դեմ ՝ պատերազմի սկիզբը Աուգսբուրգի լիգայի դեմ»"
"contemporaine","11 janvier 1923","hard","La France et la Belgique occupent la Ruhr pour contraindre l’Allemagne à payer les indemnités de guerre","«Ֆրանսիան և Բելգիան գրավում են Ռուրը_ որպեսզի ստիպեն Գերմանիային պատերազմի հատուցումներ վճարել»"
"contemporaine","27 janvier 1964","hard","La France reconnaît la République populaire de Chine","«Ֆրանսիան ճանաչում է Չինաստանի Ժողովրդական Հանրապետությունը»"
"contemporaine","29 octobre 1924","hard","La France reconnaît officiellement l’URSS","«Ֆրանսիան պաշտոնապես ճանաչում է ԽՍՀՄ-ը»"
"contemporaine","27 mars 1854","hard","La France_ l’Angleterre et la Turquie déclarent la guerre à la Russie","«Ֆրանսիան_ Անգլիան և Թուրքիան պատերազմ են հայտարարում Ռուսաստանի դեմ»"
"contemporaine","1 juin 1997","hard","La gauche plurielle (PS-Vert-PC) remporte les élection suite à la dissolution de l’Assemblé Nationale_ troisième cohabitation ","«Ձախերի մեծամասնությունը (PS-Green-PC) հաղթում է ընտրություններին ՝ Ազգային ժողովի լուծարումից հետո_ երրորդ համախմբում»:"
"moderne","1618-1648","hard","La guerre de Trente Ans est une série de conflits armés qui a déchiré l’Europe","«Երեսուն տարի պատերազմը զինված հակամարտությունների շարք է_ որը փլուզեց Եվրոպան»"
"contemporaine","21-22 décembre 1851","hard","Large plébiscite du coup d’État de Louis-Napoléon Bonaparte","«Լուի Լեոն Նապոլեոն Բոնապարտի հեղաշրջման մեծ plebiscite»"
"contemporaine","11 mai 1924","hard","Le Cartel des gauches remporte les élections législatives","«Ձախ կարտը հաղթում է օրենսդրական ընտրությունները»"
"contemporaine","3 mai 1936","hard","Le Front populaire remporte les élections législatives_ début des grèves","«Հանրային ճակատը հաղթեց օրենսդրական ընտրություններին_ գործադուլների սկիզբը»"
"contemporaine","30 mai 1968","hard","Le général de Gaulle annonce la dissolution de l’Assemblée nationale","«Գեներալ դը Գոլը հայտարարում է Ազգային ժողովի լուծարման մասին»"
"contemporaine","9 septembre 1944","hard","Le général De Gaulle créé un gouvernement provisoire","«Գեներալ Դե Գոլը ստեղծում է ժամանակավոր կառավարություն»"
"contemporaine","3 juin 1943","hard","Le général De Gaulle fonde le Comité Français de Libération Nationale (CFLN)","«Գեներալ Դե Գոլը ստեղծում է Ֆրանսիայի ազգային ազատագրման կոմիտեն (CFLN)»"
"contemporaine","14 avril 1947","hard","Le général De Gaulle fonde le Rassemblement du Peuple Français (RPF)","«Գեներալ Դե Գոլը գտել է Rassemblement du Peuple Français (RPF)»"
"contemporaine","15 mai 1917","hard","Le général Pétain remplace le général Nivelle à la tête des armées françaises","«Գեներալ Պիտենը փոխարինում է գեներալ Նիվիլին ֆրանսիական բանակների գլխավերևում»"
"contemporaine","3 juin 1944","hard","Le Gouvernement Provisoire de la France Libre (GPFL) remplace le CFLN","«Ազատ Ֆրանսիայի ժամանակավոր կառավարությունը (GPFL) փոխարինում է CFLN- ին»"
"Moyen-âge",1208,"hard","Le pape ordonne la croisade contre les Albigeois sous la conduite de Simon de Monfort","«Հռոմի պապը հրամայեց խաչակրաց արշավանքը Ալբիգենսների դեմ ՝ Սիմոն դե Մոնֆորթի ղեկավարությամբ»"
"moderne","16 juillet 1787","hard","Le Parlement de Paris rejette les réformes fiscales et réclame des États Généraux","«Փարիզի պառլամենտը մերժում է հարկային բարեփոխումները և պնդում է գույքի գեներալը»"
"moderne","8 octobre 1547","hard","Le Parlement institue la Chambre Ardente pour lutter contre l’hérésie (sous le règne de Henri II)","«Խորհրդարանը Ստանդարտ պալատը ստեղծում է պայքարելու հերետիկոսության դեմ (Հենրի II- ի օրոք)»:"
"contemporaine","5 décembre 1831","hard","Le prince royal et le maréchal Soult à la tête de vingt mille hommes entrent à Lyon","«Թագավորի իշխանը և մարշալ Սուլթը քսան հազար մարդու գլխավերևում մտնում են Լիոն»"
"contemporaine","26 mars 1944","hard","Les Allemands détruisent le maquis du plateau des Glières (mouvement de résistants français)","«Գերմանացիները ոչնչացնում են Մելիքի սարահարթը ՝ Glières (ֆրանսիական դիմադրության շարժում)»"
"contemporaine","23 octobre 1944","hard","Les Américains reconnaissent le gouvernement provisoire du général De Gaulle","«Ամերիկացիները ճանաչում են գեներալ Դե Գոլի ժամանակավոր կառավարությունը»"
"contemporaine","23 juillet 1944","hard","Les armées allemandes ont anéantis le maquis du Vercors (mouvement de résistants français)","«Գերմանական բանակները ոչնչացրել են Վեչորների մեծամասնությունը (ֆրանսիական դիմադրության շարժում)»"
"contemporaine","Janvier 1814","hard","Les armées coalisées (plus d’un million de soldats) envahissent la France","«Կոալիցիոն բանակները (ավելի քան մեկ միլիոն զինվոր) ներխուժում են Ֆրանսիա»"
"Moyen-âge",1317,"hard","Les Grands du royaume_ confirment le principe de loi salique","«Մեծ արքայությունից_ հաստատիր աղքատության օրենքի սկզբունքը»"
"Moyen-âge","28 mai 1418","hard","Les Parisiens ouvrent les portes de la capitale aux Bourguignons","«Փարիզցիները մայրաքաղաքի դռները բացում են բուրգունդցիներին»"
"moderne","24 décembre 1620","hard","Les Protestants décident lors de l’assemblée de La Rochelle de prendre les armes","«Բողոքականները Լա Ռոշելի ժողովում որոշում են կայացրել զենք վերցնել»"
"moderne","21 février 1701","hard","Les Provinces-Unies reconnaissent Philippe V comme roi d’Espagne","«Միացյալ Նահանգները ճանաչում են Ֆիլիպ V- ին Իսպանիայի թագավոր»"
"antique",-283,"hard","Les romains s’emparent du pays des Sénons (Celtes)","«Հռոմեացիները գրավում են Սեոնոնների երկիրը (Celts)»"
"antique",-125,"hard","Les Salyens ravagent les terres de Marseille qui demande l’aide de Rome","«Սալյենները փչացնում են Մարսելի հողերը_ ովքեր օգնություն են խնդրում Հռոմից»"
"contemporaine","11 novembre 1942","hard","Les troupes allemandes entrent en zone libre","«Գերմանական զորքերը մտնում են ազատ գոտի»"
"contemporaine","19 février 1858","hard","Loi de sûreté générale venant accroître la répression","«Ընդհանուր անվտանգության մասին օրենքը կբարձրացնի բռնաճնշումները»"
"contemporaine","12 octobre 1988","hard","Loi instituant le Revenu Minimum d’Insertion","«Օրենքի նվազագույն մուտքի սահմանման մասին օրենք»"
"moderne","14 juin 1791","hard","Loi Le Chapelier interdisant les associations patronales et ouvrières","«Հատուկների օրենքը_ որն արգելում է գործատուների և աշխատողների միությունները»"
"contemporaine","28 avril 1825","hard","Loi sur le « Milliard des émigrés »_ consistant à indemniser les émigrés qui avaient perdu leurs biens vendus comme Bien national sous la Révolution","«Օրենքի մասին« Արտագաղթողների միլիարդի մասին »_ որը բաղկացած է Հեղափոխության ներքո իրենց սեփականությունը կորցրած վաճառված որպես ազգային սեփականություն կորցրած արտագաղթողների հատուցելուց»"
"Moyen-âge","29 novembre 1226","hard","Louis IX est sacré à Reims_ Régence de Blanche de Castille (jusqu’en 1236)","«Louis IX- ը սուրբ է Reims- ի համար_ Regent of Blanche of Castile (մինչև 1236 թվականը)»"
"Moyen-âge","21 mars 1152","hard","Louis VII fait casser son mariage (divorce avec Aliénor d’Aquitaine) par le concile de Beaugency","«Լուի VII- ը խախտում է իր ամուսնությունը (ամուսնալուծությունը Ավիիտոր Ալիենորի հետ) Բոժենշեի խորհրդի կողմից»"
"moderne","24 mai 1667","hard","Louis XIV revendique la couronne espagnole_ début de la guerre de dévolution","«Լուի XIV- ը պնդում է իսպանական թագը ՝ պատերազմի սկիզբը»"
"moderne","10 octobre 1733","hard","Louis XV déclare la guerre à l’empereur autrichien","«Լուի XV- ը պատերազմ է հայտարարել ավստրիական կայսրին»"
"moderne","15 février 1723","hard","Louis XV est déclaré majeur_ fin de la régence","«Լուի XV- ը հռչակվեց մայոր_ ռենտգենտի ավարտը»"
"moderne","14 août 1787","hard","Louis XVI exile le Parlement à Troyes","«Լուի XVI- ը աքսորում է խորհրդարանը Տրոյեսում»"
"contemporaine","8 juillet 1815","hard","Louis XVIII entre à Paris","«Լուի XVIII- ը մտնում է Փարիզ»"
"contemporaine","12 janvier 1870","hard","Manifestation républicaine pour les funérailles de Victor Noir_ journaliste français tué à l'âge de 21 ans d'un coup de feu par le prince Pierre-Napoléon Bonaparte","«Հանրապետական ցույց Vict րանսիացի լրագրող Վիկտոր Նոյի թաղման համար_ 21 տարեկան հասակում սպանված արքայազն Պիեռ-Նապոլեոն Բոնապարտի կրակոցից»"
"moderne","25 juillet 1792","hard","Manifeste de Brunswick_ est une proclamation attribuée au chef de l’armée prussienne_ Charles-Guillaume-Ferdinand_ duc de Brunswick_ qui a pour objectif l’intimidation des parisiens","«Բրունսվիկի մանիֆեստը_ դա հռչակագիր է_ որը վերագրվում է Պրուսիայի բանակի ղեկավար Չարլզ-Գիլյոմ-Ֆերդինանդին_ Բրունսվիկի Դյուկին_ որի նպատակը փարիզացիների ահաբեկումն է»:"
"Moyen-âge",493,"hard","Mariage de Clovis avec Clothilde (Burgonde)","«Կլովիսի հարսանիքը Քլոտիլդի հետ (Բուրգունդու)»"
"moderne","9 juin 1660","hard","Mariage de Louis XIV avec Marie-Thérèse d’Autriche","«Լուի XIV- ի ամուսնությունը Ավստրիայի Մարիա Թերեզայի հետ»"
"moderne","5 septembre 1725","hard","Mariage de Louis XV avec Marie Leszczynska_ fille de l’ex-roi de Pologne_ à Fontainebleau","«Լուի XV- ի ամուսնությունը Լեհաստանի նախկին թագավորի ՝ Ֆոնտենբլոյի դստեր Մարի Լեսչինսկայի հետ»"
"Moyen-âge","25 juillet 1137","hard","Mariage de Louis_ fils aîné de Louis VI avec Aliénor d’Aquitaine_ héritière du duché","«Լուիի ամուսնությունը ՝ Լուի VI- ի ավագ որդին ՝ Ակվիաինի Ալիենորի հետ_ դքսուհու ժառանգը»"
"contemporaine","2 avril 1810","hard","Mariage de Napoléon et de Marie-Louise d’Autriche","«Ավստրիայի Նապոլեոնի և Մարի-Լուիզայի ամուսնությունը»"
"antique","177 et 174 ","hard","Martyrs de chrétiens à Lyon (Sainte Blandine)","«Քրիստոնյաների նահատակներ Լիոնում (Բլանդին)»"
"moderne","11 mai 1745","hard","Maurice de Saxe bat les Anglais à Fontenoy","«Մորիս Սաքսոնիան ծեծում է անգլերենին Ֆոնտենոյում»"
"moderne","3 février 1653","hard","Mazarin est de retour à Paris_ marquant la fin de la Fronde","«Մազարին վերադառնում է Փարիզ ՝ նշելով Ֆրոնդի ավարտը»"
"contemporaine","20 avril 1870","hard","Mise en place d’un régime parlementaire par senatus-consulte","«Սենատ-խորհրդատուի կողմից խորհրդարանական համակարգի ստեղծում»"
"moderne","1 novembre 1700","hard","Mort de Charles II d’Espagne qui désigne Philippe_ deuxième fils du Grand Dauphin comme son successeur","«Մահացավ Իսպանիայի Շառլ II- ը_ ով անվանեց Ֆիլիպին ՝ Գրանդ Դաուպինի երկրորդ որդուն որպես իր իրավահաջորդ»"
"moderne","5 janvier 1477","hard","Mort de Charles le Téméraire devant Nancy","«Մահացավ Չարլզը համարձակ ՝ Նենսիի առաջ»"
"moderne","20 octobre 1740","hard","Mort de Charles VI d’Autriche_ sa fille Marie-Thérèse lui succède posant le problème de la succession","«Ավստրիայի Չարլզ VI- ի մահը_ նրա դուստր Մարի-Թերեզին հաջողվում է_ որ նա իրեն առաջացնի իրավահաջորդության խնդիրը»"
"Moyen-âge",558,"hard","Mort de Childebert_ Clotaire contrôle seul le royaume Franc","«Մահացավ Childebert- ը_ Clotaire- ն ղեկավարում է միայն թագավորությունը Ֆրանկին»"
"Moyen-âge",629,"hard","Mort de Clotaire II_ son fils Dagobert prend la tête du royaume","«Մահացավ Կլոտեյեր II- ը_ նրա որդի Դագոբերտը վերցնում է թագավորության գլուխը»"
"Moyen-âge",561,"hard","Mort de Clotaire_ partage du royaume entre ses quatre fils","«Մահացավ Կլոտեյր_ թագավորությունը բաժանվեց նրա չորս որդիների միջև»"
"Moyen-âge",511,"hard","Mort de Clovis_ son royaume est partagé entre ses quatre fils (Thierry_ Clodomir_ Childebert et Clotaire)","«Մահացավ Կլովիսը_ նրա թագավորությունը բաժանված է նրա չորս որդիների միջև (Թիերի_ Կլոդոմիր_ Childebert և Clotaire)»:"
"Moyen-âge",639,"hard","Mort de Dagobert Ier_ partage du royaume entre ses deux fils Sigebert III (8 ans) et Clovis II (4 ans)","«Մահացավ Դագոբերտ Առաջինը_ թագավորության բաժանումը նրա երկու որդիների ՝ Սիգբերտ III- ի (8 տարեկան) և Կլովիս II- ի (4 տարեկան) միջև»:"
"Moyen-âge",593,"hard","Mort de Gontran_ Childebert II hérite du Royaume de Bourgogne","«Մահը Գոնտրանում_ Childebert II- ը ժառանգում է Բուրգունդիայի Թագավորությունը»"
"moderne","14 mai 1643","hard","Mort de Louis XIII_ son fils Louis lui succède","«Մահացավ Լուի XIII- ը_ նրա որդին ՝ Լուի_ նրան հաջողություն է տալիս»"
"moderne","10 mai 1774","hard","Mort de Louis XV_ son petit-fils Louis lui succède","«Մահացավ Լուի XV- ին_ նրա թոռը ՝ Լուի_ նրան հաջողություն է տալիս»"
"Moyen-âge"," 5 octobre 1285","hard","Mort de Philippe III à Perpignan son fils Philippe IV_ le Bel lui succède","«Մահացավ Ֆիլիպ III- ի մահը Փերպինյանում իր որդի Ֆիլիպ IV- ի մոտ_ Բելին հաջողվում է նրան»"
"Moyen-âge","15 janvier 936","hard","Mort de Raoul à Auxerre_ Louis fils de Charles le Simple réfugié en Angleterre est appelé au trône","«Մահը Ռաուլի ՝ Օքսերում_ Անգլիայի Չարլզ Պարզ փախստականի որդին ՝ Լուի_ կոչվում է գահ»"
"Moyen-âge","15 août 778","hard","Mort de Roland à Roncevaux","«Ռոլանդի մահը Ռոնչեսվալեսում»"
"Moyen-âge","25 août 1270","hard","Mort de Saint Louis à Tunis son fils Philippe III le Hardi lui succède","«Մահացավ Թունիսում Սենթ Լուիի որդին ՝ նրա որդին ՝ Ֆիլիպ III- ը_ հաջողվեց նրան»"
"moderne","23 février 1766","hard","Mort de Stanislas Leszczynski_ roi de Pologne_ qui lègue la Lorraine et Bar à la France","«Մահացավ Լեհաստանի թագավոր Ստանիսլաս Լեսցինսկին_ ով Լորրեյնին և Բարին է հանձնել Ֆրանսիային»"
"moderne","9 mars 1661","hard","Mort du cardinal de Mazarin","«Մահացավ կարդինալ մազարինի»"
"contemporaine","22 juin 1815","hard","Napoléon abdique en faveur de son fils","«Նապոլեոնը առևանգում է հօգուտ իր որդու»"
"contemporaine","24 juin 1812","hard","Napoléon franchit le Niémen_ Début de la campagne de Russie","«Նապոլեոնը անցնում է Նիեմեններին. Ռուսաստանի քարոզարշավի սկիզբը»"
"contemporaine","25 septembre 1915","hard","Offensive franco-anglaise en Artois et en Champagne","«Ֆրանս-անգլերեն վիրավորանք Արթոիսի և Շամպայնի շրջանում»"
"contemporaine","25 juillet 1830","hard","Ordonnance de dissolution de la Chambre des députés","«Պատգամավորների պալատի լուծարման կարգը»"
"Moyen-âge",1445,"hard","Ordonnance de Louppy-le-Châtel sur la permanence d’une armée de métier","«Լուպպի-լե-Շատելի հրամանագիր մասնագիտական բանակի մշտականության վերաբերյալ»"
"contemporaine","19 février 1942","hard","Ouverture du procès de Riom des anciens dirigeants français","«Ֆրանսիայի նախկին առաջնորդների Ռիոմի դատավարության բացումը»"
"moderne","7 mai 1576","hard","Paix de Monsieur à Beaulieu accordant des facilités de cultes et 8 places fortes aux Protestants","«Բոնուլիում Մոնսեարի խաղաղությունը պաշտպանիչ կառույցներ և բողոքականներին 8 ուժեղ տեղեր շնորհելու մասին»"
"Moyen-âge",534,"hard","Partage du royaume Burgonde entre Théodebert_ Childebert et Clothaire","«Բուրգունդյան թագավորության փոխանակումը Թեոդբերտի_ Childebert- ի և Clothaire- ի միջև»"
"contemporaine","13 janvier 1898","hard","Parution de « J’accuse » d’Émile Zola dans l’Aurore","«Իմիլ Զոլայի« Jaccuse »հրատարակությունը Ավրորում»"
"contemporaine","5 mai 1947","hard","Paul Ramadier renvoie les ministres communistes qui s’opposent au blocage des salaires","«Փոլ Ռամադիրը աշխատանքից հեռացրեց կոմունիստական նախարարներին_ ովքեր դեմ են աշխատավարձի սառեցմանը»"
"moderne","2 septembre 1715","hard","Philippe d’Orléans fait annuler le testament de Louis XIV pour s’arroger tous les pouvoirs","«Philippe dOrléans- ը ստիպեց չեղյալ համարել Լուի XIV- ի կտակարանը ՝ ամբարտավանելու բոլոր լիազորությունները»"
"contemporaine","21 octobre 1917","hard","Premier engagement des troupes américaines dans le conflit","«Ամերիկյան զորքերի առաջին ներգրավումը հակամարտության մեջ»"
"moderne","30 août 1673","hard","Première coalition (Provinces-Unies_ Espagne_ l’Empire allemand et la Lorraine) contre la France","«Առաջին կոալիցիան (Միացյալ նահանգներ_ Իսպանիա_ գերմանական կայսրություն և Լորան) Ֆրանսիայի դեմ»"
"Moyen-âge","4 août 1392","hard","Première crise de folie de Charles VI près du Mans","«Շառլ VI- ի առաջին խենթ ճգնաժամը Լե Մանսի մոտ»"
"antique",233,"hard","Premières incursions Alamanes dans l’Empire_ début des « Grandes Invasions »","«Առաջին ալաման արշավանքները կայսրությունում_« Մեծ արշավանքների »սկիզբը»"
"contemporaine","4 juin 1814","hard","Proclamation de la Charte_ cette dernière est la constitution du royaume de France en vigueur sous la Première puis la Seconde Restauration.","«Խարտիայի հռչակումը_ վերջինս Ֆրանսիայի Թագավորության սահմանադրությունն է_ որն ուժի մեջ է մտնում Առաջին և երկրորդ վերականգնման ներքո»:"
"contemporaine","9 septembre 1835","hard","Promulgation des lois sur la presse (censure)","«Մամուլի մասին օրենքների հրապարակումը (գրաքննություն)»"
"Moyen-âge",510,"hard","Publication de la loi salique_ il s'agit d'un code de loi élaboré","«Սալիչի օրենքի հրապարակումը_ այն մշակված օրենքի օրենսգիրք է»"
"Moyen-âge","13 juillet 923","hard","Raoul est élu roi et couronné à Soisson par les révoltés en remplacement de Robert","«Ռաուլն ընտրվում է թագավոր_ իսկ Սոիսոնում պսակադրվում է ապստամբների կողմից ՝ փոխարինելու Ռոբերտին»"
"contemporaine","24 octobre 1940","hard","Rencontre de Montoire entre Pétain et Hitler","«Մոնտոյարի հանդիպումը Պետեյնի և Հիտլերի միջև»"
"moderne","11 juillet 1789","hard","Renvoi de Necker_ le baron de Breteuil lui succède","«Նեկերի վերադարձը_ Բարոն դե Բրետյուիլը հաջողություն է ունենում նրան»"
"moderne","12 mai 1776","hard","Renvoi de Turgot_ contrôleur général des finances_ sous la pression populaire","«Տուրգոտի վերադարձը ՝ ֆինանսների գլխավոր վերահսկող_ ժողովրդական ճնշման տակ»"
"moderne","21 octobre 1652","hard","Retour du roi et de la cour à Paris_ amnistie des frondeurs sauf Condé","«Թագավորի և դատարանի վերադարձը Փարիզ_ դահիճների համաներումը_ բացառությամբ Կոնդ»"
"antique",-12,"hard","Réunion de l’assemblée provinciale des chefs des Gaules","«Գաուլի պետերի գավառների ժողով»"
"contemporaine","6 septembre 1892","hard","Révélation du scandale du canal de Panama (affaire de corruption)","«Պանամայի ջրանցքի սկանդալի բացահայտում (կոռուպցիոն դեպք)»"
"Moyen-âge",922,"hard","Révolte de Gilbert de Lorraine_ Robert de France_ Robert de Bourgogne contre Charles III le Simple","«Գիլբերտ դե Լորրեյնի ապստամբությունը ՝ Ֆրանսիայի Ռոբերտը_ Բուրգունդայի Ռոբերտը ՝ ընդդեմ Շառլ III- ի պարզ»"
"antique",68,"hard","Révolte de Vindex (Gouverneur de Lyon)","«Վինդեքսի ապստամբությունը (Լիոնի նահանգապետ)»"
"contemporaine","20-22 novembre 1831","hard","Révolte des Canuts à Lyon_ cela désigne plusieurs soulèvements ouvriers","«Լեռնոցի պահածոների ապստամբությունը_ այն նշանակում է մի քանի աշխատողների ապստամբություն»"
"moderne","Mai 1788","hard","Révolte des Parlements_ émeutes à Besançon_ Toulouse_ et Rennes","«Խորհրդարանների ապստամբություն_ անկարգություններ Բեսանկոնում_ Թուլուզում և Ռեննում»"
"antique",21,"hard","Révoltes de Sacrovir (éduen) et de Florus (trévire)","«Սակրովիրի հեղափոխություն (Էդուեն) և Ֆլորուս (դավաճան)»"
"moderne","13 août 1624","hard","Richelieu est nommé chef du Conseil","«Ռիշելյեն նշանակվել է Խորհրդի ղեկավար»"
"contemporaine","27 juillet 1794","hard","Robespierre et Saint-Just sont pris à partie à la tribune de la Convention","«Ռոբեսպիերը և Սեն-Justաստը մասնակցում են Կոնվենցիայի տրիբունային»"
"contemporaine","29 juillet 1904","hard","Rupture des relations diplomatiques entre la France et le Vatican","«Ֆրանսիայի և Վատիկանի միջև դիվանագիտական հարաբերությունների խզումը»"
"contemporaine","27 novembre 1942","hard","Sabordage de la flotte française à Toulon","«Ֆրանսիայի նավատորմը Թուլոնում»"
"Moyen-âge","17 juillet 1429","hard","Sacre de Charles VII à Reims","«Չարլզ VII- ի ծեսը Ռեյմսում»"
"contemporaine","29 mai 1825","hard","Sacre de Charles X à Reims","«Չարլզ X- ի ծեսը Ռեյմսում»"
"Moyen-âge","29 mai 1328","hard","Sacre de Philipe VI à Reims","«Ֆիլիպ VI- ի ծեսը Ռեյմսում»"
"Moyen-âge","6 mai 1250","hard","Saint-Louis et les survivants de son armée rejoignent Saint-Jean d’Âcre","«Սեն-Լուի և նրա բանակի վերապրածները միանում են Սեն-Ժան դԱկրին»"
"Moyen-âge","6 avril 1250","hard","Saint-Louis et son armée sont capturés et fait prisonniers","«Սենթ Լուիը և նրա բանակը գերեվարված և բանտարկված են»"
"contemporaine","20 novembre 1815","hard","Second traité de Paris_ la France est ramenée à ses frontières de 1790","«Փարիզի երկրորդ պայմանագիրը ՝ Ֆրանսիան հետ է բերվում 1790 թվականի իր սահմանները»"
"moderne","2 mai 1682","hard","Seconde coalition (Provinces-Unies_ Espagne_ l’Empire et la Suède) contre la France","«Երկրորդ կոալիցիան (Միացյալ նահանգներ_ Իսպանիա_ կայսրություն և Շվեդիա) ընդդեմ Ֆրանսիայի»"
"contemporaine","3 septembre 1918","hard","Signature de l’armistice entre les alliés et l’Autriche","«Հրադադարի ստորագրությունը դաշնակիցների և Ավստրիայի միջև»"
"contemporaine","27 juin 1972","hard","Signature du « Programme commun » entre les socialistes_ les communistes et les radicaux","«Սոցիալիստների_ կոմունիստների և արմատականների միջև« Համատեղ ծրագրի »ստորագրությունը»"
"contemporaine","22 janvier 1963","hard","Signature du traité de l’Élysée sur la coopération franco-allemande","«Ֆրանսիայի և Ֆրանսիայի միջև Ելիսեյան պայմանագրի ստորագրությունը»"
"Moyen-âge","Janvier 1358","hard","Signature du traité de Londres entre Jean II et le roi d’Angleterre","«Լոնդոնի պայմանագրի ստորագրությունը Johnոն II- ի և Անգլիայի թագավորի միջև»"
"moderne","12 septembre 1733","hard","Stanislas Leszczynski_ beau-frère de Louis XV est élu roi de Pologne","«Լուի Լ. XV- ի եղբայրը ՝ Ստանիսլաս Լեսշինսկին_ ընտրվում է Լեհաստանի թագավոր»"
"moderne","25 janvier 1494","hard","Suite à la mort de Ferdinand_ Charles VIII se proclame roi de Naples","«Ֆերդինանդի մահից հետո_ Շառլ VIII- ը իրեն հռչակում է Նեապոլի թագավոր»"
"moderne","26 janvier 1611","hard","Sully démissionne pour protester contre l’influence de C. Concini et sa femme","«Սուլին հրաժարական է տալիս ՝ բողոքելու C. C. Concini- ի և նրա կնոջ ազդեցությունը»"
"contemporaine","26 mars 1820","hard","Suspension des libertés individuelles (pendant la restauration)","«Անհատական ազատությունների կասեցում (վերականգնման ընթացքում)»"
"moderne","10 août 1792","hard","Suspension du roi qui est remplacé par le conseil exécutif provisoire","«Թագավորի կասեցումը_ որը փոխարինվում է ժամանակավոր գործադիր խորհրդի կողմից»"
"contemporaine","12 novembre 1890","hard","Toast d’Alger au cours duquel le cardinal Lavigerie souhaite le ralliement des Catholiques à la république","«Ալժիրների կենացը_ որի ընթացքում կարդինալ Լավիգերին ցանկանում է կաթոլիկների հավաքումը հանրապետություն»"
"moderne","2 mai 1668","hard","Traité d’Aix-la-Chapelle mettant fin à la guerre de dévolution_ la France restitue la Franche-Comté mais garde 12 places fortes conquises en Flandre","«Aix-la-Chapelle- ի պայմանագիրը_ որը ավարտում է ավերածությունների պատերազմը_ Ֆրանսիան վերականգնում է Franche-Comté- ն_ բայց պահում է Flanders- ում նվաճված 12 հենակետեր»"
"moderne","18 octobre 1748","hard","Traité d’Aix-la-Chapelle mettant fin à la guerre de succession d’Autriche","«Աքենի պայմանագիրը_ որը ավարտում է ավստրիական իրավահաջորդության պատերազմը»"
"contemporaine","8 avril 1904","hard","Traité d’alliance franco-anglais (Entente cordiale)","«Ֆրանս-անգլերեն դաշինքի պայմանագիր (Entente cordiale)»"
"contemporaine","25 mars 1802","hard","Traité d’Amiens scellant la paix entre la France et l’Angleterre","«Ֆրանսիայի և Անգլիայի միջև խաղաղություն կնքող Ամիեսի պայմանագիրը»"
"Moyen-âge","21 septembre 1435","hard","Traité d’Arras entre Charles VII et Philippe le Bon","«Արասի պայմանագիրը Շառլ VII- ի և Ֆիլիպ Բարիի միջև»"
"moderne","23 décembre 1482","hard","Traité d’Arras entre Frédéric III de Habsbourg et Louis XI qui récupère la Picardie et la Bourgogne","«Արրայի պայմանագիրը Հաբսբուրգի Ֆրեդերիկ III- ի և Լուի XI- ի միջև_ որը վերականգնում է Պիկարդին և Բուրգունդին»"
"moderne","11 avril 1713","hard","Traité d’Utrecht mettant fin à la guerre de succession d’Espagne","«Ուտրեխտի պայմանագիրը ՝ վերջ տալու Իսպանիայի իրավահաջորդության պատերազմին»"
"Moyen-âge","8 mai 1360","hard","Traité de Brétigny_ Édouard III d’Angleterre renonce au trône de France en échange de l’Aquitaine","«Բրիտանիայի պայմանագիրը. Անգլիայի Էդվարդ III- ը հրաժարվում է Ֆրանսիայի գահից ՝ Ակվիտաինի դիմաց»"
"moderne","11 novembre 1500","hard","Traité de Grenade entre Louis XII et Ferdinand d’Aragon pour le partage du royaume de Naples","«Գրանադայի պայմանագիր Լուի XII- ի և Արագոնի Ֆերդինանդի միջև ՝ Նեապոլների Թագավորության բաժանման համար»"
"Moyen-âge","23 mai 1414","hard","Traité de Leicester marquant l’alliance entre l’Angleterre et la Bourgogne","«Լեսթերի պայմանագիրը ՝ նշելով Անգլիայի և Բուրգունդիայի միջև դաշինքը»"
"moderne","5 février 1679","hard","Traité de Nimègue avec les Impériaux marquant la fin de la guerre de Hollande_ La France a acquis la Franche-Comté_ Cambrai_ Valenciennes_ l’Alsace_ le Sénégal et la Guyane","«Նիգեմենի պայմանագիրը իմպերիալիստների հետ_ որը նշում է պատերազմի ավարտը Հոլանդիայում_ Ֆրանսիան ձեռք բերեց Ֆրանչ-Կոմտեին_ Կամբրային_ Վալենսիենին_ Ալզասին_ Սենեգալին և Գայանաին»:"
"moderne","28 mars 1741","hard","Traité de Nymphenburg scellant l’alliance de la France_ l’Espagne_ la Bavière_ la Saxe et la Pologne contre Marie-Thérèse d’Autriche","«Նիմֆենբուրգի պայմանագիրը` կնքելով Ֆրանսիայի_ Իսպանիայի_ Բավարիայի_ Սաքսոնիայի և Լեհաստանի դաշինքը ընդդեմ Ավստրիայի Մարիա Թերեզայի »"
"moderne","17 septembre 1678","hard","Traité de paix franco-espagnol","«Ֆրանս-իսպանական խաղաղության պայմանագիր»"
"contemporaine","30 mars 1856","hard","Traité de Paris mettant fin à la guerre de Crimée","«Փարիզի պայմանագիրը_ որն ավարտում է Ղրիմի պատերազմը»"
"moderne","10 février 1763","hard","Traité de Paris mettant fin à la guerre de sept ans marquant la perte de nombreux territoires","«Փարիզի պայմանագիրը_ որը ավարտում է յոթնամյա պատերազմը` նշելով շատ տարածքների կորուստը »"
"Moyen-âge","28 mai 1258","hard","Traité de Paris sur la restitution d’une partie des possessions anglaises par Saint Louis_ Henri III d’Angleterre devient vassal du roi de France","«Փարիզի պայմանագիրը Անգլիայի Սենթ Լուի կողմից անգլիական ունեցվածքի մի մասը վերականգնելու մասին_ Անգլիայի Հենրի III- ը դառնում է Ֆրանսիայի թագավորի վասալը»"
"Moyen-âge","12 avril 1229","hard","Traité de Paris_ Beaucaire Nîmes et Carcassonne sont rattachés au royaume (fin de la croisade des Albigeois)","«Փարիզի պայմանագիրը_ Բեուզեր Նիմսը և Կարկասոնը կցվում են թագավորությանը (Ալբիգենյան խաչակրաց արշավանքի ավարտը)»"
"contemporaine","25 août 1883","hard","Traité de protectorat français sur le Tonkin et la Cochinchine","«Ֆրանսիայի պրոտեկտորատի պայմանագիրը Տոնկինի և Կոխին Չինաստանի վերաբերյալ»"
"moderne","16 août 1684","hard","Traité de Ratisbonne entre Louis XIV_ Léoplod Ier d’Autriche et Charles II d’Espagne accordant à la France les villes et territoires conquis","«Ռեգենսբուրգի պայմանագիրը Լուի XIV- ի_ Ավստրիայի Լեոպլոդ I- ի և Իսպանիայի Շառլ II- ի միջև_ որը Ֆրանսիային տալիս է նվաճված քաղաքներն ու տարածքները»:"
"moderne","30 octobre 1697","hard","Traité de Ryswick mettant fin à la guerre de la ligue d’Augsbourg où Louis XIV est contraint à de fortes concessions","«Ռայսվիկի պայմանագիրը_ որն ավարտում է Աուգսբուրգի լիգայի պատերազմը_ որտեղ Լուի XIV- ը ստիպված է ուժեղ զիջումների»:"
"contemporaine","7-9 juillet 1807","hard","Traité de Tilsit scellant la paix et l’alliance de Napoléon et du Tsar","«Թիլսիտի պայմանագիրը կնքում է Նապոլեոնի և ցարի խաղաղությունն ու դաշինքը»"
"contemporaine","24 mars 1860","hard","Traité de Turin : La France cède la Sardaigne en contrepartie de Nice et la Savoie","«Թուրինի պայմանագիր. Ֆրանսիան վաճառում է Սարդինիան ՝ Նիցցայի և Սավոյի դիմաց»"
"Moyen-âge","Août 843","hard","Traité de Verdun sur le partage de l’empire entre les trois frères","«Վերդունի պայմանագիրը կայսրության բաժանման մասին երեք եղբայրների միջև»"
"moderne","1 mai 1756","hard","Traité de Versailles scellant l’alliance de la France à l’Autriche contre la Prusse et l’Angleterre","«Վերսալի պայմանագիրը_ որը կնքում է Ֆրանսիայի դաշինքը Ավստրիային Պրուսիայի և Անգլիայի դեմ»"
"moderne","2 mai 1598","hard","Traité de Vervins entre Henri IV et Philippe II d’Espagne","«Վերվինսի պայմանագիր Իսպանիայի Հենրի IV- ի և Ֆիլիպ II- ի միջև»"
"moderne","18 novembre 1738","hard","Traité de Vienne mettant fin à la guerre de succession de Pologne","«Վիեննայի պայմանագիրը վերջ դնում է Լեհաստանի իրավահաջորդության պատերազմին»"
"moderne","3 avril 1559","hard","Traité du Cateau-Cambresis mettant fin à la guerre entre la France d’un côté et l'Espagne et le Saint-Empire romain germanique de l’autre","«Կատա-Կամբրեսի պայմանագիրը_ որը ավարտում է Ֆրանսիայի միջև մի կողմից պատերազմը_ իսկ մյուս կողմից` Իսպանիայի և Սուրբ Հռոմեական կայսրության միջև »"
"moderne","24 août 1774","hard","Turgot_ contrôleur général des finances_ lance une réforme économique libérale","«Տուրգոտը_ Ֆինանսների գլխավոր վերահսկողը_ սկսում է լիբերալ տնտեսական բարեփոխումները»"
"contemporaine","7 mai 1915","hard","Un sous-marin allemand coule le Lusitania (1 198† dont 128 américains) au sud-est de l’Irlande","«Գերմանական սուզանավը խորտակում է Լուսինիան (1_198 † ներառյալ 128 ԱՄՆ) Իռլանդիայի հարավ-արևելք»"
"Moyen-âge",719,"hard","Victoire de Charles Martel à Néry contre les troupes de Neustrie","«Չարլզ Մարտելի հաղթանակը Ներիում Նեուստրիի զորքերի դեմ»"
"Moyen-âge",507,"hard","Victoire de Clovis contre les Wisigoths","«Կլովիսի հաղթանակը վիշիգոթների դեմ»"
"moderne","20 septembre 1792","hard","Victoire de Dumouriez et Kellerman contre les Prussiens à Valmy","«Դումուրիեսի և Կելերմանի հաղթանակը Վալմիում պռուսացիների դեմ»"
"moderne","20 octobre 1587","hard","Victoire de Henri de Navarre à Coutras sur la Ligue","«Հենրի դե Նավարեի հաղթանակը Լիգայի Կոտրասում»"
"moderne","14 mars 1590","hard","Victoire de Henri IV à Ivry contre la ligue","«Հենրի IV- ի հաղթանակը Իվրիին ընդդեմ լիգայի»"
"moderne","20 septembre 1589","hard","Victoire de Henri IV sur la Ligue à Arques","«Հենրի IV- ի հաղթանակը Արգայի լիգայում»"
"moderne","15 juin 1595","hard","Victoire de Henri IV sur les Espagnols à Fontaine-Française","«Հենրի IV- ի հաղթանակը իսպանացիների վրա Fontaine-Française»"
"contemporaine","3 juillet 1830","hard","Victoire de la gauche aux élections législatives","«Ձախերի հաղթանակը օրենսդրական ընտրություններում»"
"contemporaine","14 octobre 1806","hard","Victoire de Napoléon à Iéna et à Auerstadt","«Նապոլեոնի հաղթանակը enaենային և Ավստրադին»"
"contemporaine","14 juin 1807","hard","Victoire de Napoléon contre les Russes à Friedland","«Նապոլեոնի հաղթանակը ռուսների դեմ Ֆրիդլենդում»"
"Moyen-âge","27 juillet 1214","hard","Victoire de Philippe Auguste à Bouvines sur la coalition Boulogne-Flandre-Othon","«Ֆիլիպ Օգոստեի հաղթանակը Բոուվինսին ՝ Բուլոգեն-Ֆլանդրիա-Օթոն կոալիցիային»"
"Moyen-âge","12 septembre 1213","hard","Victoire des armées catholiques contre le comte de Toulouse et le roi d’Aragon lors de la bataille du Muret","«Կաթոլիկ բանակների հաղթանակը ընդդեմ Թուլուզի և Արագոնի թագավորի հաշվարկի ՝ Մուրիտի ճակատամարտում»"
"contemporaine","13 mai 1849","hard","Victoire des monarchistes aux élections législatives","«Միապետների հաղթանակը օրենսդրական ընտրություններում»"
"contemporaine","5 mars 1876","hard","Victoire des républicains aux élections législatives (III République)","«Հաղթանակի հանրապետականները օրենսդրական ընտրություններում (III հանրապետություն)»"
"contemporaine","28 octobre 1877","hard","Victoire des républicains aux élections législatives (III République)","«Հաղթանակի հանրապետականները օրենսդրական ընտրություններում (III հանրապետություն)»"
"Moyen-âge",1047,"hard","Victoire des troupes de Guillaume et Henri Ier contre les barons rebelles à Val-les-Dunes","«Գիլյայի և Հենրի I- ի զորքերի հաղթանակը Վալ-լե-Դանես քաղաքում ապստամբ բարոնների դեմ»"
"contemporaine","30 novembre 1919","hard","Victoire du Bloc national aux élections législatives (Chambre Bleu Horizon)","«Ազգային դաշինքի հաղթանակը օրենսդրական ընտրություններում (Կապույտ հորիզոնի պալատ)»"
"contemporaine","8 janvier 1961","hard","Victoire du oui au référendum sur l’autodétermination en Algérie","«Այո-ի հաղթանակը Ալժիրում ինքնորոշման հանրաքվեում»"
"Moyen-âge","21 juillet 1242","hard","Victoire sur Henri III (roi d’Angleterre) et les Poitevins à Taillebourg et à Saintes","«Հաղթանակ Հենրի III- ի (Անգլիայի թագավոր) և Պոիդվինների նկատմամբ Թեյլբուրգում և Սենեսում»"
"contemporaine","15 mars 1850","hard","Vote de la loi Falloux confiant l’enseignement à l’église","«Քվեարկեք Falloux- ի օրենքին_ որը եկեղեցուն ուսուցում է վստահում»"
"contemporaine","21-25 avril 1961","medium","« Putsch des généraux » à Alger_ tentative de coup d’État"," Գեներալների նետումը Ալժիրում_ հեղաշրջման փորձ"
"contemporaine","18 mars 1962","medium","Accords d’Évian mettant fin à la guerre d’Algérie","«Էվիան համաձայնագիր է տալիս Ալժիրի պատերազմը»"
"contemporaine","19 décembre 1974","medium","Adoption du projet de loi sur l’Interruption Volontaire de Grossesse (IVG) pour une durée probatoire de 5 ans","«Հղիության կամավոր ընդհատման մասին օրինագծի ընդունումը ՝ 5 տարի փորձաշրջանով»"
"contemporaine","28 décembre 1967","medium","Adoption par l’assemblée de la Loi Neuwirth légalisant la contraception","«Neuwirth օրենքի ժողովի կողմից ընդունումը_ որը օրինականացնում է հակաբեղմնավորումը»"
"Moyen-âge",796,"medium","Aix-la-Chapelle est choisie pour capitale","«Աախենը ընտրվում է մայրաքաղաքի համար»"
"Moyen-âge",788,"medium","Annexion de la Bavière","«Բավարիայի հավելում»"
"contemporaine","18 juin 1940","medium","Appel à la résistance du général De Gaulle réfugié à Londres","«Ընդդիմության կոչ Լոնդոնում գտնվող գեներալ դե Գոլի փախստականներին»"
"contemporaine","17 juin 1940","medium","Appel radiophonique du maréchal Pétain à cesser le combat","«Մարշալ Պետեյնի ռադիոկայանը պայքարը դադարեցնելու մասին»"
"contemporaine","2 juin 1793","medium","Arrestation des chefs girondins","«Գիրոնդինի առաջնորդների ձերբակալությունը»"
"contemporaine","15 octobre 1894","medium","Arrestation du capitaine Dreyfus soupçonné d’espionnage (l’affaire Dreyfus)","«Կապիտան Դրեյֆուսի ձերբակալությունը լրտեսության մեջ կասկածվողի համար (Դրեյֆուսի գործը)»"
"moderne","2 août 1589","medium","Assassinat d’Henri III_ Henri de Navarre lui succède","«Հենրի III- ի սպանությունը_ Նավարի Հենին հաջողեց նրան»"
"contemporaine","24 juin 1894","medium","Assassinat du président Sadi Carnot par Santo Caserio_ anarchiste italien à Lyon","«Նախագահ Սադի Կարնոտի սպանությունը Լիոնում իտալացի անարխիստ Սանտո Կասերիոյի կողմից»"
"contemporaine","14 janvier 1858","medium","Attentat d’Orsini contre l’empereur (8†)","«Օրսինի հարձակումը կայսեր դեմ (8 †)»"
"contemporaine","22 août 1962","medium","Attentat manqué de l’OAS (Organisation armée secrète_ pour une Algérie française) contre De Gaulle au Petit-Clamart","«Missed Attack of the OAS (Secret Army Organisation_ Ֆրանսիական Ալժիրի համար) Դե Գոլի դեմ Petit-Clamart- ում»"
"contemporaine","2 septembre 1870","medium","Capitulation de Napoléon III à Sedan qui devient prisonnier","«Նապոլեոն III- ի կապիտուլյացիան Սեդանում_ որը դառնում է բանտարկյալ»"
"Moyen-âge",806,"medium","Charlemagne partage son royaume entre ses trois fils Charles_ Louis (Aquitaine) et Pépin (Lombardie)","«Շառլամենը իր թագավորությունը կիսում է իր երեք որդիների ՝ Չարլզի_ Լուիի (Ակվիտա) և Պեպինի (Լոմբարդիա) միջև»:"
"Moyen-âge","Novembre 887","medium","Charles II est déposé et enfermé dans une abbaye","«Շառլ II- ը պահվում և փակվում է աբբայության մեջ»"
"Moyen-âge",716,"medium","Charles Martel devient maire du palais (plus hauts dignitaires_ après les rois_ des royaumes francs) d’Austrasie","«Շառլ Մարթելը դառնում է Ավստրալիայի պալատի (բարձրագույն պատվավոր պաշտոնյաների_ թագավորներից_ ֆրանկյան թագավորություններից հետո) քաղաքապետ»"
"contemporaine","1 août 1908","medium","Clémenceau ordonne l’arrestation de syndicalistes CGT","«Քլեմենսոն հրամայում է ձերբակալել CGT արհմիությունների ձեռբակալությանը»"
"moderne","10 septembre 1567","medium","Condé et Coligny attaquent Paris_ 2eme guerre de religion","«Քոնդեն և Քոլինջը հարձակվում են Փարիզի վրա ՝ կրոնի 2-րդ պատերազմ»"
"Moyen-âge",1204,"medium","Conquête de la Normandie par Philippe Auguste","«Ֆիլիպ Օգոստեի կողմից Նորմանդիայի նվաճումը»"
"contemporaine","8 août 1829","medium","Constitution du gouvernement Polignac (ultra-royaliste)","«Կառավարության սահմանադրություն Polignac (ծայրահեղ արքայական)»"
"contemporaine","2 décembre 1851","medium","Coup d’État de Louis-Napoléon Bonaparte prolongeant son mandat pour 10 ans","«Լուի-Նապոլեոն Բոնապարտի հեղաշրջումը 10 տարով երկարացնում է իր մանդատը»"
"contemporaine","3 octobre 1940","medium","Création d’un statut pour les Juifs en France leur interdisant un certain nombre de fonctions","«Ֆրանսիայում հրեաների համար կարգավիճակի ստեղծում_ որը արգելում է մի շարք գործառույթներ»"
"contemporaine","28 mars 1803","medium","Création du Franc germinal (monnaie)","«Ստեղծում է Germinal Franc (արժույթ)»"
"contemporaine","10 mars 1793","medium","Création du Tribunal Révolutionnaire","«Հեղափոխական տրիբունալի ստեղծում»"
"contemporaine","14 janvier 1963","medium","De Gaulle s’oppose à l’entrée de la Grande Bretagne au sein du marché commun","«Դե Գոլը դեմ է Մեծ Բրիտանիայի մուտքը ընդհանուր շուկա»"
"contemporaine","8 novembre 1942","medium","Débarquement allié en Afrique du nord (opération Torch)","«Դաշնակից վայրէջքները Հյուսիսային Աֆրիկայում (ջահերի գործողություն)»"
"contemporaine","1 novembre 1954","medium","Début de l’insurrection algérienne dans le massif des Aurès","«Ալժիրյան ապստամբության սկիզբը Աուրեսի զանգվածում»"
"contemporaine","10 mars 1793","medium","Début de l’insurrection en Vendée","«Ապստամբության սկիզբը Վենդեում»"
"contemporaine","24-29 janvier 1960","medium","Début de la semaine des barricades à Alger contre l’autodétermination","«Ալժիրում բարիկադների շաբաթվա սկիզբը ընդդեմ ինքնորոշման»"
"Moyen-âge",885,"medium","Début du siège de Paris par les Normands","«Նորմանացիների կողմից Փարիզի պաշարման սկիզբը»"
"moderne","8 mars 1759","medium","Décret du Conseil d’État interdisant l’Encyclopédie ou Dictionnaire raisonné des sciences_ des arts et des métiers est une encyclopédie française_ éditée sous la direction de Denis Diderot et_ partiellement_ de Jean Le Rond d'Alembert","«Պետական խորհրդի որոշումը_ որն արգելում է հանրագիտարանը կամ բառարանը հիմնավորված գիտությունները_ արվեստը և արհեստը_ ֆրանսիական հանրագիտարան է_ խմբագրվել է Դենիս Դիդերոտի և մասամբ Ժան Լե Ռոնդ դ’Ալեմբերտի ղեկավարությամբ»:"
"moderne","24 février 1525","medium","Défaite de Pavie_ François Ier est fait prisonnier","«Պավիայի պարտությունը_ Ֆրանցիսկ Առաջինը բանտարկվեց»"
"Moyen-âge","26 août 1346","medium","Défaite des armées françaises à Crécy face aux Anglais","«Հաղթեց Ֆրանսիական բանակները Քրեսիում անգլիացիների դեմ»"
"contemporaine","7 mai 1954","medium","Défaite française à Dien Biên Phû","«Ֆրանսիական պարտությունը Դիեն Բիեն Ֆուի մոտ»"
"contemporaine","20 janvier 1946","medium","Démission du général De Gaulle opposé au régime « des partis »","«Գեներալ Դե Գոլի հրաժարականը դեմ է« կուսակցությունների »ռեժիմին"
"contemporaine","13 juillet 1870","medium","Dépêche d’Ems de Bismarck_ est un imbroglio diplomatique (mauvaise lecture d’un télégramme)_ qui a servi de prétexte pour engager la guerre franco-allemande","«Էմս Բիսմարկի առաքումը դիվանագիտական իմբրոգլիո է (հեռագրի վատ ընթերցումը)_ որը առիթ հանդիսացավ ֆրանկո-գերմանական պատերազմը ներքաշելու համար»:"
"Moyen-âge","24 juin 1340","medium","Destruction de la flotte française lors de la bataille de l’Écluse (près de Bruges)","«Ֆրանսիական նավատորմի ոչնչացումը Կողպեքի ճակատամարտում (Բրյուգեի մոտակայքում)»"
"contemporaine","5 novembre 1827","medium","Dissolution de la Chambre des députés","«Պատգամավորների պալատի լուծարում»"
"contemporaine","15 mai 1991","medium","Édith Cresson est la première femme à devenir premier ministre","«Էդիթ Քրեսոնը առաջին կինն է_ ով դարձել է վարչապետ»"
"Moyen-âge","7 octobre 1337","medium","Édouard III d’Angleterre revendique le trône de France","«Անգլիայի Էդվարդ III- ը հավակնում է Ֆրանսիայի գահին»"
"contemporaine","19 décembre 1965","medium","Élection du général De Gaulle à la présidence de la république au second tour (55%) au suffrage universel","«Երկրորդ փուլում գեներալ Դե Գոլի ընտրությունը հանրապետության նախագահությանը (55%) համընդհանուր ընտրական իրավունքով»"
"contemporaine","3 mai 1814","medium","Entrée de Louis XVIII à Paris","«Լուի XVIII- ի մուտքը Փարիզ»"
"moderne","7-24 juin  1520","medium","Entrevue du Camp du Drap d’Or. François Ier rencontra Henri VIII d’Angleterre qui resta neutre Face à Charles Quint","«Հարցազրույց ճամբարի Drap dOr- ի հետ. Ֆրանցիսկոս I- ը հանդիպեց Անգլիայի Հենրի VIII- ին_ որը չեզոք մնաց Չարլզ V- ի առջև»:"
"contemporaine","7 juillet 1904","medium","Exclusion des congrégations de l’enseignement (Loi Combes)","«Կրթության միությունների բացառումը (համատեղում է օրենքը)»"
"contemporaine","25 avril 1905","medium","Fondation de la Section Française de l’Internationale Ouvrière (SFIO)","«Աշխատավորների միջազգային ֆրանսիական բաժնի հիմնադրում (SFIO)»"
"antique",-598,"medium","Fondation Marseille par les Grecs (Phocéens)","«Մարսել հիմնադրամ հույների (փյունիկացիների) կողմից»"
"Moyen-âge","25 décembre 1066","medium","Guillaume de Normandie est couronné roi d’Angleterre à Westminster","«Նորմանդիայի Ուիլյամը թագադրվում է Անգլիայի թագավոր Վեսթմինսթերում»"
"Moyen-âge","Mai 987","medium","Hugues Capet_ comte de Paris et d’Orléans est élu roi à Senlis par les Grands du Royaume","«Hugues Capet_ Count of Paris and Orleans- ը Սենիսում թագավոր ընտրվում են Թագավորության մեծերի կողմից»"
"contemporaine","24 août 1837","medium","Inauguration de la première voie de chemin de fer entre Paris et Orléans","«Փարիզի և Օռլեանի միջև երկաթուղային առաջին գծի երդմնակալությունը»"
"Moyen-âge",1309,"medium","Installation du pape Clément V en Avignon","«Հռոմի Պապ Կլեմենտ V- ի տեղադրումը Ավինյոնում»"
"Moyen-âge","19 septembre 1356","medium","Jean II est fait prisonnier par les Anglais lors de la défaite de Poitiers","«IIոն Երկրորդը անգլիացիների կողմից բանտարկվում է Պաիտյերսի պարտության ժամանակ»"
"Moyen-âge","23 mai 1430","medium","Jeanne d’Arc est capturée par les Bourguignons devant Compiègne","«Jeanne dArc- ը գերի է բուրգունդցիների կողմից Compiegne- ի դիմաց»"
"moderne","12 mai 1588","medium","Journée des barricades_ insurrection des Parisiens contre Henri III","«Բարիկադների օր. Փարիզեցիների ապստամբություն Անրի III- ի դեմ»"
"moderne","11 novembre 1630","medium","Journée des dupes_ le roi confirme Richelieu dans ses fonctions","«Դուպերի օր_ թագավորը հաստատում է Ռիշելյեին իր գործառույթներում»"
"contemporaine","5 juillet 1974","medium","L’âge de la majorité est abaissé à 18 ans","«Մեծամասնության տարիքը իջեցվում է մինչև 18 տարեկան»"
"moderne","20 avril 1792","medium","L’Assemblée législative déclare la guerre au roi de Bohême et de Hongrie","«Օրենսդիր ժողովը պատերազմ է հայտարարել Բոհեմիայի և Հունգարիայի թագավորի դեմ»"
"moderne","4 août 1789","medium","L’assemblée vote l’abolition des privilèges","«Վեհաժողովը քվեարկում է արտոնությունների վերացումը»"
"contemporaine","23 mai 1915","medium","L’Italie déclare la guerre à la l’Autriche-Hongrie","«Իտալիան պատերազմ է հայտարարել Ավստրիա-Հունգարիա»"
"contemporaine","17 septembre 1793","medium","La Convention adopte la Loi des suspects_  début de la terreur","«Կոնվենցիան ընդունում է կասկածյալների օրենքը_ ահաբեկչության սկիզբը»"
"moderne","10 juillet 1778","medium","La France déclare la guerre à l’Angleterre car elle cherche à récupérer de l'influence_ voire des territoires d'Amérique du Nord cédés à la Grande-Bretagne lors du traité de Paris de 1763. ","«Ֆրանսիան պատերազմ է հայտարարում Անգլիայի դեմ_ քանի որ այն փորձում է վերականգնել ազդեցությունը_ նույնիսկ Հյուսիսային Ամերիկայի տարածքները_ որոնք հանձնվել են Բրիտանիային 1763 թվականի Փարիզյան պայմանագրի ընթացքում»:"
"contemporaine","1 juillet 1966","medium","La France se retire du dispositif intégré de l’OTAN","«Ֆրանսիան դուրս է գալիս ՆԱՏՕ-ի ինտեգրված համակարգից»"
"moderne","27 décembre 1788","medium","Le Conseil royal décide de la double représentation du tiers-état","«Թագավորական խորհուրդը որոշում է կայացնում երրորդ պետության երկակի ներկայացուցչության մասին»"
"Moyen-âge","30 octobre 1422","medium","Le dauphin (héritier de la couronne) se proclame roi à Bourges","«Դելֆինը (թագի ժառանգը) իրեն թագավոր է հայտարարում Բուրգեսում»"
"contemporaine","13 mai 1958","medium","Le général Massu lance l’insurrection en Algérie et crée un comité de salut public et appelle de Gaulle","«Գեներալ Մասուն ապստամբություն է սկսում Ալժիրում և ստեղծում հասարակական անվտանգության հանձնաժողով և կոչ է անում Դե Գոլին»"
"contemporaine","26 mars 1918","medium","Le maréchal Foch est nommé généralissime des forces alliées","«Մարշալ Ֆոչը կոչվում է Դաշնակից ուժերի գեներալիսիմո»"
"contemporaine","24 mai 1873","medium","Le maréchal Mac-Mahon est élu président de la république","«Մարշալ Մակ-Մահոնն ընտրվել է Հանրապետության Նախագահ»"
"moderne","4 octobre 1511","medium","Le pape Jules II crée la Sainte Ligue contre la France. Excommunication de Louis XII","«Հռոմի Պապ Հուլիոս II- ը ստեղծում է Սուրբ լիգան ընդդեմ Ֆրանսիայի ՝ Լուի XII- ի արտահանձնումը»"
"moderne","16 juillet 1789","medium","Le roi ordonne le renvoi des troupes rassemblées autour de Paris et signe l'ordre de rappel  Necker_ qui tente de s’opposer à la confiscation des biens du clergé.","«Թագավորը հրամայում է աշխատանքից հեռացնել Փարիզի շուրջը հավաքված զորքերը և ստորագրում է հետ կանչման հրամանը ՝ Նեկերին_ ով փորձում է ընդդիմանալ հոգևորականների ունեցվածքի բռնագրավմանը»:"
"contemporaine","7 août 1913","medium","Le service militaire et porté à trois ans","«Զինվորական ծառայությունը և ավելացել է մինչև երեք տարի»"
"moderne","17 juin 1789","medium","Le Tiers-état se proclame assemblée nationale (490 pour et 90 contre)","«Երրորդ գույքն իրեն հռչակում է ազգային ժողով (490 կողմ և 90 դեմ)»:"
"contemporaine","13 février 1937","medium","Léon Blum annonce une pause dans les réformes","«Լեոն Բլումը հայտարարում է դադար դադարեցնելու բարեփոխումների մասին»"
"contemporaine","5 octobre 1944","medium","Les femmes acquièrent le droit de vote","«Կանայք ձեռք են բերում ընտրելու իրավունք»"
"moderne","30 septembre 1681","medium","Les français s’emparent de Strasbourg","«Ֆրանսիացիները գրավում են Ստրասբուրգը»"
"moderne","23 août 1568","medium","Les Protestants reprennent les armes_ début de la troisième guerre de religion","«Բողոքականները կրկին զենք են վերցնում ՝ սկսելով երրորդ կրոնական պատերազմը»"
"contemporaine","21 mars 1884","medium","Loi « Wladeck-Rousseau » reconnaissant le droit syndical","«Օրենքը» Wladeck-Rousseau- ը «ճանաչում է կազմակերպման իրավունքը»"
"contemporaine","28 juillet 1999","medium","Loi instituant la Couverture Maladie Universelle (CMU)","«Համաշխարհային առողջապահական ծածկույթ ստեղծելու մասին ակտ (CMU)»"
"contemporaine","1 juillet 1901","medium","Loi sur les associations à but non lucratif","«Օրենք շահույթ չհետապնդող միավորումների մասին»"
"moderne","1er novembre 1511","medium","Louis XII réunit un concile à Pise qui suspend Jules II (pape)","«Լուի XII- ը Պիզայում մի խորհուրդ է գումարում_ որը կասեցնում է Հուլիոս II- ը (Պապ)»"
"moderne","7 septembre 1651","medium","Louis XIV est officiellement reconnu majeur","«Լուի XIV- ը պաշտոնապես ճանաչվեց մայոր»"
"moderne","17 juillet 1789","medium","Louis XVI reçoit de La Fayette la cocarde tricolore à l’hôtel de ville","«Լուի XVI- ը Լա Ֆայեթից ստանում է եռագույն կոկադը քաղաքապետարանում»"
"contemporaine","24 février 1848","medium","Louis-Philippe abdique en faveur de son petit-fils_ le comte de Paris_ ce que la chambre refuse","«Լուի-Ֆիլիպը առևանգում է հօգուտ իր թոռան ՝ Փարիզի կոմսին_ այն_ ինչ սենյակը հրաժարվում է»"
"contemporaine","9 août 1830","medium","Louis-Philippe Ier devient roi des Français_ début de la monarchie de Juillet","«Լուի-Ֆիլիպ I- ը դառնում է ֆրանսիացիների թագավոր ՝ հուլիսյան միապետության սկիզբը»"
"contemporaine","17 février 1864","medium","Manifeste des soixante proclamant le besoin de représentation des ouvriers","«Վաթսունյակի մանիֆեստ_ որը հայտարարում է աշխատողների ներկայացուցչության անհրաժեշտության մասին»"
"Moyen-âge","28 janvier 814 ","medium","Mort de Charlemagne à Aix-la-Chapelle_ son fils Louis lui succède","«Մահացավ Շարլամագը Aix-la-Chapelle- ում_ նրա որդին ՝ Louis- ը_ նրան հաջողեց»"
"moderne","10 juin 1584","medium","Mort de François d’Anjou_ Henri de Navarre devient héritier du trône de France","«Ֆրանսուա դԱնուի մահը ՝ Հենրի Նավարը դառնում է Ֆրանսիայի գահի ժառանգորդ»"
"moderne","1 septembre 1715","medium","Mort de Louis XIV_ son arrière-petit-fils Louis_ lui succède","«Մահացավ Լուի XIV- ը_ նրա թոռնուհի Լուիը_ նրան հաջողություն է ունենում»"
"moderne","4 décembre 1642","medium","Mort de Richelieu_ le cardinal Mazarin le remplace","«Մահացավ Ռիշելիեի_ կարդինալ Մազարինը փոխարինեց նրան»"
"antique","Janvier 395","medium","Mort de Théodose_ l’empire romain est désormais séparé entre Orient et Occident","«Մահացավ Թեոդոսիոսի_ Հռոմեական կայսրությունն այժմ բաժանված է Արևելքի և Արևմուտքի միջև»"
"contemporaine","4 avril 1814","medium","Napoléon abdique à Fontainebleau sans conditions","«Նապոլեոնը առանց պայմանների առևանգում է Ֆոնտենեբալոյին»"
"contemporaine","6 juillet 1809","medium","Napoléon fait arrêter le pape_ et remporte la victoire contre l’Autriche à Wagram","«Նապոլեոնը խանգարում է Պապին և հաղթում է Ավստրիայի դեմ Ուոգրամում»"
"contemporaine","20 mars 1815","medium","Napoléon retourne en France et entre à Paris","«Նապոլեոնը վերադառնում է Ֆրանսիա և մտնում Փարիզ»"
"contemporaine","1 mars 1815","medium","Napoléon s’évade de l’île d’Elbe et débarque à Golfe-Juan (Provence)","«Նապոլեոնը փախչում է Էլբա կղզուց և ժամանում Գոլֆ-Խուան (Պրովանս)»"
"moderne","27 octobre 1614","medium","Ouverture des États Généraux (assemblée extraordinaire réunissant les trois ordres (les états) de la société : la noblesse_ le clergé et le tiers état (le reste))_ avec pour objectif d’affermir le nouveau pouvoir royal face aux manœuvres des grands féodaux","«Ընդհանուր նահանգների բացումը (արտահերթ ժողով_ որը միավորում է հասարակության երեք կարգերը (պետությունները). Ազնվականությունը_ հոգևորականը և երրորդ պետությունը (մնացածը)) ՝ նպատակ ունենալով համախմբել նոր արքայական իշխանությունը ՝ ընդդեմ մեծի զորավարժություններին ֆեոդալական »"
"moderne","5 mai 1789","medium","Ouverture des États Généraux à Versailles","«Վերսալում ընդհանուր պետությունների բացում»"
"moderne","19 mars 1563","medium","Paix d’Amboise accordant liberté de culte et de conscience aux Protestants chez eux","Amboise- ի խաղաղությունը` բողոքականներին տանը պաշտպանելու և խղճի ազատություն շնորհելու համար "
"Moyen-âge","24 octobre 1360","medium","Paix de Calais_ ratification du traité de Brétigny (trève de 9 ans dans la guerre de cent ans)","«Կալեսի խաղաղություն_ Բրետինյան պայմանագրի վավերացում (հրադադարը 9 տարի հարյուր տարվա պատերազմում)»"
"moderne","23 mars 1568","medium","Paix de Longjumeau mettant fin à la 2eme guerre de religion en confirmant l’édit d’Amboise","Longjumeau- ի Խաղաղությունը ավարտում է կրոնի 2-րդ պատերազմը` հաստատելով Amboise- ի հրովարտակը "
"moderne","8 août 1570","medium","Paix de Saint-Germain mettant fin à la 3eme guerre de religion et accordant des places fortes aux Protestants","«Սուրբ Germերմենի խաղաղությունը_ որը ավարտում է կրոնի երրորդ պատերազմը և բողոքականներին ամրոցներ շնորհում»"
"moderne","29 novembre  1516","medium","Paix perpétuelle entre François Ier et les cantons suisses","«Հավերժական խաղաղություն Ֆրանցիսկ I- ի և Շվեյցարիայի կանտոնների միջև»"
"Moyen-âge",751,"medium","Pépin est élu roi à Soissons par une assemblée de nobles et d’évêques","«Պեպինը Սոիսոնում թագավոր է ընտրվում ազնվականների և եպիսկոպոսների ժողովի կողմից»"
"contemporaine","10 juillet 1940","medium","Pétain abroge la constitution de la IIIeme République et devient chef de l’état","«Պետեյնը վերացնում է Երրորդ հանրապետության սահմանադրությունը և դառնում պետության ղեկավար»"
"Moyen-âge","Mars 845","medium","Pillage de Paris par les Normands_ Charles paye une rançon contre leur départ","«Նորմանացիների կողմից Փարիզի ջարդերը_ Չարլզը փրկագին է վճարում նրանց հեռանալու դեմ»"
"contemporaine","23 juillet 1926","medium","Poincaré prend la tête d’un gouvernement d’union nationale","«Poincaré- ն ստանձնում է ազգային միասնության կառավարության ղեկավարը»"
"contemporaine","10 février 1998","medium","Première loi Aubry sur les 35 heures (35 heures de travail)","«Առաջին օրենքը Aubry- ին 35 ժամվա ընթացքում (35 ժամ աշխատանք)»"
"antique",286,"medium","Premières incursions des Burgondes en Gaule","«Բուրգունդցիների առաջին արշավանքները Գաուլում»"
"antique",253,"medium","Premières incursions des Francs en Gaule","«Ֆրանկների առաջին արշավանքները Գաուլում»"
"contemporaine","5 juillet 1830","medium","Prise d’Alger par les troupes françaises_ exil du dey (le dey d’Alger est le titre des souverains de la régence d'Alger sous l'autorité nominale de l'Empire ottoman)","«Ֆրանսիական զորքերի կողմից Ալժիրների գրավումը_ աքսորի դերը (Ալժիրների դին Օսմանյան կայսրության անվանական հեղինակության ներքո Ալժիրների ռեգիստրների գերիշխանության կոչումն է)»:"
"Moyen-âge","4 août 1347","medium","Prise de Calais par Édouard III d’Angleterre","«Անգլիայի Էդվարդ III- ի կողմից տարված կալան»"
"Moyen-âge","15 juillet 1099","medium","Prise de Jérusalem par les croisés qui vont se livrer au pillage et au massacre de la population","«Երուսաղեմը խաչակիրների կողմից վերցնելը_ որոնք կզբաղվեն բնակչության թալանով և ջարդերով»"
"moderne","10 août 1792","medium","Prise du Palais des Tuileries (600† parmi les gardes suisses et 100† parmi le peuple)","«Tuileries Palace- ի գրավումը (600 † շվեյցարացի պահակախմբերի շրջանում և 100 † ժողովրդի մեջ)»"
"contemporaine","27 février 1998","medium","Publication de la liste de onze pays répondant aux critères économiques en vue de l’instauration de l’Euro","«Եվրոյի կայացման տնտեսական չափանիշները բավարարող տասնմեկ երկրների ցանկի հրապարակումը»"
"contemporaine","1 juin 1958","medium","Rappelé par le président_ De Gaulle devient président du Conseil","«Նախագահը հիշեցնելով_ Դե Գոլը դառնում է խորհրդի նախագահ»"
"contemporaine","31 mai 1850","medium","Réforme électorale restreignant le suffrage universel_ amputant d’un tiers le corps électoral","«Ընտրական բարեփոխումները_ որոնք սահմանափակում են համընդհանուր ընտրությունը_ երրորդը կտրում են ընտրական մարմինը»"
"contemporaine","3 - 4 avril 2009","medium","Réintégration de la France dans le commandement intégré de l'OTAN","«Ֆրանսիայի վերամիավորումը ՆԱՏՕ-ի ինտեգրված հրամանատարությանը»"
"Moyen-âge",830,"medium","Révolte des grands du royaume contre Louis le Pieux","«Թագավորության մեծերի ապստամբությունը Լուի բարեպաշտի դեմ»"
"contemporaine","21 juillet 1954","medium","Signature des accords de Genève mettant fin à la guerre d’Indochine","«Ժնևյան համաձայնագրերի ստորագրությունը_ որը ավարտվում է Հնդկոկինյան պատերազմը»"
"contemporaine","15 juillet 1801","medium","Signature du Concordat_ ce dernier organise les rapports entre les différentes religions et l’État dans toute la France","«Ստորագրում Concordat. Վերջինս կազմակերպում է տարբեր կրոնների և պետության միջև փոխհարաբերությունները Ֆրանսիայի ողջ տարածքում»"
"contemporaine","28 juin 1919","medium","Signature du traité de Versailles où la France obtient l’Alsace-Lorraine_ des indemnités et occupe la rive gauche du Rhin","«Վերսալյան պայմանագրի ստորագրությունը_ որտեղ Ֆրանսիան ստանում է Ալսասե-Լորան_ փոխհատուցում և գրավում է Ռայնի ձախ ափը»"
"moderne","3 août 1529","medium","Traité de Cambrai (Paix des Dames). François Ier conserve la Bourgogne et verse une rançon pour récupérer ses fils","«Կամբրայի պայմանագիր (Տիկնայք խաղաղություն).« Ֆրանցիսկ I- ը պահպանում է Բուրգունդը և փրկագին է վճարում իր որդիներին վերականգնելու համար »"
"moderne","15 janvier 1552","medium","Traité de Chambord entre Henri II et les princes allemands contre Charles Quint","«Չամբորդի պայմանագիրը Հենրի II- ի և գերմանացի իշխանների միջև ՝ ընդդեմ Շառլ Վ»"
"moderne","6 février 1778","medium","Traité de commerce et d’alliance entre la France et les États-Unis","«Ֆրանսիայի և Միացյալ Նահանգների միջև առևտրի և դաշինքի պայմանագիրը»"
"Moyen-âge","21 mai 1420","medium","Traité de Troyes entre Philippe le Bon_ Charles VI et Henri V. Le dauphin (héritier de la couronne) perd le trône de France","«Տրոյեսի պայմանագիրը Ֆիլիպ Լավի_ Չարլզ VI- ի և Հենրի Վ.-ի միջև: Դելֆինը (թագի ժառանգ) կորցնում է Ֆրանսիայի գահը»"
"moderne","24 octobre 1648","medium","Traité de Westphalie_ il met fin à la guerre de trente ans avec l’Espagne","«Վեստֆալիայի պայմանագիրը_ այն վերջ է տալիս Իսպանիայի հետ երեսուն տարվա պատերազմին»"
"contemporaine","12 mai 1881","medium","Traité du Bardo_ la Tunisie devient protectorat français","«Բարդոյի պայմանագիրը_ Թունիսը դառնում է Ֆրանսիայի պաշտպանությունը»"
"Moyen-âge","27 novembre 1095","medium","Urbain II prêche la première croisade lors du concile de Clermont","«Urban II- ը Քլերմոնտի Խորհրդում քարոզում է առաջին խաչակրաց արշավանքը»"
"antique",-53,"medium","Victoire de Jules César contre les Belges_  fin de la ‘Guerre des Gaules’","«Հուլիոս Կեսարի հաղթանակը բելգիացիների դեմ_ գալիք պատերազմների ավարտը»"
"antique",-58,"medium","Victoire de Jules César contre les Helvètes_ début de la ‘Guerre des Gaules’","«Հուլիոս Կեսարի հաղթանակը Հելվետիի դեմ ՝ գալիք պատերազմների սկիզբը»"
"contemporaine","8 février 1807","medium","Victoire de Napoléon contre les Russes à Eylau","«Նապոլեոնի հաղթանակը ռուսների դեմ Էյլաուում»"
