"period","date","level","fact_fr","fact_en"
"contemporaine","18 septembre 1981","easy","Abolition de la peine de mort","Abolition of the death penalty"
"moderne","26 août 1789","easy","Adoption de la déclaration des droits de l’Homme et du citoyen","Adoption of the Declaration of the Rights of Man and the Citizen"
"contemporaine","14 janvier 1930","easy","Adoption de la loi Maginot instaurant une ligne de défense","Adoption of the law Maginot establishing a line of defense"
"contemporaine","13 octobre 1946","easy","Adoption de la nouvelle constitution (IVeme république) par référendum","Adoption of the new constitution (Fourth Republic) by referendum"
"contemporaine","28 septembre 1958","easy","Approbation de la constitution de la Veme république par référendum (79% de oui)","Approval of the constitution of the Fifth Republic by referendum (79% yes)"
"contemporaine","28 janvier 1871","easy","Armistice franco-allemand_ capitulation de Paris","Franco-German Armistice_ capitulation of Paris"
"moderne","21 juin 1791","easy","Arrestation de la famille royale à Varennes","Arrest of the royal family in Varennes"
"contemporaine","16-17 juillet 1942","easy","Arrestation de nombreux Juifs parisiens lors de la rafle du « Vel’ d’hiv »","Arrest of many Parisian Jews during the raid of Vel dhiv "
"Moyen-âge","13 octobre 1307","easy","Arrestation des Templiers en France","Arrest of the Templars in France"
"contemporaine","31 juillet 1914","easy","Assassinat à Paris de Jean Jaurès hostile à la guerre par R. Villain","Assassination in Paris of Jean Jaures hostile to the war by R. Villain"
"contemporaine","28 juin 1914","easy","Assassinat de l’archiduc François-Ferdinand d’Autriche à Sarajevo_ ce tragique évènement augmenta les tensions existantes","Assassination of Archduke Franz Ferdinand of Austria in Sarajevo_ this tragic event increased existing tensions"
"Moyen-âge","25 décembre 498","easy","Baptême de Clovis à Reims","Baptism of Clovis in Reims"
"contemporaine","11 novembre 1918","easy","Capitulation de l’Allemagne à Rethondes","Capitulation of Germany in Rethondes"
"moderne","5 et 6 octobre 1789","easy","Ces deux jours font partis des « grandes journées » de la Révolution française et ont abouti au retour définitif et contraint du roi Louis XVI et de sa famille à Paris_ « Journées d’octobre ». La foule envahit le château de Versailles","These two days are part of the great days of the French Revolution and have resulted in the final and forced return of King Louis XVI and his family in Paris_ Days of October. The crowd invades the Palace of Versailles"
"Moyen-âge","25 décembre 800","easy","Charlemagne est couronné empereur de l’empire des Romains à Rome par le pape Léon III","Charlemagne is crowned emperor of the Roman Empire in Rome by Pope Leo III"
"Moyen-âge",732,"easy","Charles Martel remporte la bataille à Poitiers contre les Musulmans mettant fin à l’invasion sarrasine en France","Charles Martel wins the battle in Poitiers against the Muslims ending the Saracen invasion in France"
"contemporaine","4 septembre 1870","easy","Chute du Second Empire. Proclamation de la République","Fall of the Second Empire_ Proclamation of the Republic"
"Moyen-âge",481,"easy","Clovis roi des Francs. Avènement de Clovis_ qui devient roi des Francs","Clovis king of the Franks_ the advent of Clovis_ who becomes king of the Franks"
"contemporaine","20 août 1857","easy","Condamnation de Baudelaire pour les « Fleurs du mal »","Condemnation of Baudelaire for the Flowers of Evil "
"contemporaine","18 mai 1804","easy","Constitution de l’An XII_ Napoléon devient empereur","Constitution of the Year XII_ Napoleon becomes Emperor"
"contemporaine","1 janvier 1958","easy","Création de la Communauté Économique Européenne (CEE)","Creation of the European Economic Community (EEC)"
"contemporaine","22 juillet 1940","easy","Création des Forces Françaises Libres (FFL)_ nom donné aux forces armées ralliées à la France libre sous l'égide du général de Gaulle","Creation of the Free French Forces (FFL)_ name given to the armed forces rallied to free France under the aegis of General de Gaulle"
"contemporaine",2015,"easy","Crise migratoire_ plus d’un million de migrants sont arrivés cette année-là en Europe","Migration crisis_ more than a million migrants arrived that year in Europe"
"contemporaine","21 décembre 1958","easy","De Gaulle devient président de la République","De Gaulle becomes President of the Republic"
"contemporaine","2 juin 1958","easy","De Gaulle obtient les pleins pouvoirs constitutionnels","De Gaulle obtains the full constitutional powers"
"contemporaine","6 juin 1944","easy","Débarquement allié en Normandie (opération Overlord)","Allied landing in Normandy (Operation Overlord)"
"contemporaine","27 juillet 1830","easy","Début de l’insurrection à Paris (Les Trois Glorieuses)_ la révolution de Juillet est la deuxième révolution française","Beginning of the insurrection in Paris (The Three Glorious)_ the revolution of July is the second French revolution"
"contemporaine","21 février 1916","easy","Début de l’offensive allemande sur Verdun","Beginning of the German offensive on Verdun"
"contemporaine","7 novembre 1917","easy","Début de la « Révolution d’octobre » en Russie_ un mois après l'Armistice de Brest-Litovsk entre la Russie et l’Allemagne est conclue","Beginning of the October Revolution in Russia_ one month after the Armistice of Brest-Litovsk between Russia and Germany is concluded"
"contemporaine","6-13 septembre 1914","easy","Début de la bataille de la Marne","Beginning of the Battle of the Marne"
"contemporaine","6 mai 1968","easy","Début des manifestations d'étudiants_ ainsi que des grèves générales et sauvages_ plus connu sous le nom de Mai…","Beginning of student demonstrations_ as well as general and wild strikes_ better known as Mai ..."
"contemporaine","19 juillet 1870","easy","Déclaration de guerre à la Prusse","Declaration of war to Prussia"
"contemporaine","21 septembre 1792","easy","Déclaration de la république_  An I de la république","Declaration of the Republic_ Year I of the Republic"
"contemporaine","18 juin 1815","easy","Défaite de Napoléon à Waterloo","Defeat of Napoleon at Waterloo"
"contemporaine","25-29 nov. 1812","easy","Désastre de la Bérézina_ les troupes impériales en retraite subissent de grosse perte face une armée russe inférieure en nombre. Ce fait a tellement marqué la mémoire française_ que l’expression « C'est une Bérézina » est fréquemment utilisée pour caractériser une déroute sur le plan sportif ou électoral","Disaster of the Berezina_ the retreating imperial troops suffer a big loss in front of a Russian army inferior in number.This fact has so marked the French memory_ that the expression It is a Berezina is frequently used to characterize a defeat sporting or electoral "
"contemporaine","23 décembre 1973","easy","Doublement du prix du pétrole brut lors de la réunion de l’Opep à Téhéran_  début de la première crise pétrolière","Doubling the price of crude oil at the OPEC meeting in Tehran_ the beginning of the first oil crisis"
"moderne","18 octobre 1685","easy","Édit de Fontainebleau révoquant l’édit de Nantes","Edict of Fontainebleau Revoking the Edict of Nantes"
"moderne","13 avril 1598","easy","Édit de Nantes_ le catholicisme est religion d’état et le protestantisme minorité reconnue","Edict of Nantes_ Catholicism is state religion and Protestantism recognized minority"
"moderne","17 janvier 1562","easy","Édit de Saint-Germain réglementant l’exercice du culte protestant","Edict of Saint-Germain regulating the exercise of Protestant worship"
"moderne","Août 1539","easy","Édit de Villers-Cotterêts instituant le français comme langue officielle du royaume","Edict of Villers-Cotterêts establishing French as the official language of the kingdom"
"contemporaine","16 mai 2007","easy","Election de Nicolas Sarkozy à la présidence de la république","Election of Nicolas Sarkozy to the presidency of the republic"
"contemporaine","7 mai 2017","easy","Emmanuel Macron devient le 8e président de la République.","Emmanuel Macron becomes the 8th President of the Republic."
"contemporaine",2002,"easy","Entrée en vigueur de l’Euro (1er janvier). Jacques Chirac est réélu président","Entry into force of the Euro (1st January) Jacques Chirac is re-elected President"
"Moyen-âge","30 mai 1431","easy","Exécution de Jeanne d’Arc place du vieux marché à Rouen","Joan of Arc execution place of the old market in Rouen"
"contemporaine","16 octobre 1793","easy","Exécution de Marie-Antoinette","Execution of Marie Antoinette"
"contemporaine","21 janvier 1793","easy","Exécution du roi Louis XVI","Execution of King Louis XVI"
"contemporaine","28 juillet 1794","easy","Exécution sans jugement de Robespierre_ Saint-Just et leurs amis","Execution without judgment of Robespierre_ Saint-Just and their friends"
"antique","août 476","easy","Fin de l’empire romain d’Occident. Romulus Augustule est déposé_ marquant la fin de l’empire romain d’Occident","End of the Roman Empire of the West Romulus Augustule is deposited_ marking the end of the Western Roman Empire"
"antique",-43,"easy","Fondation de la colonie romaine de Lugdunum (Lyon)","Foundation of the Roman colony of Lugdunum (Lyon)"
"antique",-118,"easy","Fondation de Narbonne par les Romains","Foundation of Narbonne by the Romans"
"contemporaine","15 mai 2012","easy","François Hollande devient président de la république.","François Hollande becomes president of the republic."
"contemporaine","8 mai 1988","easy","François Mitterrand (54_01 %) est réélu président de la république devant Jacques Chirac","François Mitterrand (54_01%) is reelected president of the republic in front of Jacques Chirac"
"moderne","20 juin 1791","easy","Fuite de la famille royale","Escape from the royal family"
"contemporaine","15 juin 1969","easy","Georges Pompidou remporte les élections (58%) présidentielles devant Alain Poher","Georges Pompidou wins the presidential elections (58%) ahead of Alain Poher"
"Moyen-âge",1348,"easy","Grande Peste en France","Great Plague in France"
"moderne","13 juin 1576","easy","Henri de Navarre abjure le catholicisme et reprend la tête du parti protestant","Henri de Navarre abjure Catholicism and take the head of the Protestant party"
"moderne","25 juillet 1593","easy","Henri IV abjure le protestantisme et devient catholique. « Paris vaut bien une messe »","Henry IV abjure Protestantism and become a Catholic Paris is worth a Mass "
"contemporaine","7 mai 1995","easy","Jacques Chirac (52_64%) remporte au second tour les élections présidentielles","Jacques Chirac (52_64%) wins in the second round the presidential elections"
"Moyen-âge","8 mai 1429","easy","Jeanne d’Arc délivre Orléans","Joan of Arc delivers Orléans"
"contemporaine","3 août 1914","easy","L’Allemagne déclare la guerre à la France","Germany declares war on France"
"contemporaine","1 août 1914","easy","L’Allemagne déclare la guerre à la Russie","Germany declares war on Russia"
"contemporaine","4 août 1914","easy","L’Angleterre déclare la guerre à l’Allemagne suite à la violation de la neutralité belge","England declares war on Germany following the violation of Belgian neutrality"
"contemporaine","23 juin 1916","easy","L’offensive allemande sur Verdun est stoppée","The German offensive on Verdun is stopped"
"antique",-52,"easy","La bataille d’Alésia. Échec de l’insurrection des Gaules de Vercingétorix","The battle of Alesia_ failure of the insurrection of the Gauls of Vercingetorix"
"contemporaine","18 décembre 1916","easy","La bataille de Verdun s’achève sur une victoire française","The battle of Verdun ends with a French victory"
"Moyen-âge","19 octobre 1453","easy","La capitulation de Bordeaux marque la fin de la guerre de Cent Ans et le retour de la Guyenne (ancienne province_ située dans le sud-ouest de la France) sous domination française","The capitulation of Bordeaux marks the end of the Hundred Years War and the return of Guyenne (former province_ located in the south-west of France) under French domination"
"moderne","14 juillet 1789","easy","La foule s’empare de la Bastille et massacre De Launay_ son gouverneur (date de la fête nationale française)","The crowd seizes the Bastille and massacres De Launay_ its governor (date of the French national holiday)"
"contemporaine",2015,"easy","La France est la cible d’une série d’attentats_ revendiqués par des terroristes se disant islamistes","France is the target of a series of attacks_ claimed by terrorists calling themselves Islamists"
"contemporaine","3 septembre 1939","easy","La France et l’Angleterre déclarent la guerre à l’Allemagne (début de la Seconde Guerre Mondiale pour la France)","France and England declare war on Germany (beginning of the Second World War for France)"
"contemporaine","2 septembre 1939","easy","La France ordonne la mobilisation générale","France orders the general mobilization"
"contemporaine","28 avril 1969","easy","Le général De Gaulle annonce sa démission_ suite à l’échec du référendum sur la régionalisation du Sénat","General De Gaulle announces his resignation_ following the failure of the referendum on the regionalization of the Senate"
"contemporaine","10 juillet 1940","easy","Le Parlement accorde au maréchal Pétain les pleins pouvoirs (569 voix pour 80 contre et 17 absentions)","Parliament grants Marshal Pétain full powers (569 votes for 80 against and 17 abstentions)"
"contemporaine","21 juin 1981","easy","Le parti socialiste remporte les élections législatives suite à la dissolution","The Socialist Party wins the parliamentary elections following the dissolution"
"antique",-390,"easy","Le Sac de Rome. Les Gaulois de Brennus s’emparent de Rome après 7 mois de siège et se retire contre une forte rançon","The Sack of Rome: The Gauls of Brennus seize Rome after 7 months of siege and withdraw against a strong ransom"
"contemporaine","2007-2009","easy","Le traité de Lisbonne donne naissance à une nouvelle entité juridique : l’Union Européenne","The Treaty of Lisbon gives birth to a new legal entity: the European Union"
"Moyen-âge",711,"easy","Les Arabes débarquent en Espagne","Arabs land in Spain"
"Moyen-âge","10 avril 1302","easy","Les États Généraux confirme l’indépendance du roi face au pape","The States General confirms the independence of the king vis-a-vis the pope"
"contemporaine","2 avril 1917","easy","Les États-Unis déclarent la guerre à l’Allemagne","The United States declares war on Germany"
"Moyen-âge","24 juin  843","easy","Les Normands s’emparent de Nantes","The Normans seize Nantes"
"Moyen-âge","1 novembre 1337","easy","Lettre de défi d’Édouard III_ Début de la guerre de cent ans","Challenge Letter from Edward III_ Beginning of the Hundred Years War"
"contemporaine","25 août 1944","easy","Libération de Paris","Liberation of Paris"
"contemporaine","5 avril 1884","easy","Loi d’organisation municipale prévoyant le suffrage universel pour les élections","Municipal Organization Act Providing for Universal Election for Elections"
"contemporaine","16 juin 1881","easy","Loi Jules Ferry sur la gratuité de l’enseignement primaire","Jules Ferry law on free primary education"
"contemporaine","9 mars 1868","easy","Loi rétablissant la liberté de la presse","Act Restoring Freedom of the Press"
"contemporaine","29 juillet 1881","easy","Loi sur la liberté de la presse","Freedom of the Press Act"
"contemporaine","30 juin 1881","easy","Loi sur la liberté de réunion","Freedom of Assembly Act"
"contemporaine","10 juin 1794","easy","Lois de prairial sur le tribunal révolutionnaire_ début de la Grande Terreur","Laws of Prairial on the Revolutionary Tribunal_ Beginning of the Great Terror"
"Moyen-âge",817,"easy","Louis Ier proclame (Ordinatio imperii) son fils Lothaire empereur rompant avec la tradition Franque (Partage)","Louis I proclaims (Ordinatio imperii) his son Lothair emperor breaking with the tradition Franque (Partage)"
"contemporaine","10 décembre 1848","easy","Louis-Napoléon Bonaparte est élu président de la République (74_2%)","Louis-Napoleon Bonaparte is elected President of the Republic (74.2%)"
"moderne","24 août 1572","easy","Massacre de la Saint-Barthélemy_ mort de Coligny_ abjuration de Condé et de Henri de Navarre_ début du siège de La Rochelle et de la quatrième Guerre de religion","Massacre of St. Bartholomew_ death of Coligny_ abjuration of Condé and Henry of Navarre_ beginning of the siege of La Rochelle and the fourth War of religion"
"moderne","1 mars 1562","easy","Massacre des protestants à Wassy par le duc de Guise_ permière guerre de religion","Massacre of Protestants in Wassy by the Duke of Guise_ first religious war"
"Moyen-âge","24 septembre 768","easy","Mort de Pépin le bref à Saint-Denis_ son fils Charlemagne lui succède","Death of Pépin the brief in Saint-Denis_ his son Charlemagne succeeds him"
"contemporaine","18 septembre 1812","easy","Napoléon quitte Moscou en flammes_ début de la retraite de Russie","Napoleon leaves Moscow in flames_ early retirement from Russia"
"moderne","1 juillet 1573","easy","Paix de La Rochelle accordant liberté de conscience et de culte à La Rochelle_ Nîmes et Montauban","Peace of La Rochelle granting freedom of conscience and worship in La Rochelle_ Nîmes and Montauban"
"contemporaine","2 décembre 1852","easy","Proclamation du Second Empire","Proclamation of the Second Empire"
"contemporaine","4 mai 1848","easy","Proclamation officielle de la République par l’Assemblée","Official Proclamation of the Republic by the Assembly"
"contemporaine","21 mars 1804","easy","Promulgation du Code Civil","Promulgation of the Civil Code"
"contemporaine","20 septembre 1992","easy","Référendum sur le traité de Maastricht (51_04 % de oui)","Referendum on the Maastricht Treaty (51.04% yes)"
"contemporaine","2 décembre 1804","easy","Sacre de Napoléon en présence de Pie VII à Notre-Dame","Rite of Napoleon in the presence of Pius VII at Notre Dame"
"Moyen-âge","7 juillet 1438","easy","Sanction de Bourges de Charles VII affranchissant l’église de la tutelle du pape","Sanction of Bourges Charles VII enfranchising the church of the tutelage of the pope"
"moderne","20 juin 1789","easy","Serment du jeu de paume : l’Assemblée Nationale se proclame Assemblée Nationale Constituante","Oath of the game of palm: the National Assembly proclaims National Constituent Assembly"
"contemporaine","22 juin 1940","easy","Signature de l’armistice à Rethondes_  la moitié nord et les côtes atlantiques sont occupés par l’armée allemande","Signature of the armistice in Rethondes_ the northern half and the Atlantic coast are occupied by the German army"
"contemporaine","8-9 mai 1945","easy","Signature officielle de la capitulation allemande par le général Keitel à Berlin","Official signing of the German capitulation by General Keitel in Berlin"
"contemporaine","25 mai 1864","easy","Suppression du droit de coalition accordant ainsi le droit de grève","Suppression of the right of coalition thus granting the right to strike"
"contemporaine","31 août 1871","easy","Thiers est élu président de la république et l’assemblée nationale devient constituante","Thiers is elected president of the republic and the national assembly becomes constitutive"
"contemporaine","18 avril 1951","easy","Traité créant la Communauté Européenne du Charbon et de l’Acier (CECA)","Treaty establishing the European Coal and Steel Community (ECSC)"
"contemporaine","10 mai 1871","easy","Traité de Francfort instituant la paix avec l’Allemagne en contrepartie de l’Alsace_ la Lorraine et d’indemnités","Treaty of Frankfurt establishing peace with Germany in return for Alsace_ Lorraine and compensation"
"moderne"," 3 septembre 1783","easy","Traité franco-anglais de Versailles reconnaissant l’indépendance des États-unis","Franco-English Treaty of Versailles recognizing the independence of the United States"
"contemporaine","19 mai 1974","easy","Valéry Giscard-d’Estaing (50_71%) remporte les élections présidentielles devant François Mitterrand","Valéry Giscard-dEstaing (50.71%) wins the presidential elections ahead of François Mitterrand"
"moderne","14 septembre 1515","easy","Victoire de François Ier à Marignan","Victory of Francis I in Marignan"
"contemporaine","10 mai 1981","easy","Victoire de François Mitterrand (51_75%) aux élections présidentielles devant Valéry Giscard-d’Estaing","Victory of François Mitterrand (51_75%) in the presidential elections in front of Valéry Giscard-dEstaing"
"contemporaine","2 décembre 1805","easy","Victoire de Napoléon à Austerlitz contre les Russes et les Autrichiens","Victory of Napoleon at Austerlitz against the Russians and Austrians"
"Moyen-âge",759,"easy","Victoire de Pépin le Bref près de Narbonne contre les Arabes qui replient en Espagne","Victory of Pepin the Short near Narbonne against the Arabs who fold in Spain"
"contemporaine","24 mai 1869","easy","Victoire républicaine aux élections législatives","Republican victory in the parliamentary elections"
"Moyen-âge",639,"hard","« Début du règne des maires du palais ». Les maires du palais étaient les plus hauts dignitaires_ après les rois_ des royaumes francs qui couvraient alors l'essentiel de la France_ l'Allemagne et le Benelux actuels."," Beginning of the reign of mayors of the palace. The mayors of the palace were the highest dignitaries_ after the kings_ of the Frankish kingdoms which then covered most of France_ Germany and the Benelux current."
"contemporaine","21 octobre 1945","hard","Abolition de la constitution de la IIIe République et élection d’une assemblée constituante","Abolition of the constitution of the Third Republic and election of a constituent assembly"
"contemporaine","7 juin 1936","hard","Accords de Matignon entre patronat et syndicats","Matignon agreements between employers and unions"
"contemporaine","25 juin 1928","hard","Adoption d’une loi monétaire dévaluant le franc marquant l’abandon du franc germinal","Adoption of a monetary law devaluing the franc marking the abandonment of the franc germinal"
"moderne","12 juillet 1790","hard","Adoption de la Constitution civile du clergé","Adoption of the Civil Constitution of the Clergy"
"contemporaine","2 juillet 1914","hard","Adoption de la loi Caillaux sur l’impôt sur le revenu","Adoption of the law Caillaux on the income tax"
"contemporaine","26 octobre 1981","hard","Adoption de la loi sur les nationalisations","Adoption of the law on nationalization"
"contemporaine","27 septembre 1981","hard","Adoption du projet d’impôt sur la fortune","Adoption of the Wealth Tax Project"
"contemporaine","28 janvier 1982","hard","Adoption du projet de loi sur la décentralisation","Adoption of the draft law on decentralization"
"contemporaine","2 octobre 1981","hard","Adoption du projet de loi sur les radios libres","Adoption of the bill on free radios"
"contemporaine","24 septembre 2000","hard","Adoption du quinquennat (la présidence dure 5 années) (73_24%) lors d’un référendum marqué par l’abstention (68%)","Adoption of the quinquennium (the presidency lasts 5 years) (73.24%) in a referendum marked by abstention (68%)"
"antique","Juin 451","hard","Aetius bat les Huns sur les Champs Catalauniques près de Troyes","Aetius beats the Huns on the Catalan fields near Troyes"
"Moyen-âge","2 décembre 1419","hard","Alliance entre Philippe le Bon_ duc de Bourgogne et Henri V d’Angleterre","Alliance between Philip the Good_ Duke of Burgundy and Henry V of England"
"contemporaine","30 janvier 1875","hard","Amendement Wallon instituant la république","Walloon amendment instituting the republic"
"Moyen-âge",774,"hard","Annexion de la Lombardie","Annexation of Lombardy"
"moderne","5 septembre 1661","hard","Arrestation de Fouquet à Nantes_ accusé de détournement de fonds","Arrest of Fouquet in Nantes_ accused of embezzlement"
"Moyen-âge","31 juillet  1451","hard","Arrestation de Jacques Cœur accusé de conspiration et malversation","Arrest of Jacques Coeur accused of conspiracy and wrongdoing"
"contemporaine","30-31 mars 1794","hard","Arrestation des chefs des Indulgents (Danton_ Desmoulins_ Delacroix_ Philippeaux_ Westerman…) 1794 5 avril Condamnation et exécution de Danton_ Desmoulins_ Fabre d’Eglantine et des Indulgents","Arrest of the leaders of the Indulgents (Danton_ Desmoulins_ Delacroix_ Philippeaux_ Westerman ...) 1794 April 5 Conviction and execution of Danton_ Desmoulins_ Fabre of Eglantine and the Indulgents"
"Moyen-âge",584,"hard","Assassinat de Chilpéric (Neustrie) sur ordre de Frédégonde","Assassination of Chilperic (Neustria) on the orders of Fredegonde"
"moderne","14 mai 1610","hard","Assassinat de Henri IV par Ravaillac_ son fils Louis lui succède","Assassination of Henry IV by Ravaillac_ his son Louis succeeds him"
"Moyen-âge","10 septembre 1419","hard","Assassinat de Jean sans Peur au pont de Montereau_ son fils Philippe le Bon lui succède","Assassination of John the Fearless at the Montereau Bridge_ his son Philip the Good succeeds him"
"Moyen-âge",575,"hard","Assassinat de Sigebert (Austrasie) sur ordre de Frédégonde","Assassination of Sigebert (Austrasia) on the orders of Fredegonde"
"contemporaine","13 février 1820","hard","Assassinat du duc de Berry (neveu du roi) par Louvel","Assassination of the duke of Berry (nephew of the king) by Louvel"
"Moyen-âge","7 septembre 1303","hard","Attentat d’Anagni de Guillaume de Nogaret contre Boniface VIII","Attack of Anagni Guillaume de Nogaret against Boniface VIII"
"contemporaine","28 juillet 1835","hard","Attentat de Fieschi contre Louis-Philippe_ provoquant la mort de 12 personnes","Attack of Fieschi against Louis-Philippe_ causing the death of 12 people"
"antique",451,"hard","Avènement du chef franc Mérové","Advent of the Merové Frankish Chief"
"contemporaine","13 juin 1982","hard","Blocage des prix et des salaires","Blocking prices and wages"
"moderne","28 octobre 1628","hard","Capitulation de La Rochelle","Capitulation of La Rochelle"
"moderne","25 février 1497","hard","Capitulation de Tarente_ perte du royaume de Naples","Capitulation of Taranto_ loss of the Kingdom of Naples"
"moderne","21 décembre 1560","hard","Catherine de Médicis et Antoine de Bourbon sont nommés régents par le Conseil d’État","Catherine de Medici and Antoine de Bourbon are appointed regents by the Council of State"
"moderne","22 juillet 1472","hard","Charles le Téméraire échoue devant Beauvais","Charles the Bold fails in front of Beauvais"
"contemporaine","16 mai 1830","hard","Charles X dissout la Chambre des députés","Charles X dissolves the Chamber of Deputies"
"antique",193,"hard","Claudius Albinus se fait proclamer empereur par ses légions en Bretagne","Claudius Albinus is proclaimed emperor by his legions in Brittany"
"Moyen-âge",613,"hard","Clotaire II fait exécuter Sigebert II et Brunehaut_ réunification du royaume","Clotaire II makes execute Sigebert II and Brunehaut_ reunification of the kingdom"
"Moyen-âge",524,"hard","Clothaire épouse Gontheuque_ veuve de Clodomir_ fait assassiner ses fils et s’empare de son royaume","Clothaire wife Gontheuca_ widow of Clodomir_ murdered his sons and seized his kingdom"
"moderne","30 août 1455","hard","Compromis dans un complot_ le dauphin s’enfuit à Louvain","Compromise in a plot_ the dolphin fled to Leuven"
"contemporaine","24 mars 1794","hard","Condamnation et exécution des chefs des Cordeliers (Hébert…)","Conviction and execution of the leaders of the Cordeliers (Hébert ...)"
"contemporaine","29-30 septembre 1938","hard","Conférence de Munich entre la France_ l’Angleterre_ l’Italie et l’Allemagne sur la question des Sudètes","Munich Conference between France_ England_ Italy and Germany on the Sudeten question"
"contemporaine","23 novembre 1799","hard","Constitution de l’an VIII_  Napoléon Bonaparte_ Sieyès et Ducos sont nommés consuls ","Constitution of the year VIII_ Napoleon Bonaparte_ Sieyes and Ducos are named consuls"
"contemporaine","1 juillet 1911","hard","Coup d’Agadir ou crise d’Agadir des Allemands contre les Français_ provoqué par l'envoi d'une canonnière (navire léger armé de canons) de la marine de guerre allemande dans la baie d'Agadir au Maroc","Coup dAgadir or Agadir crisis of the Germans against the French_ caused by the sending of a gunboat (light ship armed with guns) of the German navy in the bay of Agadir in Morocco"
"contemporaine","11 mai 1798","hard","Coup d’état du 22 floréal du directoire contre les députés jacobins élus en avril. Le jacobinisme est une doctrine politique qui défend la souveraineté populaire et l'indivisibilité de la République française","Coup detat of 22 Floréal of the directory against the Jacobin deputies elected in April Jacobinism is a political doctrine that defends the popular sovereignty and indivisibility of the French Republic"
"contemporaine","18 juin 1799","hard","Coup d’état du 30 prairial_ les conseils contraignent les directeurs Merlin et La Revellière à la démission","Coup detat of 30 Prairial_ councils force directors Merlin and La Revelliere to resign"
"contemporaine","4 septembre 1797","hard","Coup d’état du directoire contre les royalistes_ Barras aidé de Napoléon prend le pouvoir","Coup detat of the directory against the royalists_ Barras helped by Napoleon takes the power"
"Moyen-âge","29 février 888","hard","Couronnement de Eudes à Compiègne","Coronation of Eudes at Compiegne"
"moderne"," 8 juin 1576","hard","Création de la Sainte Ligue qui avait pour objectif de briser la progression des Turcs ottomans","Creation of the Holy League which aimed to break the progress of the Ottoman Turks"
"contemporaine","29 décembre 1943","hard","Création des Forces Françaises de l’Intérieur (FFI)","Creation of the French Forces of the Interior (FFI)"
"contemporaine","24 septembre 1941","hard","Création du Comité National de la France Libre à Londres par le général de Gaulle","Creation of the National Committee of Free France in London by General de Gaulle"
"contemporaine","15 mai 1943","hard","Création du Conseil National de la Résistance (CNR)","Creation of the National Council of Resistance (CNR)"
"contemporaine","16 février 1943","hard","Création du Service du Travail Obligatoire (STO)","Creation of the Compulsory Work Service (STO)"
"contemporaine","30 juin 1968","hard","De Gaulle remporte les élections législatives","De Gaulle wins the parliamentary elections"
"contemporaine","27 juin 1795","hard","Débarquement d’une armée de quatre mille émigrés à Quiberon","Landing of an army of four thousand emigrants at Quiberon"
"contemporaine","28 décembre 1933","hard","Début de l’affaire Stavisky (escroc qui magouillait avec les politiques et est mort dans des circonstances étranges)","Beginning of the Stavisky affair (scammer who was struggling with politics and died in strange circumstances)"
"moderne","1 octobre 1791","hard","Début de l’Assemblée législative et de la monarchie constitutionnelle","Beginning of the Legislative Assembly and the Constitutional Monarchy"
"antique",-800,"hard","Début de l’invasion des Celtes qui vont remplacer peu à peu les Ligures","Beginning of the invasion of the Celts who will gradually replace the Ligurians"
"contemporaine","21 mars 1918","hard","Début de l’offensive allemande sur la Somme","Beginning of the German offensive on the Somme"
"moderne","Mars 1465","hard","Début de la guerre de Louis XI contre la Ligue du Bien Public de Charles le Téméraire et Charles de France","Beginning of the war of Louis XI against the Public Property League of Charles the Bold and Charles of France"
"moderne","2 septembre 1792","hard","Début des « Massacres de septembre » dans les prisons (jusqu’au 6)","Beginning of the September Massacres in prisons (until 6)"
"contemporaine","1 novembre 1795","hard","Début du directoire_ Il tire son nom du « directoire » c'est-à-dire l'ensemble des cinq directeurs_ chefs du gouvernement entre lesquels le pouvoir exécutif et les ministres sont répartis_ pour éviter la tyrannie_ et dont le siège est au palais du Luxembourg","Beginning of the Directory_ It takes its name from the Directory that is to say all five directors_ heads of government between which the executive power and ministers are divided_ to avoid tyranny_ and whose seat is at the Luxembourg Palace "
"contemporaine","21 novembre 1806","hard","Décret de Berlin instituant un blocus contre l’Angleterre","Berlin Decree Establishing a Blockade against England"
"Moyen-âge","25 octobre 1415","hard","Défaite de la chevalerie française à Azincourt face aux Anglais","Defeat of French chivalry in Azincourt against the English"
"contemporaine","18 octobre 1813","hard","Défaite de Napoléon à Leipzig","Defeat of Napoleon in Leipzig"
"contemporaine","25 août 1976","hard","Démission de Jacques Chirac_ Raymond Barre le remplace","Resignation of Jacques Chirac_ Raymond Barre replaces him"
"contemporaine","2 décembre 1887","hard","Démission de Jules Grévy suite au scandale des décorations","Resignation of Jules Grévy following the decorations scandal"
"contemporaine","9 novembre 1799","hard","Démission de Sieyès_ Barras et Ducos de l’exécutif provoquant la vacance du pouvoir_ coup d’état du 18 Brumaire","Resignation of Sieyes_ Barras and Ducos of the executive causing the vacancy of power_ coup détat of 18 Brumaire"
"contemporaine","30 janvier 1879","hard","Démission du président Mac-Mahon","Resignation of President Mac-Mahon"
"Moyen-âge","4 juillet 1190","hard","Départ de Philippe Auguste pour la troisième croisade","Departure of Philippe Auguste for the third crusade"
"Moyen-âge","12 juin 1248","hard","Départ de Saint-Louis pour la septième croisade","Departure of Saint-Louis for the seventh crusade"
"contemporaine","12 juin 1982","hard","Dévaluation du franc","Devaluation of the franc"
"contemporaine","25 juin 1877","hard","Dissolution de l’Assemblée nationale (III République)","Dissolution of the National Assembly (III Republic)"
"contemporaine","27 septembre 1939","hard","Dissolution du PCF","Dissolution of the PCF"
"contemporaine","30 décembre 1919","hard","Du congrès de Tours naît la scission entre SFIO et PCF","From the Congress of Tours is born the split between SFIO and PCF"
"Moyen-âge"," 2 octobre 1370","hard","Du Guesclin devient connétable (haute dignité)","Du Guesclin becomes constable (high dignity)"
"antique",70,"hard","Échec de « l’empire des Gaules » de Sabinus","Failure of the empire of Gaul of Sabinus"
"moderne","17 mars 1560","hard","Échec de la conjuration d’Ambroise visant à enlever le roi","Failed Ambroises conspiracy to remove the king"
"contemporaine","12-13 mai 1839","hard","Échec des journées révolutionnaires de Barbès et Blanqui","Failure of the revolutionary days of Barbès and Blanqui"
"contemporaine",2005,"hard","Echec du référendum pour une constitution européenne","Failure of the referendum for a European constitution"
"antique",313,"hard","Édit de Milan venant confirmer la liberté de culte pour les chrétiens et la restitution des biens confisqués","Edict of Milan confirming the freedom of worship for Christians and the return of confiscated property"
"moderne","8 août 1788","hard","Édit prévoyant la convocation des États Généraux (assemblée extraordinaire réunissant les trois ordres (les états) de la société : la noblesse_ le clergé et le tiers état (le reste)) pour le 1er mai","Edict providing for the convening of the States General (extraordinary meeting bringing together the three orders (states) of society: the nobility_ the clergy and the third state (the rest)) for May 1"
"contemporaine","8 avril 1938","hard","Édouard Daladier remplace Léon Blum à la tête du gouvernement mettant fin au Front Populaire","Edouard Daladier replaces Leon Blum at the head of the government putting an end to the Popular Front"
"contemporaine","26 mars 1871","hard","Élections de la commune de Paris","Elections of the commune of Paris"
"contemporaine","1 mars 1948","hard","Embuscade du Viet-minh contre un convoi français en Indochine (82†)","Ambush of the Viet-minh against a French convoy in Indochina (82 †)"
"Moyen-âge","22 février 1358","hard","Étienne Marcel soulève Paris avec l’aide de Charles le Mauvais","Étienne Marcel raises Paris with the help of Charles the Bad"
"moderne","31 juillet 1602","hard","Exécution de Biron ayant comploté contre le roi","Execution of Biron having conspired against the king"
"Moyen-âge",1314,"hard","Exécution de Jacques de Molay et Hugues de Pairaud","Execution of Jacques de Molay and Hugues de Pairaud"
"contemporaine","31 octobre 1793","hard","Exécution des Girondins.  (Brissot_ Vergniaud…) 1794 13-14 mars Arrestation des chefs hébertistes (Hébert_ Vincent_ Momoro_ Ronsin_ Carrier)","Execution of the Girondins. (Brissot_ Vergniaud ...) 1794 March 13-14 Arrest of the Hebertist leaders (Hébert_ Vincent_ Momoro_ Ronsin_ Carrier)"
"contemporaine","15 septembre 1990","hard","F. Mitterrand annonce la participation de la France à la guerre du Golfe (opération « Daguet ») contre l’Irak","F. Mitterrand announces the participation of France in the Gulf War (operation Daguet ) against Iraq"
"contemporaine","21 juin 1848","hard","Fermeture des ateliers nationaux_ l'État intervenait directement en fournissant_ en organisant et en payant le travail. Cette « expérience » sociale a duré tout juste trois mois","Closure of national workshops_ the state intervened directly by providing_ organizing and paying for work.This social experience lasted just three months"
"moderne","14 juillet 1790","hard","Fête de la fédération au Champ-de-Mars_ Louis XVI prête serment à la constitution","Feast of the federation in the Champ-de-Mars_ Louis XVI swears an oath to the constitution"
"contemporaine","2 novembre 1919","hard","Fondation du Syndicat Confédération des Travailleurs Chrétiens (CFTC)","Foundation of the Confederation of Christian Workers (CFTC)"
"contemporaine","23 novembre 1945","hard","Formation d’un gouvernement tripartite (MRP-PCF–SFIO) autour du général de Gaulle","Formation of a tripartite government (MRP-PCF-SFIO) around General de Gaulle"
"moderne","8 janvier 1558","hard","François_ duc de Guise s’empare de Calais","François_ duke of Guise seizes Calais"
"moderne","17 juillet 1791","hard","Fusillade du Champ-de-Mars contre les pétitionnaires demandant la déchéance du roi (50†)","Champ-de-Mars shootout against petitioners demanding the kings decay (50 †)"
"Moyen-âge"," 14 octobre 1066","hard","Guillaume de Normandie remporte la bataille de Hastings (Angleterre) contre Harold qui y trouve la mort","William of Normandy wins the battle of Hastings (England) against Harold who finds death"
"moderne","23 décembre 1588","hard","Henri III fait assassiner le duc de Guise et son frère par le capitaine du Guast","Henry III assassinated the Duke of Guise and his brother by the captain of Guast"
"moderne","22 mars 1594","hard","Henri IV entre à Paris_ onze provinces se rallie à lui","Henri IV enters Paris_ eleven provinces rallies to him"
"contemporaine","31 mars 1905","hard","Incident franco-allemand de Tanger. Guillaume II refuse de reconnaître la souveraineté française","Franco-German incident in Tangier_ William II refuses to recognize French sovereignty"
"antique",162,"hard","Incursions germaniques repoussées en Gaule","Germanic incursions pushed back into Gaul"
"contemporaine","23-26 juin 1848","hard","Insurrection ouvrière à Paris_ en partie due à la fermeture des ateliers nationaux","Workers uprising in Paris_ partly due to the closure of national workshops"
"contemporaine","22 mars 1986","hard","Jacques Chirac devient premier ministre après avoir remporté les élections législatives_ première cohabitation (président de gauche et 1er ministre de droite)","Jacques Chirac becomes prime minister after winning the parliamentary elections_ first cohabitation (left-wing president and right-wing premier)"
"Moyen-âge","23 novembre 1407","hard","Jean sans Peur_ duc de Bourgogne_ quitte Paris après avoir fait assassiner Louis d’Orléans","John the Fearless_ Duke of Burgundy_ Leaves Paris After Murdering Louis of Orleans"
"contemporaine","25 janvier 1882","hard","Krach de l’Union Générale provoquant la ruine de nombreux épargnants","Krach of the General Union causing the ruin of many savers"
"contemporaine","4 novembre 1911","hard","L’Allemagne reconnaît le protectorat français sur le Maroc en contrepartie du bassin de la Sangha (Congo)","Germany recognizes the French protectorate over Morocco in exchange for the Sangha basin (Congo)"
"contemporaine","21 mai 1871","hard","L’armée de Versailles entre dans Paris_ début de la semaine sanglante","The Versailles army enters Paris_ the beginning of the bloody week"
"contemporaine","5 octobre 1795","hard","L’armée réprime l’insurrection royaliste (300†)","The army represses the royalist insurrection (300 †)"
"contemporaine","28 juillet 1914","hard","L’Autriche-Hongrie déclare la guerre à la Serbie","Austria-Hungary declares war on Serbia"
"moderne","15 juin 1702","hard","La coalition déclare la guerre à la France_ début de la guerre de succession d’Espagne","Coalition declares war on France_ start of Spains war of succession"
"moderne","5-6 janvier 1649","hard","La cour s’enfuit à Saint-Germain_ Condé assiège Paris","The court fled to Saint-Germain_ Condé besieges Paris"
"contemporaine","28 mars 1993","hard","La droite remporte les élections législatives_ nouvelle cohabitation","The right wins the legislative elections_ new cohabitation"
"contemporaine","1 août 1798","hard","La flotte française est détruite à Aboukir par l’amiral Nelson","The French fleet is destroyed in Aboukir by Admiral Nelson"
"contemporaine","9 décembre 1905","hard","La France accepte le principe d’une conférence de paix internationale sur le Maroc","France accepts the principle of an international peace conference on Morocco"
"moderne","19 mai 1635","hard","La France déclare la guerre à l’Espagne","France declares war on Spain"
"moderne","26 novembre 1688","hard","La France déclare la guerre à la Hollande_ début de la guerre contre la ligue d’Augsbourg","France declares war on Holland_ beginning of the war against the league of Augsburg"
"contemporaine","11 janvier 1923","hard","La France et la Belgique occupent la Ruhr pour contraindre l’Allemagne à payer les indemnités de guerre","France and Belgium occupy the Ruhr to force Germany to pay war indemnities"
"contemporaine","27 janvier 1964","hard","La France reconnaît la République populaire de Chine","France recognizes the Peoples Republic of China"
"contemporaine","29 octobre 1924","hard","La France reconnaît officiellement l’URSS","France officially recognizes the USSR"
"contemporaine","27 mars 1854","hard","La France_ l’Angleterre et la Turquie déclarent la guerre à la Russie","France_ England and Turkey declare war on Russia"
"contemporaine","1 juin 1997","hard","La gauche plurielle (PS-Vert-PC) remporte les élection suite à la dissolution de l’Assemblé Nationale_ troisième cohabitation ","The plural left (PS-Green-PC) wins the election following the dissolution of the National Assembly_ third cohabitation"
"moderne","1618-1648","hard","La guerre de Trente Ans est une série de conflits armés qui a déchiré l’Europe","The Thirty Years War is a series of armed conflicts that has torn Europe apart"
"contemporaine","21-22 décembre 1851","hard","Large plébiscite du coup d’État de Louis-Napoléon Bonaparte","Large plebiscite of the coup détat of Louis Napoleon Bonaparte"
"contemporaine","11 mai 1924","hard","Le Cartel des gauches remporte les élections législatives","The Cartel of the Left wins the legislative elections"
"contemporaine","3 mai 1936","hard","Le Front populaire remporte les élections législatives_ début des grèves","Popular Front wins legislative elections_ start of strikes"
"contemporaine","30 mai 1968","hard","Le général de Gaulle annonce la dissolution de l’Assemblée nationale","General de Gaulle announces the dissolution of the National Assembly"
"contemporaine","9 septembre 1944","hard","Le général De Gaulle créé un gouvernement provisoire","General De Gaulle creates a provisional government"
"contemporaine","3 juin 1943","hard","Le général De Gaulle fonde le Comité Français de Libération Nationale (CFLN)","General De Gaulle establishes the French Committee of National Liberation (CFLN)"
"contemporaine","14 avril 1947","hard","Le général De Gaulle fonde le Rassemblement du Peuple Français (RPF)","General De Gaulle founds the Rassemblement du Peuple Français (RPF)"
"contemporaine","15 mai 1917","hard","Le général Pétain remplace le général Nivelle à la tête des armées françaises","General Pétain replaces General Nivelle at the head of the French armies"
"contemporaine","3 juin 1944","hard","Le Gouvernement Provisoire de la France Libre (GPFL) remplace le CFLN","The Provisional Government of Free France (GPFL) replaces the CFLN"
"Moyen-âge",1208,"hard","Le pape ordonne la croisade contre les Albigeois sous la conduite de Simon de Monfort","The pope orders the crusade against the Albigenses under the leadership of Simon de Monfort"
"moderne","16 juillet 1787","hard","Le Parlement de Paris rejette les réformes fiscales et réclame des États Généraux","The Paris Parliament rejects the tax reforms and claims the Estates General"
"moderne","8 octobre 1547","hard","Le Parlement institue la Chambre Ardente pour lutter contre l’hérésie (sous le règne de Henri II)","Parliament establishes the Ardent Chamber to fight against heresy (under the reign of Henry II)"
"contemporaine","5 décembre 1831","hard","Le prince royal et le maréchal Soult à la tête de vingt mille hommes entrent à Lyon","The royal prince and Marshal Soult at the head of twenty thousand men enter Lyon"
"contemporaine","26 mars 1944","hard","Les Allemands détruisent le maquis du plateau des Glières (mouvement de résistants français)","The Germans destroy the maquis plateau Glières (French resistance movement)"
"contemporaine","23 octobre 1944","hard","Les Américains reconnaissent le gouvernement provisoire du général De Gaulle","Americans recognize the provisional government of General De Gaulle"
"contemporaine","23 juillet 1944","hard","Les armées allemandes ont anéantis le maquis du Vercors (mouvement de résistants français)","The German armies have destroyed the maquis of the Vercors (French resistance movement)"
"contemporaine","Janvier 1814","hard","Les armées coalisées (plus d’un million de soldats) envahissent la France","The coalition armies (more than a million soldiers) invade France"
"Moyen-âge",1317,"hard","Les Grands du royaume_ confirment le principe de loi salique","Great of the kingdom_ confirm the principle of salic law"
"Moyen-âge","28 mai 1418","hard","Les Parisiens ouvrent les portes de la capitale aux Bourguignons","Parisians open the doors of the capital to the Burgundians"
"moderne","24 décembre 1620","hard","Les Protestants décident lors de l’assemblée de La Rochelle de prendre les armes","The Protestants decide at the assembly of La Rochelle to take up arms"
"moderne","21 février 1701","hard","Les Provinces-Unies reconnaissent Philippe V comme roi d’Espagne","The United Provinces recognize Philip V as King of Spain"
"antique",-283,"hard","Les romains s’emparent du pays des Sénons (Celtes)","The Romans seize the country of Sénons (Celts)"
"antique",-125,"hard","Les Salyens ravagent les terres de Marseille qui demande l’aide de Rome","The Salyens ravage the lands of Marseilles who ask for help from Rome"
"contemporaine","11 novembre 1942","hard","Les troupes allemandes entrent en zone libre","German troops enter free zone"
"contemporaine","19 février 1858","hard","Loi de sûreté générale venant accroître la répression","Law of general security coming to increase the repression"
"contemporaine","12 octobre 1988","hard","Loi instituant le Revenu Minimum d’Insertion","Law establishing the Minimum Insertion Income"
"moderne","14 juin 1791","hard","Loi Le Chapelier interdisant les associations patronales et ouvrières","The Hatters Law prohibiting employers and workers associations"
"contemporaine","28 avril 1825","hard","Loi sur le « Milliard des émigrés »_ consistant à indemniser les émigrés qui avaient perdu leurs biens vendus comme Bien national sous la Révolution","Law on the Milliard of emigrants _ consisting of compensating the emigrants who had lost their property sold as a national property under the Revolution"
"Moyen-âge","29 novembre 1226","hard","Louis IX est sacré à Reims_ Régence de Blanche de Castille (jusqu’en 1236)","Louis IX is sacred to Reims_ Regency of Blanche of Castile (until 1236)"
"Moyen-âge","21 mars 1152","hard","Louis VII fait casser son mariage (divorce avec Aliénor d’Aquitaine) par le concile de Beaugency","Louis VII makes break his marriage (divorce with Aliénor of Aquitaine) by the council of Beaugency"
"moderne","24 mai 1667","hard","Louis XIV revendique la couronne espagnole_ début de la guerre de dévolution","Louis XIV claims the Spanish crown_ beginning of the war of devolution"
"moderne","10 octobre 1733","hard","Louis XV déclare la guerre à l’empereur autrichien","Louis XV declares war on the Austrian emperor"
"moderne","15 février 1723","hard","Louis XV est déclaré majeur_ fin de la régence","Louis XV is declared major_ end of the regency"
"moderne","14 août 1787","hard","Louis XVI exile le Parlement à Troyes","Louis XVI exiles the Parliament in Troyes"
"contemporaine","8 juillet 1815","hard","Louis XVIII entre à Paris","Louis XVIII enters Paris"
"contemporaine","12 janvier 1870","hard","Manifestation républicaine pour les funérailles de Victor Noir_ journaliste français tué à l'âge de 21 ans d'un coup de feu par le prince Pierre-Napoléon Bonaparte","Republican demonstration for the funeral of Victor Noir_ French journalist killed at the age of 21 by a shot by Prince Pierre-Napoleon Bonaparte"
"moderne","25 juillet 1792","hard","Manifeste de Brunswick_ est une proclamation attribuée au chef de l’armée prussienne_ Charles-Guillaume-Ferdinand_ duc de Brunswick_ qui a pour objectif l’intimidation des parisiens","Manifesto of Brunswick_ is a proclamation attributed to the head of the Prussian army_ Charles-Guillaume-Ferdinand_ Duke of Brunswick_ whose objective is the intimidation of the Parisians"
"Moyen-âge",493,"hard","Mariage de Clovis avec Clothilde (Burgonde)","Clovis wedding with Clothilde (Burgundy)"
"moderne","9 juin 1660","hard","Mariage de Louis XIV avec Marie-Thérèse d’Autriche","Marriage of Louis XIV with Maria Theresa of Austria"
"moderne","5 septembre 1725","hard","Mariage de Louis XV avec Marie Leszczynska_ fille de l’ex-roi de Pologne_ à Fontainebleau","Marriage of Louis XV with Marie Leszczynska_ daughter of the former King of Poland_ Fontainebleau"
"Moyen-âge","25 juillet 1137","hard","Mariage de Louis_ fils aîné de Louis VI avec Aliénor d’Aquitaine_ héritière du duché","Marriage of Louis_ eldest son of Louis VI with Aliénor of Aquitaine_ heiress of the duchy"
"contemporaine","2 avril 1810","hard","Mariage de Napoléon et de Marie-Louise d’Autriche","Marriage of Napoleon and Marie-Louise of Austria"
"antique","177 et 174 ","hard","Martyrs de chrétiens à Lyon (Sainte Blandine)","Martyrs of Christians in Lyon (Blandine)"
"moderne","11 mai 1745","hard","Maurice de Saxe bat les Anglais à Fontenoy","Maurice of Saxony beats the English in Fontenoy"
"moderne","3 février 1653","hard","Mazarin est de retour à Paris_ marquant la fin de la Fronde","Mazarin is back in Paris_ marking the end of the Fronde"
"contemporaine","20 avril 1870","hard","Mise en place d’un régime parlementaire par senatus-consulte","Establishment of a parliamentary system by senatus-consulte"
"moderne","1 novembre 1700","hard","Mort de Charles II d’Espagne qui désigne Philippe_ deuxième fils du Grand Dauphin comme son successeur","Death of Charles II of Spain who names Philip_ second son of the Grand Dauphin as his successor"
"moderne","5 janvier 1477","hard","Mort de Charles le Téméraire devant Nancy","Death of Charles the Bold before Nancy"
"moderne","20 octobre 1740","hard","Mort de Charles VI d’Autriche_ sa fille Marie-Thérèse lui succède posant le problème de la succession","Death of Charles VI of Austria_ his daughter Marie-Thérèse succeeds him posing the problem of succession"
"Moyen-âge",558,"hard","Mort de Childebert_ Clotaire contrôle seul le royaume Franc","Death of Childebert_ Clotaire controls the kingdom alone Franc"
"Moyen-âge",629,"hard","Mort de Clotaire II_ son fils Dagobert prend la tête du royaume","Death of Clotaire II_ his son Dagobert takes the head of the kingdom"
"Moyen-âge",561,"hard","Mort de Clotaire_ partage du royaume entre ses quatre fils","Death of Clotaire_ division of the kingdom between his four sons"
"Moyen-âge",511,"hard","Mort de Clovis_ son royaume est partagé entre ses quatre fils (Thierry_ Clodomir_ Childebert et Clotaire)","Death of Clovis_ his kingdom is divided between his four sons (Thierry_ Clodomir_ Childebert and Clotaire)"
"Moyen-âge",639,"hard","Mort de Dagobert Ier_ partage du royaume entre ses deux fils Sigebert III (8 ans) et Clovis II (4 ans)","Death of Dagobert I_ division of the kingdom between his two sons Sigebert III (8 years old) and Clovis II (4 years old)"
"Moyen-âge",593,"hard","Mort de Gontran_ Childebert II hérite du Royaume de Bourgogne","Death of Gontran_ Childebert II inherits the Kingdom of Burgundy"
"moderne","14 mai 1643","hard","Mort de Louis XIII_ son fils Louis lui succède","Death of Louis XIII_ his son Louis succeeds him"
"moderne","10 mai 1774","hard","Mort de Louis XV_ son petit-fils Louis lui succède","Death of Louis XV_ his grandson Louis succeeds him"
"Moyen-âge"," 5 octobre 1285","hard","Mort de Philippe III à Perpignan son fils Philippe IV_ le Bel lui succède","Death of Philip III in Perpignan his son Philip IV_ the Bel succeeds him"
"Moyen-âge","15 janvier 936","hard","Mort de Raoul à Auxerre_ Louis fils de Charles le Simple réfugié en Angleterre est appelé au trône","Death of Raoul in Auxerre_ Louis son of Charles the Simple refugee in England is called to the throne"
"Moyen-âge","15 août 778","hard","Mort de Roland à Roncevaux","Death of Roland in Roncesvalles"
"Moyen-âge","25 août 1270","hard","Mort de Saint Louis à Tunis son fils Philippe III le Hardi lui succède","Death of Saint Louis in Tunis his son Philip III the Bold succeeds him"
"moderne","23 février 1766","hard","Mort de Stanislas Leszczynski_ roi de Pologne_ qui lègue la Lorraine et Bar à la France","Death of Stanislas Leszczynski_ King of Poland_ who bequeaths Lorraine and Bar to France"
"moderne","9 mars 1661","hard","Mort du cardinal de Mazarin","Death of Cardinal Mazarin"
"contemporaine","22 juin 1815","hard","Napoléon abdique en faveur de son fils","Napoleon abdicates in favor of his son"
"contemporaine","24 juin 1812","hard","Napoléon franchit le Niémen_ Début de la campagne de Russie","Napoleon crosses the Niemen_ Start of the Russian campaign"
"contemporaine","25 septembre 1915","hard","Offensive franco-anglaise en Artois et en Champagne","Franco-English offensive in Artois and Champagne"
"contemporaine","25 juillet 1830","hard","Ordonnance de dissolution de la Chambre des députés","Order of dissolution of the Chamber of Deputies"
"Moyen-âge",1445,"hard","Ordonnance de Louppy-le-Châtel sur la permanence d’une armée de métier","Ordinance of Louppy-le-Châtel on the permanence of a professional army"
"contemporaine","19 février 1942","hard","Ouverture du procès de Riom des anciens dirigeants français","Opening of the Riom trial of former French leaders"
"moderne","7 mai 1576","hard","Paix de Monsieur à Beaulieu accordant des facilités de cultes et 8 places fortes aux Protestants","Peace of Monsieur in Beaulieu granting facilities of worship and 8 strong places to the Protestants"
"Moyen-âge",534,"hard","Partage du royaume Burgonde entre Théodebert_ Childebert et Clothaire","Sharing the Burgundian kingdom between Théodebert_ Childebert and Clothaire"
"contemporaine","13 janvier 1898","hard","Parution de « J’accuse » d’Émile Zola dans l’Aurore","Publication of Jaccuse by Émile Zola in the Aurore"
"contemporaine","5 mai 1947","hard","Paul Ramadier renvoie les ministres communistes qui s’opposent au blocage des salaires","Paul Ramadier dismissed communist ministers who oppose the wage freeze"
"moderne","2 septembre 1715","hard","Philippe d’Orléans fait annuler le testament de Louis XIV pour s’arroger tous les pouvoirs","Philippe dOrléans makes cancel the testament of Louis XIV to arrogate all the powers"
"contemporaine","21 octobre 1917","hard","Premier engagement des troupes américaines dans le conflit","First engagement of American troops in the conflict"
"moderne","30 août 1673","hard","Première coalition (Provinces-Unies_ Espagne_ l’Empire allemand et la Lorraine) contre la France","First coalition (United Provinces_ Spain_ German Empire and Lorraine) against France"
"Moyen-âge","4 août 1392","hard","Première crise de folie de Charles VI près du Mans","First crazy crisis of Charles VI near Le Mans"
"antique",233,"hard","Premières incursions Alamanes dans l’Empire_ début des « Grandes Invasions »","First Alamane incursions in the Empire_ beginning of the Great Invasions "
"contemporaine","4 juin 1814","hard","Proclamation de la Charte_ cette dernière est la constitution du royaume de France en vigueur sous la Première puis la Seconde Restauration.","Proclamation of the Charter_ the latter is the constitution of the Kingdom of France in force under the First and Second Restoration."
"contemporaine","9 septembre 1835","hard","Promulgation des lois sur la presse (censure)","Promulgation of the laws on the press (censorship)"
"Moyen-âge",510,"hard","Publication de la loi salique_ il s'agit d'un code de loi élaboré","Publication of the Salic law_ it is a code of law elaborated"
"Moyen-âge","13 juillet 923","hard","Raoul est élu roi et couronné à Soisson par les révoltés en remplacement de Robert","Raoul is elected king and crowned in Soisson by the rebels to replace Robert"
"contemporaine","24 octobre 1940","hard","Rencontre de Montoire entre Pétain et Hitler","Montoire meeting between Petain and Hitler"
"moderne","11 juillet 1789","hard","Renvoi de Necker_ le baron de Breteuil lui succède","Return of Necker_ the Baron de Breteuil succeeds him"
"moderne","12 mai 1776","hard","Renvoi de Turgot_ contrôleur général des finances_ sous la pression populaire","Return of Turgot_ Comptroller General of Finance_ under popular pressure"
"moderne","21 octobre 1652","hard","Retour du roi et de la cour à Paris_ amnistie des frondeurs sauf Condé","Return of the king and the court to Paris_ amnesty of the slingers except Conde"
"antique",-12,"hard","Réunion de l’assemblée provinciale des chefs des Gaules","Meeting of the Provincial Assembly of the Chiefs of Gaul"
"contemporaine","6 septembre 1892","hard","Révélation du scandale du canal de Panama (affaire de corruption)","Revelation of the scandal of the Panama Canal (corruption case)"
"Moyen-âge",922,"hard","Révolte de Gilbert de Lorraine_ Robert de France_ Robert de Bourgogne contre Charles III le Simple","Revolt of Gilbert de Lorraine_ Robert of France_ Robert of Burgundy against Charles III the Simple"
"antique",68,"hard","Révolte de Vindex (Gouverneur de Lyon)","Revolt of Vindex (Governor of Lyon)"
"contemporaine","20-22 novembre 1831","hard","Révolte des Canuts à Lyon_ cela désigne plusieurs soulèvements ouvriers","Revolt of the Canuts in Lyon_ it designates several workers uprisings"
"moderne","Mai 1788","hard","Révolte des Parlements_ émeutes à Besançon_ Toulouse_ et Rennes","Revolt of Parliaments_ riots in Besancon_ Toulouse_ and Rennes"
"antique",21,"hard","Révoltes de Sacrovir (éduen) et de Florus (trévire)","Revolt of Sacrovir (eduen) and Florus (trevire)"
"moderne","13 août 1624","hard","Richelieu est nommé chef du Conseil","Richelieu is appointed head of the Council"
"contemporaine","27 juillet 1794","hard","Robespierre et Saint-Just sont pris à partie à la tribune de la Convention","Robespierre and Saint-Just are taken part in the tribune of the Convention"
"contemporaine","29 juillet 1904","hard","Rupture des relations diplomatiques entre la France et le Vatican","Breakdown of diplomatic relations between France and the Vatican"
"contemporaine","27 novembre 1942","hard","Sabordage de la flotte française à Toulon","Scuttling of the French fleet at Toulon"
"Moyen-âge","17 juillet 1429","hard","Sacre de Charles VII à Reims","Rite of Charles VII in Reims"
"contemporaine","29 mai 1825","hard","Sacre de Charles X à Reims","Rite of Charles X in Reims"
"Moyen-âge","29 mai 1328","hard","Sacre de Philipe VI à Reims","Rite of Philipe VI in Reims"
"Moyen-âge","6 mai 1250","hard","Saint-Louis et les survivants de son armée rejoignent Saint-Jean d’Âcre","Saint-Louis and the survivors of his army join Saint-Jean dAcre"
"Moyen-âge","6 avril 1250","hard","Saint-Louis et son armée sont capturés et fait prisonniers","St. Louis and his army are captured and taken prisoner"
"contemporaine","20 novembre 1815","hard","Second traité de Paris_ la France est ramenée à ses frontières de 1790","Second treaty of Paris_ France is brought back to its borders of 1790"
"moderne","2 mai 1682","hard","Seconde coalition (Provinces-Unies_ Espagne_ l’Empire et la Suède) contre la France","Second coalition (United Provinces_ Spain_ Empire and Sweden) against France"
"contemporaine","3 septembre 1918","hard","Signature de l’armistice entre les alliés et l’Autriche","Signature of the Armistice between the Allies and Austria"
"contemporaine","27 juin 1972","hard","Signature du « Programme commun » entre les socialistes_ les communistes et les radicaux","Signature of the Joint Program between Socialists_ Communists and Radicals"
"contemporaine","22 janvier 1963","hard","Signature du traité de l’Élysée sur la coopération franco-allemande","Signature of the Elysée Treaty on Franco-German cooperation"
"Moyen-âge","Janvier 1358","hard","Signature du traité de Londres entre Jean II et le roi d’Angleterre","Signature of the Treaty of London between John II and the King of England"
"moderne","12 septembre 1733","hard","Stanislas Leszczynski_ beau-frère de Louis XV est élu roi de Pologne","Stanislas Leszczynski_ brother-in-law of Louis XV is elected king of Poland"
"moderne","25 janvier 1494","hard","Suite à la mort de Ferdinand_ Charles VIII se proclame roi de Naples","Following the death of Ferdinand_ Charles VIII proclaims himself king of Naples"
"moderne","26 janvier 1611","hard","Sully démissionne pour protester contre l’influence de C. Concini et sa femme","Sully resigns to protest the influence of C. Concini and his wife"
"contemporaine","26 mars 1820","hard","Suspension des libertés individuelles (pendant la restauration)","Suspension of individual freedoms (during restoration)"
"moderne","10 août 1792","hard","Suspension du roi qui est remplacé par le conseil exécutif provisoire","Suspension of the King who is replaced by the Provisional Executive Council"
"contemporaine","12 novembre 1890","hard","Toast d’Alger au cours duquel le cardinal Lavigerie souhaite le ralliement des Catholiques à la république","Toast of Algiers during which Cardinal Lavigerie wishes rallying of Catholics to the republic"
"moderne","2 mai 1668","hard","Traité d’Aix-la-Chapelle mettant fin à la guerre de dévolution_ la France restitue la Franche-Comté mais garde 12 places fortes conquises en Flandre","Treaty of Aix-la-Chapelle ending the war of devolution_ France restores Franche-Comté but keeps 12 strongholds conquered in Flanders"
"moderne","18 octobre 1748","hard","Traité d’Aix-la-Chapelle mettant fin à la guerre de succession d’Autriche","Aachen Treaty Ending the War of Austrian Succession"
"contemporaine","8 avril 1904","hard","Traité d’alliance franco-anglais (Entente cordiale)","Treaty of Franco-English alliance (Entente cordiale)"
"contemporaine","25 mars 1802","hard","Traité d’Amiens scellant la paix entre la France et l’Angleterre","Treaty of Amiens sealing peace between France and England"
"Moyen-âge","21 septembre 1435","hard","Traité d’Arras entre Charles VII et Philippe le Bon","Treaty of Arras between Charles VII and Philip the Good"
"moderne","23 décembre 1482","hard","Traité d’Arras entre Frédéric III de Habsbourg et Louis XI qui récupère la Picardie et la Bourgogne","Treaty of Arras between Frederick III of Habsburg and Louis XI who recovers Picardy and Burgundy"
"moderne","11 avril 1713","hard","Traité d’Utrecht mettant fin à la guerre de succession d’Espagne","Treaty of Utrecht putting an end to the war of succession of Spain"
"Moyen-âge","8 mai 1360","hard","Traité de Brétigny_ Édouard III d’Angleterre renonce au trône de France en échange de l’Aquitaine","Treaty of Brétigny_ Edward III of England renounces the throne of France in exchange for Aquitaine"
"moderne","11 novembre 1500","hard","Traité de Grenade entre Louis XII et Ferdinand d’Aragon pour le partage du royaume de Naples","Treaty of Granada between Louis XII and Ferdinand of Aragon for the division of the Kingdom of Naples"
"Moyen-âge","23 mai 1414","hard","Traité de Leicester marquant l’alliance entre l’Angleterre et la Bourgogne","Treaty of Leicester marking the alliance between England and Burgundy"
"moderne","5 février 1679","hard","Traité de Nimègue avec les Impériaux marquant la fin de la guerre de Hollande_ La France a acquis la Franche-Comté_ Cambrai_ Valenciennes_ l’Alsace_ le Sénégal et la Guyane","Treaty of Nijmegen with the Imperialists marking the end of the war in Holland_ France acquired Franche-Comté_ Cambrai_ Valenciennes_ Alsace_ Senegal and Guyana"
"moderne","28 mars 1741","hard","Traité de Nymphenburg scellant l’alliance de la France_ l’Espagne_ la Bavière_ la Saxe et la Pologne contre Marie-Thérèse d’Autriche","Treaty of Nymphenburg sealing the alliance of France_ Spain_ Bavaria_ Saxony and Poland against Maria Theresa of Austria"
"moderne","17 septembre 1678","hard","Traité de paix franco-espagnol","Franco-Spanish peace treaty"
"contemporaine","30 mars 1856","hard","Traité de Paris mettant fin à la guerre de Crimée","Treaty of Paris ending the Crimean War"
"moderne","10 février 1763","hard","Traité de Paris mettant fin à la guerre de sept ans marquant la perte de nombreux territoires","Treaty of Paris ending the seven-year war marking the loss of many territories"
"Moyen-âge","28 mai 1258","hard","Traité de Paris sur la restitution d’une partie des possessions anglaises par Saint Louis_ Henri III d’Angleterre devient vassal du roi de France","Treaty of Paris on the restitution of part of the English possessions by Saint Louis_ Henry III of England becomes vassal of the King of France"
"Moyen-âge","12 avril 1229","hard","Traité de Paris_ Beaucaire Nîmes et Carcassonne sont rattachés au royaume (fin de la croisade des Albigeois)","Treaty of Paris_ Beaucaire Nimes and Carcassonne are attached to the kingdom (end of the Albigensian crusade)"
"contemporaine","25 août 1883","hard","Traité de protectorat français sur le Tonkin et la Cochinchine","French Protectorate Treaty on Tonkin and Cochin China"
"moderne","16 août 1684","hard","Traité de Ratisbonne entre Louis XIV_ Léoplod Ier d’Autriche et Charles II d’Espagne accordant à la France les villes et territoires conquis","Treaty of Regensburg between Louis XIV_ Leoplod I of Austria and Charles II of Spain granting to France the conquered cities and territories"
"moderne","30 octobre 1697","hard","Traité de Ryswick mettant fin à la guerre de la ligue d’Augsbourg où Louis XIV est contraint à de fortes concessions","Treaty of Ryswick ending the war of the league of Augsburg where Louis XIV is forced to strong concessions"
"contemporaine","7-9 juillet 1807","hard","Traité de Tilsit scellant la paix et l’alliance de Napoléon et du Tsar","Treaty of Tilsit sealing the peace and alliance of Napoleon and the Tsar"
"contemporaine","24 mars 1860","hard","Traité de Turin : La France cède la Sardaigne en contrepartie de Nice et la Savoie","Treaty of Turin: France sells Sardinia in return for Nice and Savoy"
"Moyen-âge","Août 843","hard","Traité de Verdun sur le partage de l’empire entre les trois frères","Treaty of Verdun on the sharing of the empire between the three brothers"
"moderne","1 mai 1756","hard","Traité de Versailles scellant l’alliance de la France à l’Autriche contre la Prusse et l’Angleterre","Treaty of Versailles sealing the alliance of France to Austria against Prussia and England"
"moderne","2 mai 1598","hard","Traité de Vervins entre Henri IV et Philippe II d’Espagne","Treaty of Vervins between Henry IV and Philip II of Spain"
"moderne","18 novembre 1738","hard","Traité de Vienne mettant fin à la guerre de succession de Pologne","Treaty of Vienna putting an end to the war of succession of Poland"
"moderne","3 avril 1559","hard","Traité du Cateau-Cambresis mettant fin à la guerre entre la France d’un côté et l'Espagne et le Saint-Empire romain germanique de l’autre","Treaty of Cateau-Cambresis ending the war between France on one side and Spain and the Holy Roman Empire on the other"
"moderne","24 août 1774","hard","Turgot_ contrôleur général des finances_ lance une réforme économique libérale","Turgot_ Comptroller General of Finance_ launches liberal economic reform"
"contemporaine","7 mai 1915","hard","Un sous-marin allemand coule le Lusitania (1 198† dont 128 américains) au sud-est de l’Irlande","A German submarine sinks the Lusitania (1_198 † including 128 US) southeast of Ireland"
"Moyen-âge",719,"hard","Victoire de Charles Martel à Néry contre les troupes de Neustrie","Victory of Charles Martel in Néry against the troops of Neustrie"
"Moyen-âge",507,"hard","Victoire de Clovis contre les Wisigoths","Victory of Clovis against the Visigoths"
"moderne","20 septembre 1792","hard","Victoire de Dumouriez et Kellerman contre les Prussiens à Valmy","Victory of Dumouriez and Kellerman against the Prussians in Valmy"
"moderne","20 octobre 1587","hard","Victoire de Henri de Navarre à Coutras sur la Ligue","Victory of Henri de Navarre in Coutras on the League"
"moderne","14 mars 1590","hard","Victoire de Henri IV à Ivry contre la ligue","Victory of Henry IV to Ivry against the league"
"moderne","20 septembre 1589","hard","Victoire de Henri IV sur la Ligue à Arques","Victory of Henry IV on the League in Arques"
"moderne","15 juin 1595","hard","Victoire de Henri IV sur les Espagnols à Fontaine-Française","Victory of Henry IV on the Spanish at Fontaine-Française"
"contemporaine","3 juillet 1830","hard","Victoire de la gauche aux élections législatives","Victory of the left in the legislative elections"
"contemporaine","14 octobre 1806","hard","Victoire de Napoléon à Iéna et à Auerstadt","Victory of Napoleon to Jena and Auerstadt"
"contemporaine","14 juin 1807","hard","Victoire de Napoléon contre les Russes à Friedland","Victory of Napoleon against the Russians in Friedland"
"Moyen-âge","27 juillet 1214","hard","Victoire de Philippe Auguste à Bouvines sur la coalition Boulogne-Flandre-Othon","Victory of Philippe Auguste to Bouvines on the Boulogne-Flanders-Othon coalition"
"Moyen-âge","12 septembre 1213","hard","Victoire des armées catholiques contre le comte de Toulouse et le roi d’Aragon lors de la bataille du Muret","Victory of the Catholic armies against the count of Toulouse and the king of Aragon during the battle of Muret"
"contemporaine","13 mai 1849","hard","Victoire des monarchistes aux élections législatives","Victory of the monarchists in the legislative elections"
"contemporaine","5 mars 1876","hard","Victoire des républicains aux élections législatives (III République)","Victory Republicans in the legislative elections (III Republic)"
"contemporaine","28 octobre 1877","hard","Victoire des républicains aux élections législatives (III République)","Victory Republicans in the legislative elections (III Republic)"
"Moyen-âge",1047,"hard","Victoire des troupes de Guillaume et Henri Ier contre les barons rebelles à Val-les-Dunes","Victory of the troops of Guillaume and Henry I against the rebel barons in Val-les-Dunes"
"contemporaine","30 novembre 1919","hard","Victoire du Bloc national aux élections législatives (Chambre Bleu Horizon)","Victory of the National Bloc in the legislative elections (Blue Horizon Chamber)"
"contemporaine","8 janvier 1961","hard","Victoire du oui au référendum sur l’autodétermination en Algérie","Victory of yes in the referendum on self-determination in Algeria"
"Moyen-âge","21 juillet 1242","hard","Victoire sur Henri III (roi d’Angleterre) et les Poitevins à Taillebourg et à Saintes","Victory over Henry III (King of England) and the Poitevins at Taillebourg and Saintes"
"contemporaine","15 mars 1850","hard","Vote de la loi Falloux confiant l’enseignement à l’église","Vote Falloux law entrusting teaching to the church"
"contemporaine","21-25 avril 1961","medium","« Putsch des généraux » à Alger_ tentative de coup d’État"," Putsch of the generals in Algiers_ coup attempt"
"contemporaine","18 mars 1962","medium","Accords d’Évian mettant fin à la guerre d’Algérie","Evian Accords Ending the Algerian War"
"contemporaine","19 décembre 1974","medium","Adoption du projet de loi sur l’Interruption Volontaire de Grossesse (IVG) pour une durée probatoire de 5 ans","Adoption of the bill on the Voluntary Interruption of Pregnancy (IVG) for a probationary period of 5 years"
"contemporaine","28 décembre 1967","medium","Adoption par l’assemblée de la Loi Neuwirth légalisant la contraception","Adoption by the assembly of the Neuwirth Law legalizing contraception"
"Moyen-âge",796,"medium","Aix-la-Chapelle est choisie pour capitale","Aachen is chosen for capital"
"Moyen-âge",788,"medium","Annexion de la Bavière","Annexation of Bavaria"
"contemporaine","18 juin 1940","medium","Appel à la résistance du général De Gaulle réfugié à Londres","Call for resistance from General de Gaulle refugee in London"
"contemporaine","17 juin 1940","medium","Appel radiophonique du maréchal Pétain à cesser le combat","Marshal Petains radio call to stop the fight"
"contemporaine","2 juin 1793","medium","Arrestation des chefs girondins","Arrest of the Girondin leaders"
"contemporaine","15 octobre 1894","medium","Arrestation du capitaine Dreyfus soupçonné d’espionnage (l’affaire Dreyfus)","Arrest of Captain Dreyfus suspected of espionage (the Dreyfus case)"
"moderne","2 août 1589","medium","Assassinat d’Henri III_ Henri de Navarre lui succède","Assassination of Henry III_ Henry of Navarre succeeds him"
"contemporaine","24 juin 1894","medium","Assassinat du président Sadi Carnot par Santo Caserio_ anarchiste italien à Lyon","Assassination of President Sadi Carnot by Santo Caserio_ Italian anarchist in Lyon"
"contemporaine","14 janvier 1858","medium","Attentat d’Orsini contre l’empereur (8†)","Attack of Orsini against the emperor (8 †)"
"contemporaine","22 août 1962","medium","Attentat manqué de l’OAS (Organisation armée secrète_ pour une Algérie française) contre De Gaulle au Petit-Clamart","Missed Attack of the OAS (Secret Army Organization_ for a French Algeria) against De Gaulle in Petit-Clamart"
"contemporaine","2 septembre 1870","medium","Capitulation de Napoléon III à Sedan qui devient prisonnier","Capitulation of Napoleon III in Sedan who becomes a prisoner"
"Moyen-âge",806,"medium","Charlemagne partage son royaume entre ses trois fils Charles_ Louis (Aquitaine) et Pépin (Lombardie)","Charlemagne shares his kingdom between his three sons Charles_ Louis (Aquitaine) and Pepin (Lombardy)"
"Moyen-âge","Novembre 887","medium","Charles II est déposé et enfermé dans une abbaye","Charles II is deposed and locked in an abbey"
"Moyen-âge",716,"medium","Charles Martel devient maire du palais (plus hauts dignitaires_ après les rois_ des royaumes francs) d’Austrasie","Charles Martel becomes mayor of the palace (highest dignitaries_ after the kings_ Frankish kingdoms) of Austrasia"
"contemporaine","1 août 1908","medium","Clémenceau ordonne l’arrestation de syndicalistes CGT","Clemenceau orders the arrest of CGT trade unionists"
"moderne","10 septembre 1567","medium","Condé et Coligny attaquent Paris_ 2eme guerre de religion","Condé and Coligny attack Paris_ 2nd war of religion"
"Moyen-âge",1204,"medium","Conquête de la Normandie par Philippe Auguste","Conquest of Normandy by Philippe Auguste"
"contemporaine","8 août 1829","medium","Constitution du gouvernement Polignac (ultra-royaliste)","Constitution of the government Polignac (ultra-royalist)"
"contemporaine","2 décembre 1851","medium","Coup d’État de Louis-Napoléon Bonaparte prolongeant son mandat pour 10 ans","Coup détat of Louis-Napoleon Bonaparte extending his mandate for 10 years"
"contemporaine","3 octobre 1940","medium","Création d’un statut pour les Juifs en France leur interdisant un certain nombre de fonctions","Creation of a status for Jews in France prohibiting a number of functions"
"contemporaine","28 mars 1803","medium","Création du Franc germinal (monnaie)","Creation of the Germinal Franc (currency)"
"contemporaine","10 mars 1793","medium","Création du Tribunal Révolutionnaire","Creation of the Revolutionary Tribunal"
"contemporaine","14 janvier 1963","medium","De Gaulle s’oppose à l’entrée de la Grande Bretagne au sein du marché commun","De Gaulle opposes the entry of Britain into the common market"
"contemporaine","8 novembre 1942","medium","Débarquement allié en Afrique du nord (opération Torch)","Allied landing in North Africa (Torch operation)"
"contemporaine","1 novembre 1954","medium","Début de l’insurrection algérienne dans le massif des Aurès","Beginning of the Algerian insurrection in the Aurès massif"
"contemporaine","10 mars 1793","medium","Début de l’insurrection en Vendée","Beginning of the insurrection in Vendée"
"contemporaine","24-29 janvier 1960","medium","Début de la semaine des barricades à Alger contre l’autodétermination","Beginning of the week of barricades in Algiers against self-determination"
"Moyen-âge",885,"medium","Début du siège de Paris par les Normands","Beginning of the siege of Paris by the Normans"
"moderne","8 mars 1759","medium","Décret du Conseil d’État interdisant l’Encyclopédie ou Dictionnaire raisonné des sciences_ des arts et des métiers est une encyclopédie française_ éditée sous la direction de Denis Diderot et_ partiellement_ de Jean Le Rond d'Alembert","Decree of the Council of State prohibiting the Encyclopedia or Dictionary reasoned sciences_ arts and crafts is a French encyclopedia_ edited under the direction of Denis Diderot and partially Jean Le Rond dAlembert"
"moderne","24 février 1525","medium","Défaite de Pavie_ François Ier est fait prisonnier","Defeat of Pavia_ Francis I is taken prisoner"
"Moyen-âge","26 août 1346","medium","Défaite des armées françaises à Crécy face aux Anglais","Defeat French armies in Crécy against the English"
"contemporaine","7 mai 1954","medium","Défaite française à Dien Biên Phû","French defeat at Dien Biên Phû"
"contemporaine","20 janvier 1946","medium","Démission du général De Gaulle opposé au régime « des partis »","Resignation of General De Gaulle opposed to the regime of parties "
"contemporaine","13 juillet 1870","medium","Dépêche d’Ems de Bismarck_ est un imbroglio diplomatique (mauvaise lecture d’un télégramme)_ qui a servi de prétexte pour engager la guerre franco-allemande","Dispatch of Ems Bismarck_ is a diplomatic imbroglio (bad reading of a telegram)_ which served as a pretext to engage the Franco-German war"
"Moyen-âge","24 juin 1340","medium","Destruction de la flotte française lors de la bataille de l’Écluse (près de Bruges)","Destruction of the French fleet during the Battle of the Lock (near Bruges)"
"contemporaine","5 novembre 1827","medium","Dissolution de la Chambre des députés","Dissolution of the Chamber of Deputies"
"contemporaine","15 mai 1991","medium","Édith Cresson est la première femme à devenir premier ministre","Edith Cresson is the first woman to become prime minister"
"Moyen-âge","7 octobre 1337","medium","Édouard III d’Angleterre revendique le trône de France","Edward III of England claims the throne of France"
"contemporaine","19 décembre 1965","medium","Élection du général De Gaulle à la présidence de la république au second tour (55%) au suffrage universel","Election of General De Gaulle to the presidency of the republic in the second round (55%) by universal suffrage"
"contemporaine","3 mai 1814","medium","Entrée de Louis XVIII à Paris","Entry of Louis XVIII in Paris"
"moderne","7-24 juin  1520","medium","Entrevue du Camp du Drap d’Or. François Ier rencontra Henri VIII d’Angleterre qui resta neutre Face à Charles Quint","Interview of the Camp Drap dOr. Francis I met Henry VIII of England who remained neutral Facing Charles V"
"contemporaine","7 juillet 1904","medium","Exclusion des congrégations de l’enseignement (Loi Combes)","Exclusion of Congregations of Education (Combes Law)"
"contemporaine","25 avril 1905","medium","Fondation de la Section Française de l’Internationale Ouvrière (SFIO)","Foundation of the French Section of the Workers International (SFIO)"
"antique",-598,"medium","Fondation Marseille par les Grecs (Phocéens)","Marseille Foundation by the Greeks (Phoenicians)"
"Moyen-âge","25 décembre 1066","medium","Guillaume de Normandie est couronné roi d’Angleterre à Westminster","William of Normandy is crowned King of England at Westminster"
"Moyen-âge","Mai 987","medium","Hugues Capet_ comte de Paris et d’Orléans est élu roi à Senlis par les Grands du Royaume","Hugues Capet_ Count of Paris and Orleans is elected king in Senlis by the Grands of the Kingdom"
"contemporaine","24 août 1837","medium","Inauguration de la première voie de chemin de fer entre Paris et Orléans","Inauguration of the first railway line between Paris and Orleans"
"Moyen-âge",1309,"medium","Installation du pape Clément V en Avignon","Installation of Pope Clement V in Avignon"
"Moyen-âge","19 septembre 1356","medium","Jean II est fait prisonnier par les Anglais lors de la défaite de Poitiers","John II is taken prisoner by the English during the defeat of Poitiers"
"Moyen-âge","23 mai 1430","medium","Jeanne d’Arc est capturée par les Bourguignons devant Compiègne","Jeanne dArc is captured by the Burgundians in front of Compiegne"
"moderne","12 mai 1588","medium","Journée des barricades_ insurrection des Parisiens contre Henri III","Day of the barricades_ insurrection of the Parisians against Henry III"
"moderne","11 novembre 1630","medium","Journée des dupes_ le roi confirme Richelieu dans ses fonctions","Day of the dupes_ the king confirms Richelieu in his functions"
"contemporaine","5 juillet 1974","medium","L’âge de la majorité est abaissé à 18 ans","The age of majority is lowered to 18 years"
"moderne","20 avril 1792","medium","L’Assemblée législative déclare la guerre au roi de Bohême et de Hongrie","The Legislative Assembly declares war on the King of Bohemia and Hungary"
"moderne","4 août 1789","medium","L’assemblée vote l’abolition des privilèges","The Assembly votes the abolition of privileges"
"contemporaine","23 mai 1915","medium","L’Italie déclare la guerre à la l’Autriche-Hongrie","Italy declares war on Austria-Hungary"
"contemporaine","17 septembre 1793","medium","La Convention adopte la Loi des suspects_  début de la terreur","Convention adopts Law of suspects_ beginning of terror"
"moderne","10 juillet 1778","medium","La France déclare la guerre à l’Angleterre car elle cherche à récupérer de l'influence_ voire des territoires d'Amérique du Nord cédés à la Grande-Bretagne lors du traité de Paris de 1763. ","France declares war on England because it seeks to recover influence_ even territories of North America ceded to Britain during the treaty of Paris in 1763."
"contemporaine","1 juillet 1966","medium","La France se retire du dispositif intégré de l’OTAN","France withdraws from the integrated NATO system"
"moderne","27 décembre 1788","medium","Le Conseil royal décide de la double représentation du tiers-état","The Royal Council decides on the dual representation of the third-state"
"Moyen-âge","30 octobre 1422","medium","Le dauphin (héritier de la couronne) se proclame roi à Bourges","The dolphin (heir to the crown) proclaims himself king in Bourges"
"contemporaine","13 mai 1958","medium","Le général Massu lance l’insurrection en Algérie et crée un comité de salut public et appelle de Gaulle","General Massu launches insurrection in Algeria and creates a committee of public safety and calls de Gaulle"
"contemporaine","26 mars 1918","medium","Le maréchal Foch est nommé généralissime des forces alliées","Marshal Foch is named Generalissimo of the Allied Forces"
"contemporaine","24 mai 1873","medium","Le maréchal Mac-Mahon est élu président de la république","Marshal Mac-Mahon is elected President of the Republic"
"moderne","4 octobre 1511","medium","Le pape Jules II crée la Sainte Ligue contre la France. Excommunication de Louis XII","Pope Julius II creates the Holy League against France_ excommunication of Louis XII"
"moderne","16 juillet 1789","medium","Le roi ordonne le renvoi des troupes rassemblées autour de Paris et signe l'ordre de rappel  Necker_ qui tente de s’opposer à la confiscation des biens du clergé.","The king orders the dismissal of the troops gathered around Paris and signs the recall order Necker_ who tries to oppose the confiscation of the property of the clergy."
"contemporaine","7 août 1913","medium","Le service militaire et porté à trois ans","Military service and increased to three years"
"moderne","17 juin 1789","medium","Le Tiers-état se proclame assemblée nationale (490 pour et 90 contre)","The Third Estate proclaims itself national assembly (490 for and 90 against)"
"contemporaine","13 février 1937","medium","Léon Blum annonce une pause dans les réformes","Léon Blum announces a pause in the reforms"
"contemporaine","5 octobre 1944","medium","Les femmes acquièrent le droit de vote","Women acquire the right to vote"
"moderne","30 septembre 1681","medium","Les français s’emparent de Strasbourg","The French seize Strasbourg"
"moderne","23 août 1568","medium","Les Protestants reprennent les armes_ début de la troisième guerre de religion","Protestants take up arms again_ beginning of the third religious war"
"contemporaine","21 mars 1884","medium","Loi « Wladeck-Rousseau » reconnaissant le droit syndical","Law Wladeck-Rousseau recognizing the right to organize"
"contemporaine","28 juillet 1999","medium","Loi instituant la Couverture Maladie Universelle (CMU)","An Act to establish Universal Health Coverage (CMU)"
"contemporaine","1 juillet 1901","medium","Loi sur les associations à but non lucratif","Law on non-profit associations"
"moderne","1er novembre 1511","medium","Louis XII réunit un concile à Pise qui suspend Jules II (pape)","Louis XII convenes a council in Pisa that suspends Julius II (Pope)"
"moderne","7 septembre 1651","medium","Louis XIV est officiellement reconnu majeur","Louis XIV is officially recognized major"
"moderne","17 juillet 1789","medium","Louis XVI reçoit de La Fayette la cocarde tricolore à l’hôtel de ville","Louis XVI receives from La Fayette the tricolor cockade at City Hall"
"contemporaine","24 février 1848","medium","Louis-Philippe abdique en faveur de son petit-fils_ le comte de Paris_ ce que la chambre refuse","Louis-Philippe abdicates in favor of his grandson_ the Count of Paris_ what the room refuses"
"contemporaine","9 août 1830","medium","Louis-Philippe Ier devient roi des Français_ début de la monarchie de Juillet","Louis-Philippe I becomes king of the French_ beginning of the monarchy of July"
"contemporaine","17 février 1864","medium","Manifeste des soixante proclamant le besoin de représentation des ouvriers","Manifesto of the Sixty proclaiming the need for representation of the workers"
"Moyen-âge","28 janvier 814 ","medium","Mort de Charlemagne à Aix-la-Chapelle_ son fils Louis lui succède","Death of Charlemagne at Aix-la-Chapelle_ his son Louis succeeds him"
"moderne","10 juin 1584","medium","Mort de François d’Anjou_ Henri de Navarre devient héritier du trône de France","Death of François dAnjou_ Henry of Navarre becomes heir to the throne of France"
"moderne","1 septembre 1715","medium","Mort de Louis XIV_ son arrière-petit-fils Louis_ lui succède","Death of Louis XIV_ his great-grandson Louis_ succeeds him"
"moderne","4 décembre 1642","medium","Mort de Richelieu_ le cardinal Mazarin le remplace","Death of Richelieu_ Cardinal Mazarin replaces him"
"antique","Janvier 395","medium","Mort de Théodose_ l’empire romain est désormais séparé entre Orient et Occident","Death of Theodosius_ the Roman Empire is now separated between East and West"
"contemporaine","4 avril 1814","medium","Napoléon abdique à Fontainebleau sans conditions","Napoleon abdicates to Fontainebleau without conditions"
"contemporaine","6 juillet 1809","medium","Napoléon fait arrêter le pape_ et remporte la victoire contre l’Autriche à Wagram","Napoleon makes the pope stop_ and wins the victory against Austria in Wagram"
"contemporaine","20 mars 1815","medium","Napoléon retourne en France et entre à Paris","Napoleon returns to France and enters Paris"
"contemporaine","1 mars 1815","medium","Napoléon s’évade de l’île d’Elbe et débarque à Golfe-Juan (Provence)","Napoleon escapes from the island of Elba and arrives at Golfe-Juan (Provence)"
"moderne","27 octobre 1614","medium","Ouverture des États Généraux (assemblée extraordinaire réunissant les trois ordres (les états) de la société : la noblesse_ le clergé et le tiers état (le reste))_ avec pour objectif d’affermir le nouveau pouvoir royal face aux manœuvres des grands féodaux","Opening of the States General (extraordinary meeting bringing together the three orders (states) of the society: the nobility_ the clergy and the third state (the rest))_ with for objective to consolidate the new royal power vis-a-vis the maneuvers of the big feudal "
"moderne","5 mai 1789","medium","Ouverture des États Généraux à Versailles","Opening of the States General at Versailles"
"moderne","19 mars 1563","medium","Paix d’Amboise accordant liberté de culte et de conscience aux Protestants chez eux","Peace of Amboise granting freedom of worship and conscience to Protestants at home"
"Moyen-âge","24 octobre 1360","medium","Paix de Calais_ ratification du traité de Brétigny (trève de 9 ans dans la guerre de cent ans)","Peace of Calais_ ratification of the Treaty of Brétigny (truce 9 years in the Hundred Years War)"
"moderne","23 mars 1568","medium","Paix de Longjumeau mettant fin à la 2eme guerre de religion en confirmant l’édit d’Amboise","Peace of Longjumeau ending the 2nd war of religion by confirming the Edict of Amboise"
"moderne","8 août 1570","medium","Paix de Saint-Germain mettant fin à la 3eme guerre de religion et accordant des places fortes aux Protestants","Peace of St. Germain ending the Third War of Religion and granting strongholds to Protestants"
"moderne","29 novembre  1516","medium","Paix perpétuelle entre François Ier et les cantons suisses","Perpetual peace between Francis I and the Swiss cantons"
"Moyen-âge",751,"medium","Pépin est élu roi à Soissons par une assemblée de nobles et d’évêques","Pepin is elected king in Soissons by an assembly of nobles and bishops"
"contemporaine","10 juillet 1940","medium","Pétain abroge la constitution de la IIIeme République et devient chef de l’état","Petain repeals the constitution of the Third Republic and becomes head of state"
"Moyen-âge","Mars 845","medium","Pillage de Paris par les Normands_ Charles paye une rançon contre leur départ","Pillage of Paris by the Normans_ Charles pays a ransom against their departure"
"contemporaine","23 juillet 1926","medium","Poincaré prend la tête d’un gouvernement d’union nationale","Poincaré takes the head of a government of national unity"
"contemporaine","10 février 1998","medium","Première loi Aubry sur les 35 heures (35 heures de travail)","First law Aubry on 35 hours (35 hours of work)"
"antique",286,"medium","Premières incursions des Burgondes en Gaule","First incursions of the Burgundians in Gaul"
"antique",253,"medium","Premières incursions des Francs en Gaule","First incursions of the Franks in Gaul"
"contemporaine","5 juillet 1830","medium","Prise d’Alger par les troupes françaises_ exil du dey (le dey d’Alger est le titre des souverains de la régence d'Alger sous l'autorité nominale de l'Empire ottoman)","Capture of Algiers by the French troops_ exile dey (the dey of Algiers is the title of the sovereigns of the regency of Algiers under the nominal authority of the Ottoman Empire)"
"Moyen-âge","4 août 1347","medium","Prise de Calais par Édouard III d’Angleterre","Calais taken by Edward III of England"
"Moyen-âge","15 juillet 1099","medium","Prise de Jérusalem par les croisés qui vont se livrer au pillage et au massacre de la population","Taking of Jerusalem by the Crusaders who will engage in the looting and massacre of the population"
"moderne","10 août 1792","medium","Prise du Palais des Tuileries (600† parmi les gardes suisses et 100† parmi le peuple)","Capture of the Tuileries Palace (600 † among the Swiss guards and 100 † among the people)"
"contemporaine","27 février 1998","medium","Publication de la liste de onze pays répondant aux critères économiques en vue de l’instauration de l’Euro","Publication of the list of eleven countries meeting the economic criteria for the establishment of the Euro"
"contemporaine","1 juin 1958","medium","Rappelé par le président_ De Gaulle devient président du Conseil","Recalled by the president_ De Gaulle becomes president of the Council"
"contemporaine","31 mai 1850","medium","Réforme électorale restreignant le suffrage universel_ amputant d’un tiers le corps électoral","Electoral Reform Restricting Universal Suffrage_ Cutting the Electoral Body by a Third"
"contemporaine","3 - 4 avril 2009","medium","Réintégration de la France dans le commandement intégré de l'OTAN","Frances reintegration into NATOs integrated command"
"Moyen-âge",830,"medium","Révolte des grands du royaume contre Louis le Pieux","Revolt of the great of the kingdom against Louis the Pious"
"contemporaine","21 juillet 1954","medium","Signature des accords de Genève mettant fin à la guerre d’Indochine","Signature of the Geneva Accords Ending the Indochina War"
"contemporaine","15 juillet 1801","medium","Signature du Concordat_ ce dernier organise les rapports entre les différentes religions et l’État dans toute la France","Signature Concordat_ the latter organizes the relationship between different religions and the state throughout France"
"contemporaine","28 juin 1919","medium","Signature du traité de Versailles où la France obtient l’Alsace-Lorraine_ des indemnités et occupe la rive gauche du Rhin","Signature of the Treaty of Versailles where France obtains Alsace-Lorraine_ compensation and occupies the left bank of the Rhine"
"moderne","3 août 1529","medium","Traité de Cambrai (Paix des Dames). François Ier conserve la Bourgogne et verse une rançon pour récupérer ses fils","Treaty of Cambrai (Peace of the Ladies). Francis I preserves Burgundy and pays a ransom to recover his sons "
"moderne","15 janvier 1552","medium","Traité de Chambord entre Henri II et les princes allemands contre Charles Quint","Treaty of Chambord between Henry II and the German princes against Charles V"
"moderne","6 février 1778","medium","Traité de commerce et d’alliance entre la France et les États-Unis","Treaty of Commerce and Alliance between France and the United States"
"Moyen-âge","21 mai 1420","medium","Traité de Troyes entre Philippe le Bon_ Charles VI et Henri V. Le dauphin (héritier de la couronne) perd le trône de France","Treaty of Troyes between Philip the Good_ Charles VI and Henry V. The dolphin (heir to the crown) loses the throne of France"
"moderne","24 octobre 1648","medium","Traité de Westphalie_ il met fin à la guerre de trente ans avec l’Espagne","Treaty of Westphalia_ it puts an end to the war of thirty years with Spain"
"contemporaine","12 mai 1881","medium","Traité du Bardo_ la Tunisie devient protectorat français","Treaty of Bardo_ Tunisia becomes French protectorate"
"Moyen-âge","27 novembre 1095","medium","Urbain II prêche la première croisade lors du concile de Clermont","Urban II preaches the first crusade at the Council of Clermont"
"antique",-53,"medium","Victoire de Jules César contre les Belges_  fin de la ‘Guerre des Gaules’","Victory of Julius Caesar against the Belgians_ end of the Gallic Wars"
"antique",-58,"medium","Victoire de Jules César contre les Helvètes_ début de la ‘Guerre des Gaules’","Victory of Julius Caesar against the Helvetii_ beginning of the Gallic Wars"
"contemporaine","8 février 1807","medium","Victoire de Napoléon contre les Russes à Eylau","Victory of Napoleon against the Russians in Eylau"
