"period","date","level","fact_fr","fact_be"
"contemporaine","18 septembre 1981","easy","Abolition de la peine de mort","Адмена смяротнага пакарання"
"moderne","26 août 1789","easy","Adoption de la déclaration des droits de l’Homme et du citoyen","Прыняцце Дэкларацыі правоў чалавека і грамадзяніна"
"contemporaine","14 janvier 1930","easy","Adoption de la loi Maginot instaurant une ligne de défense","Прыняцце закона Магіно аб усталяванні лініі абароны"
"contemporaine","13 octobre 1946","easy","Adoption de la nouvelle constitution (IVeme république) par référendum","Прыняцце новай канстытуцыі (Чацвёртая Рэспубліка) на рэферэндуме"
"contemporaine","28 septembre 1958","easy","Approbation de la constitution de la Veme république par référendum (79% de oui)","Зацвярджэнне канстытуцыі Пятай рэспублікі на рэферэндуме (так_ 79%)"
"contemporaine","28 janvier 1871","easy","Armistice franco-allemand_ capitulation de Paris","Франка-нямецкае пераміре_ капітуляцыя Парыжа"
"moderne","21 juin 1791","easy","Arrestation de la famille royale à Varennes","Арышт каралеўскай сямі ў Варэне"
"contemporaine","16-17 juillet 1942","easy","Arrestation de nombreux Juifs parisiens lors de la rafle du « Vel’ d’hiv »","Арышт многіх парыжскіх габрэяў падчас рэйду на Vel dhiv "
"Moyen-âge","13 octobre 1307","easy","Arrestation des Templiers en France","Арышт тампліераў у Францыі"
"contemporaine","31 juillet 1914","easy","Assassinat à Paris de Jean Jaurès hostile à la guerre par R. Villain","Забойства Р. Зладне ў Парыжы на Жана Жарэса_ варожага вайне"
"contemporaine","28 juin 1914","easy","Assassinat de l’archiduc François-Ferdinand d’Autriche à Sarajevo_ ce tragique évènement augmenta les tensions existantes","Забойства эрцгерцага Франца Фердынанда Аўстрыі ў Сараеве_ гэтая трагічная падзея павялічыла існуючую напружанасць"
"Moyen-âge","25 décembre 498","easy","Baptême de Clovis à Reims","Хрышчэнне Хлодвіга ў Рэймсе"
"contemporaine","11 novembre 1918","easy","Capitulation de l’Allemagne à Rethondes","Капітуляцыя Германіі на рэтрандзе"
"moderne","5 et 6 octobre 1789","easy","Ces deux jours font partis des « grandes journées » de la Révolution française et ont abouti au retour définitif et contraint du roi Louis XVI et de sa famille à Paris_ « Journées d’octobre ». La foule envahit le château de Versailles","Гэтыя два дні зяўляюцца часткай вялікіх дзён французскай рэвалюцыі і прывялі да канчатковага і прымусовага вяртання караля Людовіка XVI і яго сямі ў Парыж Дні кастрычніка . Натоўп уварваецца ў Версальскі палац."
"Moyen-âge","25 décembre 800","easy","Charlemagne est couronné empereur de l’empire des Romains à Rome par le pape Léon III","Карл Вялікі каранаваны імператарам Рымскай імперыі ў Рыме папам Львом III"
"Moyen-âge",732,"easy","Charles Martel remporte la bataille à Poitiers contre les Musulmans mettant fin à l’invasion sarrasine en France","Шарль Мартэль выйграе бітву ў Пуацье супраць мусульман_ якія спыняюць нашэсце Сарацына ў Францыі"
"contemporaine","4 septembre 1870","easy","Chute du Second Empire. Proclamation de la République","Падзенне другой імперыі_ абвяшчэнне рэспублікі"
"Moyen-âge",481,"easy","Clovis roi des Francs. Avènement de Clovis_ qui devient roi des Francs","Кароль Франкаў Хлодвіга_ зяўленне Хловіса_ які становіцца каралём франкаў"
"contemporaine","20 août 1857","easy","Condamnation de Baudelaire pour les « Fleurs du mal »","Асуджэнне Бадлера за Кветкі зла "
"contemporaine","18 mai 1804","easy","Constitution de l’An XII_ Napoléon devient empereur","Канстытуцыя XII года_ Напалеон становіцца імператарам"
"contemporaine","1 janvier 1958","easy","Création de la Communauté Économique Européenne (CEE)","Стварэнне Еўрапейскай эканамічнай супольнасці (ЕЭС)"
"contemporaine","22 juillet 1940","easy","Création des Forces Françaises Libres (FFL)_ nom donné aux forces armées ralliées à la France libre sous l'égide du général de Gaulle","Стварэнне свабодных французскіх сіл (FFL)_ назва якой узброеныя сілы абядналіся ў вызваленне Францыі пад эгідай генерала дэ Голя"
"contemporaine",2015,"easy","Crise migratoire_ plus d’un million de migrants sont arrivés cette année-là en Europe","Міграцыйны крызіс_ у гэты год у Еўропу прыбыло больш за мільён мігрантаў"
"contemporaine","21 décembre 1958","easy","De Gaulle devient président de la République","Дэ Голь становіцца прэзідэнтам Рэспублікі"
"contemporaine","2 juin 1958","easy","De Gaulle obtient les pleins pouvoirs constitutionnels","Дэ Гол атрымлівае поўныя канстытуцыйныя паўнамоцтвы"
"contemporaine","6 juin 1944","easy","Débarquement allié en Normandie (opération Overlord)","Дэсант саюзнікаў у Нармандыі (аперацыя Overlord)"
"contemporaine","27 juillet 1830","easy","Début de l’insurrection à Paris (Les Trois Glorieuses)_ la révolution de Juillet est la deuxième révolution française","Пачатак паўстання ў Парыжы (Тры слаўныя)_ ліпеньская рэвалюцыя - другая французская рэвалюцыя"
"contemporaine","21 février 1916","easy","Début de l’offensive allemande sur Verdun","Пачатак нямецкага наступлення на Вердэн"
"contemporaine","7 novembre 1917","easy","Début de la « Révolution d’octobre » en Russie_ un mois après l'Armistice de Brest-Litovsk entre la Russie et l’Allemagne est conclue","Пачатак Кастрычніцкай рэвалюцыі ў Расіі_ праз месяц пасля таго_ як Брэсцкае пераміре паміж Расіяй і Германіяй было заключана_"
"contemporaine","6-13 septembre 1914","easy","Début de la bataille de la Marne","Пачатак бітвы пры Марне"
"contemporaine","6 mai 1968","easy","Début des manifestations d'étudiants_ ainsi que des grèves générales et sauvages_ plus connu sous le nom de Mai…","Пачатак студэнцкіх дэманстрацый_ а таксама ўсеагульныя і дзікія страйкі_ больш вядомыя як Май ..."
"contemporaine","19 juillet 1870","easy","Déclaration de guerre à la Prusse","Абвяшчэнне вайны Прусіі"
"contemporaine","21 septembre 1792","easy","Déclaration de la république_  An I de la république","Дэкларацыя Рэспублікі_ I год Рэспублікі"
"contemporaine","18 juin 1815","easy","Défaite de Napoléon à Waterloo","Параза Напалеона ў Ватэрлоо"
"contemporaine","25-29 nov. 1812","easy","Désastre de la Bérézina_ les troupes impériales en retraite subissent de grosse perte face une armée russe inférieure en nombre. Ce fait a tellement marqué la mémoire française_ que l’expression « C'est une Bérézina » est fréquemment utilisée pour caractériser une déroute sur le plan sportif ou électoral","Катастрофа Бярэзіны_ адступаючыя імперскія войскі панеслі вялікую страту перад саступаючым расійскай арміі па колькасці. Гэты факт настолькі азначыў французскую памяць_ што выраз Гэта Беразіна часта выкарыстоўваецца для характарыстыкі паразы спартыўныя або электаральныя "
"contemporaine","23 décembre 1973","easy","Doublement du prix du pétrole brut lors de la réunion de l’Opep à Téhéran_  début de la première crise pétrolière","Падваенне коштаў на нафту на пасяджэнні АПЕК у Тэгеране_ пачатак першага нафтавага крызісу"
"moderne","18 octobre 1685","easy","Édit de Fontainebleau révoquant l’édit de Nantes","Эдыкт Фонтенбло адмяняе Нантскі эдыкт"
"moderne","13 avril 1598","easy","Édit de Nantes_ le catholicisme est religion d’état et le protestantisme minorité reconnue","Нантскі эдыкт_ каталіцызм - дзяржаўная рэлігія_ а пратэстантызм прызнаны меншасцю"
"moderne","17 janvier 1562","easy","Édit de Saint-Germain réglementant l’exercice du culte protestant","Сен-Жэрменскі эдыкт_ які рэгулюе ажыццяўленне пратэстанцкіх набажэнстваў"
"moderne","Août 1539","easy","Édit de Villers-Cotterêts instituant le français comme langue officielle du royaume","Вікт-Уілер-Котэрэц_ які ўстанаўлівае французскую мову як афіцыйную мову каралеўства"
"contemporaine","16 mai 2007","easy","Election de Nicolas Sarkozy à la présidence de la république","Выбары Нікаля Сарказі ў прэзідэнты рэспублікі"
"contemporaine","7 mai 2017","easy","Emmanuel Macron devient le 8e président de la République.","Эмануэль Макрон становіцца 8-м прэзідэнтам рэспублікі."
"contemporaine",2002,"easy","Entrée en vigueur de l’Euro (1er janvier). Jacques Chirac est réélu président","Уступленне ў сілу Еўра (1 студзеня) Жак Шырак пераабраны прэзідэнтам"
"Moyen-âge","30 mai 1431","easy","Exécution de Jeanne d’Arc place du vieux marché à Rouen","Месца расстрэлу Жанны дАрк на старым рынку ў Руане"
"contemporaine","16 octobre 1793","easy","Exécution de Marie-Antoinette","Расстрэл Марыі Антуанетты"
"contemporaine","21 janvier 1793","easy","Exécution du roi Louis XVI","Расстрэл караля Людовіка XVI"
"contemporaine","28 juillet 1794","easy","Exécution sans jugement de Robespierre_ Saint-Just et leurs amis","Расстрэл без прысуду Рабеспера_ Сэнт-Юста і іх сяброў"
"antique","août 476","easy","Fin de l’empire romain d’Occident. Romulus Augustule est déposé_ marquant la fin de l’empire romain d’Occident","Канец Рымскай імперыі Захаду адкладзены Ромулам Аўгустулем_ што азначае канец Заходняй Рымскай імперыі"
"antique",-43,"easy","Fondation de la colonie romaine de Lugdunum (Lyon)","Фонд рымскай калоніі Лугдун (Ліён)"
"antique",-118,"easy","Fondation de Narbonne par les Romains","Фонд Нарбоны рымлянамі"
"contemporaine","15 mai 2012","easy","François Hollande devient président de la république.","Франсуа Аланд становіцца прэзідэнтам рэспублікі."
"contemporaine","8 mai 1988","easy","François Mitterrand (54_01 %) est réélu président de la république devant Jacques Chirac","Франсуа Мітэран (54_01%) абраны прэзідэнтам рэспублікі перад Жак Шыракам"
"moderne","20 juin 1791","easy","Fuite de la famille royale","Уцёкі з каралеўскай сямі"
"contemporaine","15 juin 1969","easy","Georges Pompidou remporte les élections (58%) présidentielles devant Alain Poher","Жорж Помпіду перамог на прэзідэнцкіх выбарах (58%) наперадзе Алёна Похера"
"Moyen-âge",1348,"easy","Grande Peste en France","Вялікая чума ў Францыі"
"moderne","13 juin 1576","easy","Henri de Navarre abjure le catholicisme et reprend la tête du parti protestant","Анры дэ Навара адмовіўся ад каталіцтва і прыме кіраўніка пратэстанцкай партыі"
"moderne","25 juillet 1593","easy","Henri IV abjure le protestantisme et devient catholique. « Paris vaut bien une messe »","Генрых IV адмовіўся ад пратэстантызму і стаў каталіком. Парыж варта імшы "
"contemporaine","7 mai 1995","easy","Jacques Chirac (52_64%) remporte au second tour les élections présidentielles","Жак Шырак (52_64%) перамог у другім туры прэзідэнцкіх выбараў"
"Moyen-âge","8 mai 1429","easy","Jeanne d’Arc délivre Orléans","Жанна дАрк дастаўляе Арлеан"
"contemporaine","3 août 1914","easy","L’Allemagne déclare la guerre à la France","Германія абяўляе вайну Францыі"
"contemporaine","1 août 1914","easy","L’Allemagne déclare la guerre à la Russie","Германія абяўляе вайну Расіі"
"contemporaine","4 août 1914","easy","L’Angleterre déclare la guerre à l’Allemagne suite à la violation de la neutralité belge","Англія абяўляе вайну Германіі пасля парушэння бельгійскага нейтралітэту"
"contemporaine","23 juin 1916","easy","L’offensive allemande sur Verdun est stoppée","Нямецкае наступленне на Вердэн спынена"
"antique",-52,"easy","La bataille d’Alésia. Échec de l’insurrection des Gaules de Vercingétorix","Бітва пад Алесіяй_ правал паўстання галій Верцынгэторыкса"
"contemporaine","18 décembre 1916","easy","La bataille de Verdun s’achève sur une victoire française","Бітва пры Вердэне заканчваецца перамогай Францыі"
"Moyen-âge","19 octobre 1453","easy","La capitulation de Bordeaux marque la fin de la guerre de Cent Ans et le retour de la Guyenne (ancienne province_ située dans le sud-ouest de la France) sous domination française","Капітуляцыя Бардо азначае канец Стогадовай вайны і вяртанне Гаены (былой правінцыі_ размешчанай на паўднёвым захадзе Францыі) пад французскае панаванне"
"moderne","14 juillet 1789","easy","La foule s’empare de la Bastille et massacre De Launay_ son gouverneur (date de la fête nationale française)","Натоўп захоплівае Бастылію і праводзіць масавыя забойствы дэ Лано_ яе губернатара (дата нацыянальнага свята Францыі)"
"contemporaine",2015,"easy","La France est la cible d’une série d’attentats_ revendiqués par des terroristes se disant islamistes","Францыя зяўляецца абектам шэрагу нападаў_ на якія тэрарысты называюць сябе ісламістамі"
"contemporaine","3 septembre 1939","easy","La France et l’Angleterre déclarent la guerre à l’Allemagne (début de la Seconde Guerre Mondiale pour la France)","Францыя і Англія абяўляюць Германіі вайну (пачатак Другой сусветнай вайны для Францыі)"
"contemporaine","2 septembre 1939","easy","La France ordonne la mobilisation générale","Францыя загадвае на ўсеагульную мабілізацыю"
"contemporaine","28 avril 1969","easy","Le général De Gaulle annonce sa démission_ suite à l’échec du référendum sur la régionalisation du Sénat","Генерал Дэ Голь абяўляе аб адстаўцы пасля правалу рэферэндуму аб рэгіяналізацыі Сената"
"contemporaine","10 juillet 1940","easy","Le Parlement accorde au maréchal Pétain les pleins pouvoirs (569 voix pour 80 contre et 17 absentions)","Парламент надзяляе маршала Петэна поўнымі паўнамоцтвамі (569 галасоў за супраць і 17 устрыманых)"
"contemporaine","21 juin 1981","easy","Le parti socialiste remporte les élections législatives suite à la dissolution","Сацыялістычная партыя перамагла на парламенцкіх выбарах пасля роспуску"
"antique",-390,"easy","Le Sac de Rome. Les Gaulois de Brennus s’emparent de Rome après 7 mois de siège et se retire contre une forte rançon","Рымская сумка: Галіі Брэна захапілі Рым пасля 7 месяцаў аблогі і выйшлі супраць моцнага выкупу"
"contemporaine","2007-2009","easy","Le traité de Lisbonne donne naissance à une nouvelle entité juridique : l’Union Européenne","Лісабонская дамова нараджае новую юрыдычную асобу: Еўрапейскі саюз"
"Moyen-âge",711,"easy","Les Arabes débarquent en Espagne","Арабы прызямляюцца ў Іспаніі"
"Moyen-âge","10 avril 1302","easy","Les États Généraux confirme l’indépendance du roi face au pape","Генеральны штат пацвярджае незалежнасць караля ад папы рымскага"
"contemporaine","2 avril 1917","easy","Les États-Unis déclarent la guerre à l’Allemagne","ЗША абяўляюць Германіі вайну"
"Moyen-âge","24 juin  843","easy","Les Normands s’emparent de Nantes","Нарманы захапілі Нант"
"Moyen-âge","1 novembre 1337","easy","Lettre de défi d’Édouard III_ Début de la guerre de cent ans","Ліст з выклікам Эдуарда III_ пачатак стогадовай вайны"
"contemporaine","25 août 1944","easy","Libération de Paris","Вызваленне Парыжа"
"contemporaine","5 avril 1884","easy","Loi d’organisation municipale prévoyant le suffrage universel pour les élections","Закон аб муніцыпальнай арганізацыі_ які прадугледжвае ўсеагульныя выбары"
"contemporaine","16 juin 1881","easy","Loi Jules Ferry sur la gratuité de l’enseignement primaire","Закон Джуля Фэры аб бясплатнай пачатковай адукацыі"
"contemporaine","9 mars 1868","easy","Loi rétablissant la liberté de la presse","Акт аб аднаўленні свабоды друку"
"contemporaine","29 juillet 1881","easy","Loi sur la liberté de la presse","Закон аб свабодзе друку"
"contemporaine","30 juin 1881","easy","Loi sur la liberté de réunion","Закон аб свабодзе сходаў"
"contemporaine","10 juin 1794","easy","Lois de prairial sur le tribunal révolutionnaire_ début de la Grande Terreur","Законы пра малітву аб Рэвалюцыйным трыбунале_ пачатак вялікага тэрору"
"Moyen-âge",817,"easy","Louis Ier proclame (Ordinatio imperii) son fils Lothaire empereur rompant avec la tradition Franque (Partage)","Людовік I абвяшчае (Ordinatio imperii) свайго сына імператарам Лотэрам_ які парушае традыцыі Франка (Партаж)"
"contemporaine","10 décembre 1848","easy","Louis-Napoléon Bonaparte est élu président de la République (74_2%)","Луі-Напалеон Банапарт абраны прэзідэнтам рэспублікі (74_2%)"
"moderne","24 août 1572","easy","Massacre de la Saint-Barthélemy_ mort de Coligny_ abjuration de Condé et de Henri de Navarre_ début du siège de La Rochelle et de la quatrième Guerre de religion","Разня святога Варфаламея_ смерць Калініі_ апраўданне Кандэ і Генрыха Наварскага_ пачатак блакады Ла-Рашэль і чацвёртая вайна рэлігіі"
"moderne","1 mars 1562","easy","Massacre des protestants à Wassy par le duc de Guise_ permière guerre de religion","Разня пратэстантаў у Васале герцагам Гіз_ першая рэлігійная вайна"
"Moyen-âge","24 septembre 768","easy","Mort de Pépin le bref à Saint-Denis_ son fils Charlemagne lui succède","Смерць Пепіна ў Сэнт-Дэні_ ягоны сын Карл Вялікі атрымае поспех"
"contemporaine","18 septembre 1812","easy","Napoléon quitte Moscou en flammes_ début de la retraite de Russie","Напалеон пакідае Маскву ў полымі_ датэрмінова сыходзіць з Расіі"
"moderne","1 juillet 1573","easy","Paix de La Rochelle accordant liberté de conscience et de culte à La Rochelle_ Nîmes et Montauban","Ла-Рашэльскі мір_ які дае свабоду сумлення і набажэнства ў Ла-Рашэлі_ Нім і Монтобане"
"contemporaine","2 décembre 1852","easy","Proclamation du Second Empire","Абвяшчэнне Другой імперыі"
"contemporaine","4 mai 1848","easy","Proclamation officielle de la République par l’Assemblée","Афіцыйнае абвяшчэнне Рэспублікі Асамблеяй"
"contemporaine","21 mars 1804","easy","Promulgation du Code Civil","Абнародаванне грамадзянскага кодэкса"
"contemporaine","20 septembre 1992","easy","Référendum sur le traité de Maastricht (51_04 % de oui)","Рэферэндум аб Маастрыхцкім дагаворы (так_ 51_04%)"
"contemporaine","2 décembre 1804","easy","Sacre de Napoléon en présence de Pie VII à Notre-Dame","Абрад Напалеона ў прысутнасці Пія VII у Нотр-Даме"
"Moyen-âge","7 juillet 1438","easy","Sanction de Bourges de Charles VII affranchissant l’église de la tutelle du pape","Санкцыя Бурж Карла VII у падтрымку царквы апекі папы"
"moderne","20 juin 1789","easy","Serment du jeu de paume : l’Assemblée Nationale se proclame Assemblée Nationale Constituante","Прысяга гульні на далоні: Нацыянальны сход абвяшчае Нацыянальны ўстаноўчы сход"
"contemporaine","22 juin 1940","easy","Signature de l’armistice à Rethondes_  la moitié nord et les côtes atlantiques sont occupés par l’armée allemande","Подпіс аб перамірі ў Рэтондах_ паўночнай палове і Атлантычным узбярэжжы занятыя нямецкай арміяй"
"contemporaine","8-9 mai 1945","easy","Signature officielle de la capitulation allemande par le général Keitel à Berlin","Афіцыйнае падпісанне нямецкай капітуляцыі генералам Кейтэлем у Берліне"
"contemporaine","25 mai 1864","easy","Suppression du droit de coalition accordant ainsi le droit de grève","Падаўленне права кааліцыі_ такім чынам_ права на страйк"
"contemporaine","31 août 1871","easy","Thiers est élu président de la république et l’assemblée nationale devient constituante","Тыер выбіраецца прэзідэнтам рэспублікі_ а нацыянальны сход становіцца канстытуцыйным"
"contemporaine","18 avril 1951","easy","Traité créant la Communauté Européenne du Charbon et de l’Acier (CECA)","Дагавор аб стварэнні Еўрапейскага саюза вугалю і сталі (ECSC) "
"contemporaine","10 mai 1871","easy","Traité de Francfort instituant la paix avec l’Allemagne en contrepartie de l’Alsace_ la Lorraine et d’indemnités","Франкфуртскі дагавор аб усталяванні міру з Германіяй узамен Эльзасу_ Латарынгіі і кампенсацыі"
"moderne"," 3 septembre 1783","easy","Traité franco-anglais de Versailles reconnaissant l’indépendance des États-unis","Франка-ангельскі Версальскі дагавор аб прызнанні незалежнасці ЗША"
"contemporaine","19 mai 1974","easy","Valéry Giscard-d’Estaing (50_71%) remporte les élections présidentielles devant François Mitterrand","Валеры Жыскард-дЭстайнг (50_71%) перамог на прэзідэнцкіх выбарах перад Франсуа Мітэран"
"moderne","14 septembre 1515","easy","Victoire de François Ier à Marignan","Перамога Францішка I у Марыньяне"
"contemporaine","10 mai 1981","easy","Victoire de François Mitterrand (51_75%) aux élections présidentielles devant Valéry Giscard-d’Estaing","Перамога Франсуа Мітэрана (51_75%) на прэзідэнцкіх выбарах перад Валеры Жыскар-дЭстайнг"
"contemporaine","2 décembre 1805","easy","Victoire de Napoléon à Austerlitz contre les Russes et les Autrichiens","Перамога Напалеона ў Аўстэрліцы супраць расейцаў і аўстрыйцаў"
"Moyen-âge",759,"easy","Victoire de Pépin le Bref près de Narbonne contre les Arabes qui replient en Espagne","Перамога Піпіна Кароткага каля Нарбоны супраць арабаў_ якія складваюцца ў Іспаніі"
"contemporaine","24 mai 1869","easy","Victoire républicaine aux élections législatives","Перамога рэспубліканцаў на парламенцкіх выбарах"
"Moyen-âge",639,"hard","« Début du règne des maires du palais ». Les maires du palais étaient les plus hauts dignitaires_ après les rois_ des royaumes francs qui couvraient alors l'essentiel de la France_ l'Allemagne et le Benelux actuels."," Пачатак кіравання палацамі мэраў . Мэры палаца былі вышэйшымі саноўнікамі франкаўскіх каралеўстваў_ якія былі ахоплены большай часткай Францыі_ Германіі і Бенілюкса."
"contemporaine","21 octobre 1945","hard","Abolition de la constitution de la IIIe République et élection d’une assemblée constituante","Адмена канстытуцыі Трэцяй рэспублікі і абранне ўстаноўчага сходу"
"contemporaine","7 juin 1936","hard","Accords de Matignon entre patronat et syndicats","Матыньёнскія пагадненні паміж працадаўцамі і прафсаюзамі"
"contemporaine","25 juin 1928","hard","Adoption d’une loi monétaire dévaluant le franc marquant l’abandon du franc germinal","Прыняцце валютнага закона_ які абясцэньвае франк_ які адзначае адмову ад герканаў франка"
"moderne","12 juillet 1790","hard","Adoption de la Constitution civile du clergé","Прыняцце грамадзянскай канстытуцыі духавенства"
"contemporaine","2 juillet 1914","hard","Adoption de la loi Caillaux sur l’impôt sur le revenu","Прыняцце закона Калё аб падатку на прыбытак"
"contemporaine","26 octobre 1981","hard","Adoption de la loi sur les nationalisations","Прыняцце закона аб нацыяналізацыі"
"contemporaine","27 septembre 1981","hard","Adoption du projet d’impôt sur la fortune","Прыняцце праекта падаткаабкладання багацця"
"contemporaine","28 janvier 1982","hard","Adoption du projet de loi sur la décentralisation","Прыняцце законапраекта аб дэцэнтралізацыі"
"contemporaine","2 octobre 1981","hard","Adoption du projet de loi sur les radios libres","Прыняцце законапраекта аб бясплатных радыёстанцыях"
"contemporaine","24 septembre 2000","hard","Adoption du quinquennat (la présidence dure 5 années) (73_24%) lors d’un référendum marqué par l’abstention (68%)","Прыняцце пяцігоддзя (старшынства доўжыцца 5 гадоў) (73_24%) на рэферэндуме_ які адзначаецца ўстрыманнем (68%)"
"antique","Juin 451","hard","Aetius bat les Huns sur les Champs Catalauniques près de Troyes","Эцій бе гунаў на каталонскіх палях каля Троі"
"Moyen-âge","2 décembre 1419","hard","Alliance entre Philippe le Bon_ duc de Bourgogne et Henri V d’Angleterre","Саюз паміж Філіпам Добрым_ герцагам Бургундыі і Ангелам Генрыхам V"
"contemporaine","30 janvier 1875","hard","Amendement Wallon instituant la république","Валонская папраўка пра стварэнне рэспублікі"
"Moyen-âge",774,"hard","Annexion de la Lombardie","Далучэнне Ламбардыі"
"moderne","5 septembre 1661","hard","Arrestation de Fouquet à Nantes_ accusé de détournement de fonds","Арышт Фукета ў Нант_ абвінавачаны ў крадзяжы"
"Moyen-âge","31 juillet  1451","hard","Arrestation de Jacques Cœur accusé de conspiration et malversation","Арышт Жак Кер абвінавачваецца ў змове і парушэнні"
"contemporaine","30-31 mars 1794","hard","Arrestation des chefs des Indulgents (Danton_ Desmoulins_ Delacroix_ Philippeaux_ Westerman…) 1794 5 avril Condamnation et exécution de Danton_ Desmoulins_ Fabre d’Eglantine et des Indulgents","Арышт лідэраў індульгентаў (Дантон_ Дэсмулін_ Дэлакруа_ Філіпэ_ Вестэрман ...) 1794 г. 5 красавіка Асуджэнне і расстрэл Дантана_ Дэсуліна_ Фабра Эглантына і індульгентаў"
"Moyen-âge",584,"hard","Assassinat de Chilpéric (Neustrie) sur ordre de Frédégonde","Забойства Чыліпера (Неўстрыя) паводле загаду Фрэдэгондэ"
"moderne","14 mai 1610","hard","Assassinat de Henri IV par Ravaillac_ son fils Louis lui succède","Забойства Генрыха IV Равалікам_ ягоны сын Людовік пераемны"
"Moyen-âge","10 septembre 1419","hard","Assassinat de Jean sans Peur au pont de Montereau_ son fils Philippe le Bon lui succède","Забойства Яна Бясстрашнага на мосце ў Монтеро_ ягоны сын Філіп Добры дабіўся яго поспеху"
"Moyen-âge",575,"hard","Assassinat de Sigebert (Austrasie) sur ordre de Frédégonde","Замах на Сігэберта (Аўстралія) паводле загаду Фрэдэгондэ"
"contemporaine","13 février 1820","hard","Assassinat du duc de Berry (neveu du roi) par Louvel","Замах на герцага Берры (пляменніка караля) Лувелем"
"Moyen-âge","7 septembre 1303","hard","Attentat d’Anagni de Guillaume de Nogaret contre Boniface VIII","Атака Ананья Гіём дэ Ногарэта супраць Баніфацыя VIII"
"contemporaine","28 juillet 1835","hard","Attentat de Fieschi contre Louis-Philippe_ provoquant la mort de 12 personnes","Атака Фіешы супраць Луі-Філіпа_ якая выклікала гібель 12 чалавек"
"antique",451,"hard","Avènement du chef franc Mérové","Зяўленне кіраўніка Францыі Мераве"
"contemporaine","13 juin 1982","hard","Blocage des prix et des salaires","Блакіроўка цэн і заробкаў"
"moderne","28 octobre 1628","hard","Capitulation de La Rochelle","Капітуляцыя Ла-Рашэль"
"moderne","25 février 1497","hard","Capitulation de Tarente_ perte du royaume de Naples","Капітуляцыя Таранта_ страта Неапалітанскага каралеўства"
"moderne","21 décembre 1560","hard","Catherine de Médicis et Antoine de Bourbon sont nommés régents par le Conseil d’État","Кацярына Медычы і Антуан дэ Бурбон прызначаюцца рэгентамі Дзяржсавета"
"moderne","22 juillet 1472","hard","Charles le Téméraire échoue devant Beauvais","Шарль Смелы праваліўся перад Бове"
"contemporaine","16 mai 1830","hard","Charles X dissout la Chambre des députés","Карл X распусціў Палату дэпутатаў"
"antique",193,"hard","Claudius Albinus se fait proclamer empereur par ses légions en Bretagne","Клаўдзій Альбін абвешчаны імператарам сваімі легіёнамі ў Брэтані"
"Moyen-âge",613,"hard","Clotaire II fait exécuter Sigebert II et Brunehaut_ réunification du royaume","Clotaire II прымушае пакараць смерцю Сігэберта II і Брунэхаўта_ узяднанне каралеўства"
"Moyen-âge",524,"hard","Clothaire épouse Gontheuque_ veuve de Clodomir_ fait assassiner ses fils et s’empare de son royaume","Жонка Клотара Гонтэука_ удава клодаміра_ забіла сваіх сыноў і захапіла яго каралеўства"
"moderne","30 août 1455","hard","Compromis dans un complot_ le dauphin s’enfuit à Louvain","Кампраміс у сюжэце_ дэльфін уцёк у Лювен"
"contemporaine","24 mars 1794","hard","Condamnation et exécution des chefs des Cordeliers (Hébert…)","Асуджэнне і расстрэл кіраўнікоў кардэльераў (Геберт ...)"
"contemporaine","29-30 septembre 1938","hard","Conférence de Munich entre la France_ l’Angleterre_ l’Italie et l’Allemagne sur la question des Sudètes","Мюнхенская канферэнцыя паміж Францыяй_ Англіяй_ Італіяй і Германіяй па пытаннях Судэта"
"contemporaine","23 novembre 1799","hard","Constitution de l’an VIII_  Napoléon Bonaparte_ Sieyès et Ducos sont nommés consuls ","Канстытуцыя VIII года_ Напалеон Банапарт_ Сіес і Дзюкас названы консуламі"
"contemporaine","1 juillet 1911","hard","Coup d’Agadir ou crise d’Agadir des Allemands contre les Français_ provoqué par l'envoi d'une canonnière (navire léger armé de canons) de la marine de guerre allemande dans la baie d'Agadir au Maroc","Дзяржаўны пераварот альбо крызіс немцаў Агадзіра супраць французаў_ выкліканы адпраўкай карабля (лёгкага карабля_ узброенага зброяй) германскага флоту ў бухце Агадзір у Марока"
"contemporaine","11 mai 1798","hard","Coup d’état du 22 floréal du directoire contre les députés jacobins élus en avril. Le jacobinisme est une doctrine politique qui défend la souveraineté populaire et l'indivisibilité de la République française","Дзяржаўны пераварот 22-га каталога Флорэаля супраць якобінскіх дэпутатаў_ абраных у красавіку якабінізмам_ зяўляецца палітычнай дактрынай_ якая абараняе народны суверэнітэт і непадзельнасць Французскай Рэспублікі"
"contemporaine","18 juin 1799","hard","Coup d’état du 30 prairial_ les conseils contraignent les directeurs Merlin et La Revellière à la démission","Дзяржаўны дзяржаўны пераварот 30 прарыялаў_ саветы прымушаюць дырэктараў Мэрліна і Ла Рэвельера сысці ў адстаўку"
"contemporaine","4 septembre 1797","hard","Coup d’état du directoire contre les royalistes_ Barras aidé de Napoléon prend le pouvoir","Дзяржаўны пераварот дырэкторыі супраць каралеўскіх дзеянняў_ Баррас пры дапамозе Напалеона прымае ўладу"
"Moyen-âge","29 février 888","hard","Couronnement de Eudes à Compiègne","Каранацыя эўдаў у кампані"
"moderne"," 8 juin 1576","hard","Création de la Sainte Ligue qui avait pour objectif de briser la progression des Turcs ottomans","Стварэнне Святой лігі_ якая мела на мэце парушыць прагрэс асманскіх туркаў"
"contemporaine","29 décembre 1943","hard","Création des Forces Françaises de l’Intérieur (FFI)","Стварэнне ўнутраных сіл Францыі (FFI)"
"contemporaine","24 septembre 1941","hard","Création du Comité National de la France Libre à Londres par le général de Gaulle","Стварэнне Генеральнага дэ Голя ў Лондане Нацыянальнага камітэта свабоднай Францыі"
"contemporaine","15 mai 1943","hard","Création du Conseil National de la Résistance (CNR)","Стварэнне Нацыянальнай рады супраціву (CNR)"
"contemporaine","16 février 1943","hard","Création du Service du Travail Obligatoire (STO)","Стварэнне службы прымусовай працы (СТО)"
"contemporaine","30 juin 1968","hard","De Gaulle remporte les élections législatives","Дэ Голь перамог на парламенцкіх выбарах"
"contemporaine","27 juin 1795","hard","Débarquement d’une armée de quatre mille émigrés à Quiberon","Высадка арміі з чатырох тысяч эмігрантаў у Квібероне"
"contemporaine","28 décembre 1933","hard","Début de l’affaire Stavisky (escroc qui magouillait avec les politiques et est mort dans des circonstances étranges)","Пачатак справы Ставіскага (махляр_ які змагаўся з палітыкай і загінуў пры дзіўных абставінах)"
"moderne","1 octobre 1791","hard","Début de l’Assemblée législative et de la monarchie constitutionnelle","Пачатак заканадаўчага сходу і канстытуцыйнай манархіі"
"antique",-800,"hard","Début de l’invasion des Celtes qui vont remplacer peu à peu les Ligures","Пачатак нашэсця кельтаў_ якія паступова заменяць лігурыйцаў"
"contemporaine","21 mars 1918","hard","Début de l’offensive allemande sur la Somme","Пачатак нямецкага наступлення на Соме"
"moderne","Mars 1465","hard","Début de la guerre de Louis XI contre la Ligue du Bien Public de Charles le Téméraire et Charles de France","Пачатак вайны Людовіка XI супраць Лігі грамадскай уласнасці Карла Смелага і Карла Французскага"
"moderne","2 septembre 1792","hard","Début des « Massacres de septembre » dans les prisons (jusqu’au 6)","Пачатак вераснёўскіх расправаў у турмах (да 6)"
"contemporaine","1 novembre 1795","hard","Début du directoire_ Il tire son nom du « directoire » c'est-à-dire l'ensemble des cinq directeurs_ chefs du gouvernement entre lesquels le pouvoir exécutif et les ministres sont répartis_ pour éviter la tyrannie_ et dont le siège est au palais du Luxembourg","Пачынаючы Каталог_ ён узяў назву ад Каталога _ гэта значыць усіх пяці дырэктараў_ кіраўнікоў урадаў_ паміж якімі падзелены выканаўчая ўлада і міністры_ каб пазбегнуць тыраніі і чые месца знаходзіцца ў Люксембургскім палацы "
"contemporaine","21 novembre 1806","hard","Décret de Berlin instituant un blocus contre l’Angleterre","Берлінскі дэкрэт аб усталяванні блакады супраць Англіі"
"Moyen-âge","25 octobre 1415","hard","Défaite de la chevalerie française à Azincourt face aux Anglais","Параза французскага рыцарства ў Азінкуры супраць ангельцаў"
"contemporaine","18 octobre 1813","hard","Défaite de Napoléon à Leipzig","Параза Напалеона ў Лейпцыгу"
"contemporaine","25 août 1976","hard","Démission de Jacques Chirac_ Raymond Barre le remplace","Адстаўка Жак Шырака_ Рэйманд Барэ замяняе яго"
"contemporaine","2 décembre 1887","hard","Démission de Jules Grévy suite au scandale des décorations","Адстаўка Жуля Грэві пасля скандалу з узнагародамі"
"contemporaine","9 novembre 1799","hard","Démission de Sieyès_ Barras et Ducos de l’exécutif provoquant la vacance du pouvoir_ coup d’état du 18 Brumaire","Адстаўка Сіеса_ Бараса і Дукоса з боку выканаўчай улады_ выклікаючы вакантнасць улады_ дзяржаўны пераварот 18 Бруара"
"contemporaine","30 janvier 1879","hard","Démission du président Mac-Mahon","Адстаўка прэзідэнта Мак-Махана"
"Moyen-âge","4 juillet 1190","hard","Départ de Philippe Auguste pour la troisième croisade","Адезд Філіпа Огюста да трэцяга крыжовага паходу"
"Moyen-âge","12 juin 1248","hard","Départ de Saint-Louis pour la septième croisade","Адезд Сэнт-Луі да сёмага крыжовага паходу"
"contemporaine","12 juin 1982","hard","Dévaluation du franc","Дэвальвацыя франка"
"contemporaine","25 juin 1877","hard","Dissolution de l’Assemblée nationale (III République)","Роспуск Нацыянальнага сходу (III Рэспубліка)"
"contemporaine","27 septembre 1939","hard","Dissolution du PCF","Растварэнне PCF"
"contemporaine","30 décembre 1919","hard","Du congrès de Tours naît la scission entre SFIO et PCF","З Кангрэса тураў нараджаецца раскол паміж SFIO і PCF"
"Moyen-âge"," 2 octobre 1370","hard","Du Guesclin devient connétable (haute dignité)","Du Guesclin становіцца ўрадлівым (высокая годнасць)"
"antique",70,"hard","Échec de « l’empire des Gaules » de Sabinus","Правал імперыі Галіі Сабінуса"
"moderne","17 mars 1560","hard","Échec de la conjuration d’Ambroise visant à enlever le roi","Не атрымалася змова Амброаза выдаліць караля"
"contemporaine","12-13 mai 1839","hard","Échec des journées révolutionnaires de Barbès et Blanqui","Правал рэвалюцыйных часоў Барбеса і Бланкі"
"contemporaine",2005,"hard","Echec du référendum pour une constitution européenne","Няўдача рэферэндуму аб прыняцці еўрапейскай канстытуцыі"
"antique",313,"hard","Édit de Milan venant confirmer la liberté de culte pour les chrétiens et la restitution des biens confisqués","Міланскі эдыкт_ які пацвярджае свабоду пакланення хрысціянам і вяртанне канфіскаванай маёмасці"
"moderne","8 août 1788","hard","Édit prévoyant la convocation des États Généraux (assemblée extraordinaire réunissant les trois ordres (les états) de la société : la noblesse_ le clergé et le tiers état (le reste)) pour le 1er mai","Эдыкт_ які прадугледжвае скліканне Генеральнага штату (пазачарговая нарада_ якая абядноўвае тры загады (дзяржавы) грамадства: дваранства_ духавенства і трэці штат (астатнія)) на 1 мая"
"contemporaine","8 avril 1938","hard","Édouard Daladier remplace Léon Blum à la tête du gouvernement mettant fin au Front Populaire","Эдуард Даладзье змяняе Леона Блюма на чале ўрада_ які паклаў канец Народнаму фронту"
"contemporaine","26 mars 1871","hard","Élections de la commune de Paris","Выбары Парыжскай гміны"
"contemporaine","1 mars 1948","hard","Embuscade du Viet-minh contre un convoi français en Indochine (82†)","Засада ў Ветнаме супраць французскага канвою ў Індакітаі (82 †)"
"Moyen-âge","22 février 1358","hard","Étienne Marcel soulève Paris avec l’aide de Charles le Mauvais","Эцьен Марсэль падымае Парыж пры дапамозе Чарльза Дрэннага"
"moderne","31 juillet 1602","hard","Exécution de Biron ayant comploté contre le roi","Расстрэл Бірона пасля змовы супраць цара"
"Moyen-âge",1314,"hard","Exécution de Jacques de Molay et Hugues de Pairaud","Расстрэл Жака дэ Мола і Хю дэ Пару"
"contemporaine","31 octobre 1793","hard","Exécution des Girondins.  (Brissot_ Vergniaud…) 1794 13-14 mars Arrestation des chefs hébertistes (Hébert_ Vincent_ Momoro_ Ronsin_ Carrier)","Расстрэл жырондыстаў (Брысот_ Верньё ...) 1794 г. 13-14 сакавіка Арышт кіраўнікоў гебертаў (Геберт_ Вінцэнт_ Мамора_ Ронсін_ Перавозчык)"
"contemporaine","15 septembre 1990","hard","F. Mitterrand annonce la participation de la France à la guerre du Golfe (opération « Daguet ») contre l’Irak","Ф. Мітэран абвяшчае пра ўдзел Францыі ў вайне ў Персідскім заліве (аперацыя Даге ) супраць Ірака"
"contemporaine","21 juin 1848","hard","Fermeture des ateliers nationaux_ l'État intervenait directement en fournissant_ en organisant et en payant le travail. Cette « expérience » sociale a duré tout juste trois mois","Закрыўшы нацыянальныя майстар-класы_ дзяржава ўмяшалася непасрэдна шляхам прадастаўлення_ арганізацыі і аплаты працы. Гэты сацыяльны досвед доўжыўся ўсяго тры месяцы"
"moderne","14 juillet 1790","hard","Fête de la fédération au Champ-de-Mars_ Louis XVI prête serment à la constitution","Свята федэрацыі ў Марсе-Шапе_ Людовік XVI прысягае на канстытуцыю"
"contemporaine","2 novembre 1919","hard","Fondation du Syndicat Confédération des Travailleurs Chrétiens (CFTC)","Фонд Канфедэрацыі хрысціянскіх працаўнікоў (CFTC)"
"contemporaine","23 novembre 1945","hard","Formation d’un gouvernement tripartite (MRP-PCF–SFIO) autour du général de Gaulle","Фарміраванне трохбаковага ўрада (MRP-PCF-SFIO) вакол генерала дэ Голя"
"moderne","8 janvier 1558","hard","François_ duc de Guise s’empare de Calais","Франсуа_ герцаг Гіз захапіў Кале"
"moderne","17 juillet 1791","hard","Fusillade du Champ-de-Mars contre les pétitionnaires demandant la déchéance du roi (50†)","Перастрэлка Шампа-дэ-Марса супраць просьбітаў_ якія патрабуюць распаду караля (50 †)"
"Moyen-âge"," 14 octobre 1066","hard","Guillaume de Normandie remporte la bataille de Hastings (Angleterre) contre Harold qui y trouve la mort","Уільям Нармандскі выйграе бітву пры Гасцінгсе (Англія) супраць Гаральда_ які знаходзіць смерць"
"moderne","23 décembre 1588","hard","Henri III fait assassiner le duc de Guise et son frère par le capitaine du Guast","Генрых III забіў герцага Гіза і яго брата капітанам Гуаста"
"moderne","22 mars 1594","hard","Henri IV entre à Paris_ onze provinces se rallie à lui","Анры IV уваходзіць у Парыж_ адзінаццаць правінцыяў злучае яго"
"contemporaine","31 mars 1905","hard","Incident franco-allemand de Tanger. Guillaume II refuse de reconnaître la souveraineté française","Франка-нямецкі інцыдэнт у Танжыры_ Уільям II адмаўляецца прызнаваць французскі суверэнітэт"
"antique",162,"hard","Incursions germaniques repoussées en Gaule","Германскія нашэсці штурхнулі назад у Галію"
"contemporaine","23-26 juin 1848","hard","Insurrection ouvrière à Paris_ en partie due à la fermeture des ateliers nationaux","Працоўнае паўстанне ў Парыжы_ часткова з-за закрыцця нацыянальных майстэрняў"
"contemporaine","22 mars 1986","hard","Jacques Chirac devient premier ministre après avoir remporté les élections législatives_ première cohabitation (président de gauche et 1er ministre de droite)","Жак Шырак становіцца прэмер-міністрам пасля перамогі на парламенцкіх выбарах_ першага сумеснага пражывання (левы прэзідэнт і прэмер-міністр правых краін)"
"Moyen-âge","23 novembre 1407","hard","Jean sans Peur_ duc de Bourgogne_ quitte Paris après avoir fait assassiner Louis d’Orléans","Джон Бясстрашны_ герцаг Бургундыі_ пакідае Парыж пасля забойства Луі Арлеанскага"
"contemporaine","25 janvier 1882","hard","Krach de l’Union Générale provoquant la ruine de nombreux épargnants","Крах Генеральнага саюза прычыніў разбурэнне многіх застаў"
"contemporaine","4 novembre 1911","hard","L’Allemagne reconnaît le protectorat français sur le Maroc en contrepartie du bassin de la Sangha (Congo)","Германія прызнае французскі пратэктарат над Марока ў абмен на басейн Санга (Конга)"
"contemporaine","21 mai 1871","hard","L’armée de Versailles entre dans Paris_ début de la semaine sanglante","Версальская армія ўваходзіць у Парыж_ пачатак крывавага тыдня"
"contemporaine","5 octobre 1795","hard","L’armée réprime l’insurrection royaliste (300†)","Армія рэпрэсуе паўстанне каралеўскіх (300 †)"
"contemporaine","28 juillet 1914","hard","L’Autriche-Hongrie déclare la guerre à la Serbie","Аўстра-Венгрыя абяўляе вайну Сербіі"
"moderne","15 juin 1702","hard","La coalition déclare la guerre à la France_ début de la guerre de succession d’Espagne","Кааліцыя абяўляе вайну Францыі_ пачатак спадчыны Іспаніі"
"moderne","5-6 janvier 1649","hard","La cour s’enfuit à Saint-Germain_ Condé assiège Paris","Суд уцёк у Сен-Жэрмен_ Кондэ аблажыў Парыж"
"contemporaine","28 mars 1993","hard","La droite remporte les élections législatives_ nouvelle cohabitation","Права перамагае на заканадаўчых выбарах_ новае сумеснае жыццё"
"contemporaine","1 août 1798","hard","La flotte française est détruite à Aboukir par l’amiral Nelson","Адмірал Нельсан у Абукіры знішчаны французскі флот"
"contemporaine","9 décembre 1905","hard","La France accepte le principe d’une conférence de paix internationale sur le Maroc","Францыя прымае прынцып міжнароднай мірнай канферэнцыі па Марока"
"moderne","19 mai 1635","hard","La France déclare la guerre à l’Espagne","Францыя абяўляе вайну Іспаніі"
"moderne","26 novembre 1688","hard","La France déclare la guerre à la Hollande_ début de la guerre contre la ligue d’Augsbourg","Францыя абяўляе вайну Галандыі_ пачатак вайны супраць лігі Аўгсбурга"
"contemporaine","11 janvier 1923","hard","La France et la Belgique occupent la Ruhr pour contraindre l’Allemagne à payer les indemnités de guerre","Францыя і Бельгія займаюць Рур_ каб прымусіць Германію выплачваць ваенныя страты"
"contemporaine","27 janvier 1964","hard","La France reconnaît la République populaire de Chine","Францыя прызнала Кітайскую Народную Рэспубліку"
"contemporaine","29 octobre 1924","hard","La France reconnaît officiellement l’URSS","Францыя афіцыйна прызнае СССР"
"contemporaine","27 mars 1854","hard","La France_ l’Angleterre et la Turquie déclarent la guerre à la Russie","Францыя_ Англія і Турцыя абяўляюць вайну Расіі"
"contemporaine","1 juin 1997","hard","La gauche plurielle (PS-Vert-PC) remporte les élection suite à la dissolution de l’Assemblé Nationale_ troisième cohabitation ","Левы множны лік (PS-Green-PC) выйграе выбары пасля скасавання Нацыянальнага сходу_ трэцяга сумеснага пражывання"
"moderne","1618-1648","hard","La guerre de Trente Ans est une série de conflits armés qui a déchiré l’Europe","Трыццацігадовая вайна - гэта шэраг узброеных канфліктаў_ якія разрывалі Еўропу"
"contemporaine","21-22 décembre 1851","hard","Large plébiscite du coup d’État de Louis-Napoléon Bonaparte","Вялікі плебісцыт дзяржаўнага перавароту Луі Напалеона Банапарта"
"contemporaine","11 mai 1924","hard","Le Cartel des gauches remporte les élections législatives","Картэль левых перамог у парламенцкіх выбарах"
"contemporaine","3 mai 1936","hard","Le Front populaire remporte les élections législatives_ début des grèves","Народны фронт перамагае на заканадаўчых выбарах_ пачынае страйкі"
"contemporaine","30 mai 1968","hard","Le général de Gaulle annonce la dissolution de l’Assemblée nationale","Генерал дэ Голь абвяшчае аб роспуску Нацыянальнай асамблеі"
"contemporaine","9 septembre 1944","hard","Le général De Gaulle créé un gouvernement provisoire","Генерал Дэ Голь стварае часовы ўрад"
"contemporaine","3 juin 1943","hard","Le général De Gaulle fonde le Comité Français de Libération Nationale (CFLN)","Генерал Дэ Голь стварае Французскі камітэт нацыянальнага вызвалення (CFLN)"
"contemporaine","14 avril 1947","hard","Le général De Gaulle fonde le Rassemblement du Peuple Français (RPF)","Генерал Дэ Голь заснаваў Расейскую асамблею Франца Франца (RPF)"
"contemporaine","15 mai 1917","hard","Le général Pétain remplace le général Nivelle à la tête des armées françaises","Генерал Петан змяняе генерала Нівель на чале французскіх армій"
"contemporaine","3 juin 1944","hard","Le Gouvernement Provisoire de la France Libre (GPFL) remplace le CFLN","Часовы ўрад Вольнай Францыі (GPFL) замяняе CFLN"
"Moyen-âge",1208,"hard","Le pape ordonne la croisade contre les Albigeois sous la conduite de Simon de Monfort","Папа загадае крыжовы паход супраць Альбігеяў пад кіраўніцтвам Сымона дэ Монфорта"
"moderne","16 juillet 1787","hard","Le Parlement de Paris rejette les réformes fiscales et réclame des États Généraux","Парыжскі парламент адхіляе падатковыя рэформы і патрабуе Генеральнай спадчыны"
"moderne","8 octobre 1547","hard","Le Parlement institue la Chambre Ardente pour lutter contre l’hérésie (sous le règne de Henri II)","Парламент стварае Палкую палату для барацьбы з ерасьцю (пры праўленні Генрыха II)"
"contemporaine","5 décembre 1831","hard","Le prince royal et le maréchal Soult à la tête de vingt mille hommes entrent à Lyon","Каралеўскі прынц і маршал Сульт на чале дваццаці тысяч чалавек увайдуць у Ліён"
"contemporaine","26 mars 1944","hard","Les Allemands détruisent le maquis du plateau des Glières (mouvement de résistants français)","Немцы разбураюць плато Макі Гліер (французскі рух супраціву)"
"contemporaine","23 octobre 1944","hard","Les Américains reconnaissent le gouvernement provisoire du général De Gaulle","Амерыканцы прызнаюць часовы ўрад генерала Дэ Голя"
"contemporaine","23 juillet 1944","hard","Les armées allemandes ont anéantis le maquis du Vercors (mouvement de résistants français)","Нямецкія арміі знішчылі макіс Веркераў (французскі рух супраціву)"
"contemporaine","Janvier 1814","hard","Les armées coalisées (plus d’un million de soldats) envahissent la France","Кааліцыйныя арміі (больш за мільён салдат) урываюцца ў Францыю"
"Moyen-âge",1317,"hard","Les Grands du royaume_ confirment le principe de loi salique","Вялікае каралеўства_ пацвердзіце прынцып салічнага закона"
"Moyen-âge","28 mai 1418","hard","Les Parisiens ouvrent les portes de la capitale aux Bourguignons","Парыжане адкрываюць дзверы сталіцы бургундцам"
"moderne","24 décembre 1620","hard","Les Protestants décident lors de l’assemblée de La Rochelle de prendre les armes","Пратэстанты вырашаюць на сходзе Ла-Рашэль узяць зброю"
"moderne","21 février 1701","hard","Les Provinces-Unies reconnaissent Philippe V comme roi d’Espagne","Абяднаныя правінцыі прызнаюць Філіпа V каралём Іспаніі"
"antique",-283,"hard","Les romains s’emparent du pays des Sénons (Celtes)","Рымляне захапілі краіну Сэноны (кельты)"
"antique",-125,"hard","Les Salyens ravagent les terres de Marseille qui demande l’aide de Rome","Саліены разбураюць землі Марсэля_ якія просяць дапамогі ў Рым"
"contemporaine","11 novembre 1942","hard","Les troupes allemandes entrent en zone libre","Нямецкія войскі ўваходзяць у вольную зону"
"contemporaine","19 février 1858","hard","Loi de sûreté générale venant accroître la répression","Закон аб агульнай бяспецы будзе ўзмацняць рэпрэсіі"
"contemporaine","12 octobre 1988","hard","Loi instituant le Revenu Minimum d’Insertion","Закон аб усталяванні мінімальнага прыбытку"
"moderne","14 juin 1791","hard","Loi Le Chapelier interdisant les associations patronales et ouvrières","Закон Нянавісці_ які забараняе абяднання працадаўцаў і рабочых"
"contemporaine","28 avril 1825","hard","Loi sur le « Milliard des émigrés »_ consistant à indemniser les émigrés qui avaient perdu leurs biens vendus comme Bien national sous la Révolution","Закон аб Мільярдзе эмігрантаў _ які складаецца з кампенсацыі эмігрантам_ якія страцілі маёмасць_ прададзеную ў якасці рэвалюцыі нацыянальную ўласнасць"
"Moyen-âge","29 novembre 1226","hard","Louis IX est sacré à Reims_ Régence de Blanche de Castille (jusqu’en 1236)","Людовік IX святы ў Рэймсе_ царква Кастыліі Бланш (да 1236 г.)"
"Moyen-âge","21 mars 1152","hard","Louis VII fait casser son mariage (divorce avec Aliénor d’Aquitaine) par le concile de Beaugency","Людовік VII разбівае шлюб (развод з Аліенорам Аквітанскім) Саветам Бэгенцыі"
"moderne","24 mai 1667","hard","Louis XIV revendique la couronne espagnole_ début de la guerre de dévolution","Людовік XIV прэтэндуе на іспанскую карону_ пачатак вайны з дэвалюцыяй"
"moderne","10 octobre 1733","hard","Louis XV déclare la guerre à l’empereur autrichien","Людовік XV абяўляе вайну аўстрыйскаму імператару"
"moderne","15 février 1723","hard","Louis XV est déclaré majeur_ fin de la régence","Людовік XV абвешчаны маёрам_ канцом рэгенцтва"
"moderne","14 août 1787","hard","Louis XVI exile le Parlement à Troyes","Людовік XVI высылае парламент у Труі"
"contemporaine","8 juillet 1815","hard","Louis XVIII entre à Paris","Людовік XVIII уваходзіць у Парыж"
"contemporaine","12 janvier 1870","hard","Manifestation républicaine pour les funérailles de Victor Noir_ journaliste français tué à l'âge de 21 ans d'un coup de feu par le prince Pierre-Napoléon Bonaparte","Рэспубліканская дэманстрацыя пахавання французскага журналіста Віктара Нуар_ забітага ў 21-гадовым узросце расстрэлам прынца Пера-Напалеона Банапарта"
"moderne","25 juillet 1792","hard","Manifeste de Brunswick_ est une proclamation attribuée au chef de l’armée prussienne_ Charles-Guillaume-Ferdinand_ duc de Brunswick_ qui a pour objectif l’intimidation des parisiens","Брансвікскі маніфест - гэта абвяшчэнне_ прыпісанае кіраўніку прускай арміі Шарлю-Гіёму-Фердынанду_ герцагу Брансвіку_ мэтай якога зяўляецца запалохванне парыжан"
"Moyen-âge",493,"hard","Mariage de Clovis avec Clothilde (Burgonde)","Вяселле Хлодвіга з Клотыльдам (Бургундыя)"
"moderne","9 juin 1660","hard","Mariage de Louis XIV avec Marie-Thérèse d’Autriche","Шлюб Людовіка XIV з Марыяй Тэрэзіяй Аўстрыі"
"moderne","5 septembre 1725","hard","Mariage de Louis XV avec Marie Leszczynska_ fille de l’ex-roi de Pologne_ à Fontainebleau","Шлюб Людовіка XV з Марыяй Ляшчынскай_ дачкой былога караля Польшчы_ Фонтенбло"
"Moyen-âge","25 juillet 1137","hard","Mariage de Louis_ fils aîné de Louis VI avec Aliénor d’Aquitaine_ héritière du duché","Шлюб Людовіка_ старэйшага сына Людовіка VI з Аліенорам Аквітанскім_ спадчынніцай герцагства"
"contemporaine","2 avril 1810","hard","Mariage de Napoléon et de Marie-Louise d’Autriche","Шлюб Напалеона і Марыі-Луізы Аўстрыі"
"antique","177 et 174 ","hard","Martyrs de chrétiens à Lyon (Sainte Blandine)","Мучанікі хрысціян у Ліёне (Бландзіна)"
"moderne","11 mai 1745","hard","Maurice de Saxe bat les Anglais à Fontenoy","Морыс Саксонскі бе ангельцаў у Фонтэне"
"moderne","3 février 1653","hard","Mazarin est de retour à Paris_ marquant la fin de la Fronde","Мазарын вярнуўся ў Парыж_ які адзначае канец Фронды"
"contemporaine","20 avril 1870","hard","Mise en place d’un régime parlementaire par senatus-consulte","Стварэнне парламенцкай сістэмы сенатусам-кансультам"
"moderne","1 novembre 1700","hard","Mort de Charles II d’Espagne qui désigne Philippe_ deuxième fils du Grand Dauphin comme son successeur","Смерць Іспаніі Карла II_ які называе Філіпа_ другога сына Вялікага Дафіна сваім пераемнікам"
"moderne","5 janvier 1477","hard","Mort de Charles le Téméraire devant Nancy","Смерць Чарльза Смелага перад Нэнсі"
"moderne","20 octobre 1740","hard","Mort de Charles VI d’Autriche_ sa fille Marie-Thérèse lui succède posant le problème de la succession","Смерць Аўстрыі Карла VI_ яго дачка Мары-Тэрэс прымушае яго ставіць праблему пераемнасці"
"Moyen-âge",558,"hard","Mort de Childebert_ Clotaire contrôle seul le royaume Franc","Смерць Чайдэберта_ Clotaire кіруе каралеўствам адзіным Франкам"
"Moyen-âge",629,"hard","Mort de Clotaire II_ son fils Dagobert prend la tête du royaume","Смерць Clotaire II_ яго сын Дагаберт прымае кіраўніка каралеўства"
"Moyen-âge",561,"hard","Mort de Clotaire_ partage du royaume entre ses quatre fils","Смерць Clotaire_ падзел каралеўства паміж яго чатырма сынамі"
"Moyen-âge",511,"hard","Mort de Clovis_ son royaume est partagé entre ses quatre fils (Thierry_ Clodomir_ Childebert et Clotaire)","Смерць Хлодвіга_ яго каралеўства падзелена паміж яго чатырма сынамі (Цьеры_ Клодамір_ Чайдэберт і Clotaire)"
"Moyen-âge",639,"hard","Mort de Dagobert Ier_ partage du royaume entre ses deux fils Sigebert III (8 ans) et Clovis II (4 ans)","Смерць Дагаберта I_ падзел каралеўства паміж двума сынамі Сігеберта III (8 гадоў) і Хловіса II (4 гады)"
"Moyen-âge",593,"hard","Mort de Gontran_ Childebert II hérite du Royaume de Bourgogne","Смерць Гонтрана_ Чалдэберт II успадкоўвае Каралеўства Бургундыя"
"moderne","14 mai 1643","hard","Mort de Louis XIII_ son fils Louis lui succède","Смерць Людовіка XIII_ яго сын Людовік пераемны"
"moderne","10 mai 1774","hard","Mort de Louis XV_ son petit-fils Louis lui succède","Смерць Людовіка XV_ яго ўнук Людовік пераемны"
"Moyen-âge"," 5 octobre 1285","hard","Mort de Philippe III à Perpignan son fils Philippe IV_ le Bel lui succède","Смерць Філіпа III у Перпіньяна_ яго сын Філіп IV_ Бе пераемны"
"Moyen-âge","15 janvier 936","hard","Mort de Raoul à Auxerre_ Louis fils de Charles le Simple réfugié en Angleterre est appelé au trône","Смерць Рауля ў Осер_ Луі_ сыне Карла Простага бежанца ў Англіі_ закліканы на трон"
"Moyen-âge","15 août 778","hard","Mort de Roland à Roncevaux","Смерць Раланда ў Ронсесвальсе"
"Moyen-âge","25 août 1270","hard","Mort de Saint Louis à Tunis son fils Philippe III le Hardi lui succède","Смерць Сэнт-Луіса ў Тунісе яго сына Філіпа III Смелага атрымала яго"
"moderne","23 février 1766","hard","Mort de Stanislas Leszczynski_ roi de Pologne_ qui lègue la Lorraine et Bar à la France","Смерць Станіслава Ляшчынскага_ караля Польшчы_ які завяшчае Францыі Латарынгію і Бар"
"moderne","9 mars 1661","hard","Mort du cardinal de Mazarin","Смерць кардынала Мазарына"
"contemporaine","22 juin 1815","hard","Napoléon abdique en faveur de son fils","Напалеон адрачэўся ад свайго сына"
"contemporaine","24 juin 1812","hard","Napoléon franchit le Niémen_ Début de la campagne de Russie","Напалеон перасякае Нёман. Пачатак расійскай кампаніі"
"contemporaine","25 septembre 1915","hard","Offensive franco-anglaise en Artois et en Champagne","Франка-ангельскае наступленне ў Артуа і Шампані"
"contemporaine","25 juillet 1830","hard","Ordonnance de dissolution de la Chambre des députés","Загад аб роспуску Палаты дэпутатаў"
"Moyen-âge",1445,"hard","Ordonnance de Louppy-le-Châtel sur la permanence d’une armée de métier","Дэкрэт Лопі-ле-Шатэль аб сталасці прафесійнай арміі"
"contemporaine","19 février 1942","hard","Ouverture du procès de Riom des anciens dirigeants français","Адкрыццё суда над былым французскім лідэрам у Рыме"
"moderne","7 mai 1576","hard","Paix de Monsieur à Beaulieu accordant des facilités de cultes et 8 places fortes aux Protestants","Мір Мёра ў Болье_ які прадастаўляе сродкі для пакланення і 8 месцаў для пратэстантаў"
"Moyen-âge",534,"hard","Partage du royaume Burgonde entre Théodebert_ Childebert et Clothaire","Падзел бургундскага царства паміж Тэадэбертам_ Чайдэбертам і Клотэрам"
"contemporaine","13 janvier 1898","hard","Parution de « J’accuse » d’Émile Zola dans l’Aurore","Выданне Jaccuse Эміля Золы ў Аўроры"
"contemporaine","5 mai 1947","hard","Paul Ramadier renvoie les ministres communistes qui s’opposent au blocage des salaires","Пол Рамадзіер вызваліў ад пасады міністраў камуністычнай апазіцыі_ якія выступаюць супраць замарожвання заработнай платы"
"moderne","2 septembre 1715","hard","Philippe d’Orléans fait annuler le testament de Louis XIV pour s’arroger tous les pouvoirs","Філіп дОрлеан прымушае адмяніць завяшчанне Людовіка XIV_ каб увесці ўсе сілы"
"contemporaine","21 octobre 1917","hard","Premier engagement des troupes américaines dans le conflit","Першае ўцягванне амерыканскіх войскаў у канфлікт"
"moderne","30 août 1673","hard","Première coalition (Provinces-Unies_ Espagne_ l’Empire allemand et la Lorraine) contre la France","Першая кааліцыя (Абяднаныя правінцыі_ Іспанія_ Германская імперыя і Латарынгія) супраць Францыі"
"Moyen-âge","4 août 1392","hard","Première crise de folie de Charles VI près du Mans","Першы варяцкі крызіс Карла VI пад Ле-Манам"
"antique",233,"hard","Premières incursions Alamanes dans l’Empire_ début des « Grandes Invasions »","Першыя нашэсці Аламаны ў Імперыі_ пачатак Вялікіх уварванняў "
"contemporaine","4 juin 1814","hard","Proclamation de la Charte_ cette dernière est la constitution du royaume de France en vigueur sous la Première puis la Seconde Restauration.","Абвяшчэнне Статута_ апошняе - гэта канстытуцыя Французскага каралеўства_ якая дзейнічала ў рамках Першай і Другой рэстаўрацыі."
"contemporaine","9 septembre 1835","hard","Promulgation des lois sur la presse (censure)","Абнародаванне законаў аб друку (цэнзура)"
"Moyen-âge",510,"hard","Publication de la loi salique_ il s'agit d'un code de loi élaboré","Публікацыя закону Саліча_ гэта распрацаваны кодэкс закона"
"Moyen-âge","13 juillet 923","hard","Raoul est élu roi et couronné à Soisson par les révoltés en remplacement de Robert","Рауль абраны каралём і каранаваны ў Сайсане паўстанцамі на змену Роберту"
"contemporaine","24 octobre 1940","hard","Rencontre de Montoire entre Pétain et Hitler","Сустрэча Монтэра паміж Петэнам і Гітлерам"
"moderne","11 juillet 1789","hard","Renvoi de Necker_ le baron de Breteuil lui succède","Вярнуўшыся да Некера_ барон дэ Брэтэль дабіўся яго поспеху"
"moderne","12 mai 1776","hard","Renvoi de Turgot_ contrôleur général des finances_ sous la pression populaire","Вяртанне Турго_ генеральнага кантралёра фінансаў_ пад ціскам народа"
"moderne","21 octobre 1652","hard","Retour du roi et de la cour à Paris_ amnistie des frondeurs sauf Condé","Вяртанне караля і двара ў Парыж_ амністыя стропальнікаў_ акрамя Кондэ"
"antique",-12,"hard","Réunion de l’assemblée provinciale des chefs des Gaules","Пасяджэнне губернскага сходу кіраўнікоў Галіі"
"contemporaine","6 septembre 1892","hard","Révélation du scandale du canal de Panama (affaire de corruption)","Адкрыццё скандалу з Панамскім каналам (карупцыйная справа)"
"Moyen-âge",922,"hard","Révolte de Gilbert de Lorraine_ Robert de France_ Robert de Bourgogne contre Charles III le Simple","Паўстанне Гілберта дэ Латарынгіі_ Роберта Французскага_ Роберта Бургундыі супраць Карла III Простага"
"antique",68,"hard","Révolte de Vindex (Gouverneur de Lyon)","Паўстанне Віндэкса (губернатара Ліёна)"
"contemporaine","20-22 novembre 1831","hard","Révolte des Canuts à Lyon_ cela désigne plusieurs soulèvements ouvriers","Паўстанне Канутаў у Ліёне_ яно азначае некалькі працоўных паўстанняў"
"moderne","Mai 1788","hard","Révolte des Parlements_ émeutes à Besançon_ Toulouse_ et Rennes","Паўстанне парламентаў_ беспарадкі ў Безансоне_ Тулузе і Рэне"
"antique",21,"hard","Révoltes de Sacrovir (éduen) et de Florus (trévire)","Паўстанне Сакровира (eduen) і Флоры (trevire)"
"moderne","13 août 1624","hard","Richelieu est nommé chef du Conseil","Рышэлье прызначаны кіраўніком Савета"
"contemporaine","27 juillet 1794","hard","Robespierre et Saint-Just sont pris à partie à la tribune de la Convention","Рабеспер і Сен-Джаст прымаюць удзел у трыбуне Канвенцыі"
"contemporaine","29 juillet 1904","hard","Rupture des relations diplomatiques entre la France et le Vatican","Разрыў дыпламатычных адносін паміж Францыяй і Ватыканам"
"contemporaine","27 novembre 1942","hard","Sabordage de la flotte française à Toulon","Разборка французскага флоту ў Тулоне"
"Moyen-âge","17 juillet 1429","hard","Sacre de Charles VII à Reims","Абрад Карла VII у Рэймсе"
"contemporaine","29 mai 1825","hard","Sacre de Charles X à Reims","Абрад Карла X у Рэймсе"
"Moyen-âge","29 mai 1328","hard","Sacre de Philipe VI à Reims","Абрад Філіпа VI у Рэймсе"
"Moyen-âge","6 mai 1250","hard","Saint-Louis et les survivants de son armée rejoignent Saint-Jean d’Âcre","Сэнт-Луі і ацалелыя яго арміі далучыліся да Сен-Жан дАрэ"
"Moyen-âge","6 avril 1250","hard","Saint-Louis et son armée sont capturés et fait prisonniers","Сэнт-Луіс і яго армія захоплены і захоплены ў палон"
"contemporaine","20 novembre 1815","hard","Second traité de Paris_ la France est ramenée à ses frontières de 1790","Другі Парыжскі дагавор Францыі вяртаецца да сваіх межаў 1790 г."
"moderne","2 mai 1682","hard","Seconde coalition (Provinces-Unies_ Espagne_ l’Empire et la Suède) contre la France","Другая кааліцыя (Абяднаныя правінцыі_ Іспанія_ Імперыя і Швецыя) супраць Францыі"
"contemporaine","3 septembre 1918","hard","Signature de l’armistice entre les alliés et l’Autriche","Подпіс пераміря паміж саюзнікамі і аўстрыяй"
"contemporaine","27 juin 1972","hard","Signature du « Programme commun » entre les socialistes_ les communistes et les radicaux","Подпіс Сумеснай праграмы паміж сацыялістамі_ камуністамі і радыкаламі"
"contemporaine","22 janvier 1963","hard","Signature du traité de l’Élysée sur la coopération franco-allemande","Падпісанне Елісейскага дагавора аб франка-германскім супрацоўніцтве"
"Moyen-âge","Janvier 1358","hard","Signature du traité de Londres entre Jean II et le roi d’Angleterre","Падпісанне Лонданскага дагавора паміж Янам II і ангельскім каралём"
"moderne","12 septembre 1733","hard","Stanislas Leszczynski_ beau-frère de Louis XV est élu roi de Pologne","Станіслаў Ляшчынскі_ швагер Людовіка XV абраны каралём Польшчы"
"moderne","25 janvier 1494","hard","Suite à la mort de Ferdinand_ Charles VIII se proclame roi de Naples","Пасля смерці Фердынанда Карл VIII абвясціў сябе Неапалітанскім каралём"
"moderne","26 janvier 1611","hard","Sully démissionne pour protester contre l’influence de C. Concini et sa femme","Салі сыходзіць у адстаўку_ пратэстуючы супраць уплыву К. Канчыні і яго жонкі"
"contemporaine","26 mars 1820","hard","Suspension des libertés individuelles (pendant la restauration)","Прыпыненне індывідуальных свабод (падчас аднаўлення)"
"moderne","10 août 1792","hard","Suspension du roi qui est remplacé par le conseil exécutif provisoire","Прыпыненне караля_ які заменены Часовым выканаўчым саветам"
"contemporaine","12 novembre 1890","hard","Toast d’Alger au cours duquel le cardinal Lavigerie souhaite le ralliement des Catholiques à la république","Тост Алжыра_ падчас якога кардынал Лавігеры пажадае абяднаць каталікоў у рэспубліку"
"moderne","2 mai 1668","hard","Traité d’Aix-la-Chapelle mettant fin à la guerre de dévolution_ la France restitue la Franche-Comté mais garde 12 places fortes conquises en Flandre","Экс-ла-Шапельскі дагавор аб спыненні вайны з дэвалюцыяй Францыя аднаўляе Франш-Контэ_ але захоўвае 12 аплотаў_ заваяваных у Фландрыі"
"moderne","18 octobre 1748","hard","Traité d’Aix-la-Chapelle mettant fin à la guerre de succession d’Autriche","Аахенскі дагавор аб спыненні вайны з аўстрыйскай спадчынай"
"contemporaine","8 avril 1904","hard","Traité d’alliance franco-anglais (Entente cordiale)","Дамова аб франка-ангельскім саюзе (Антанта Cordiale)"
"contemporaine","25 mars 1802","hard","Traité d’Amiens scellant la paix entre la France et l’Angleterre","Амьенскі дагавор аб заключэнні міру паміж Францыяй і Англіяй"
"Moyen-âge","21 septembre 1435","hard","Traité d’Arras entre Charles VII et Philippe le Bon","Дагавор Арраса паміж Карлам VII і Філіпам Добрым"
"moderne","23 décembre 1482","hard","Traité d’Arras entre Frédéric III de Habsbourg et Louis XI qui récupère la Picardie et la Bourgogne","Дагавор Арраса паміж Фрыдрыхам III Габсбургам і Людовікам XI_ які аднаўляе Пікардыю і Бургундыю"
"moderne","11 avril 1713","hard","Traité d’Utrecht mettant fin à la guerre de succession d’Espagne","Утрэхтскі дагавор спыняе вайну за спадчыну Іспаніі"
"Moyen-âge","8 mai 1360","hard","Traité de Brétigny_ Édouard III d’Angleterre renonce au trône de France en échange de l’Aquitaine","Братынскі дагавор аб Англіі Эдуарда III адмаўляецца ад трона Францыі ў абмен на Аквітанію"
"moderne","11 novembre 1500","hard","Traité de Grenade entre Louis XII et Ferdinand d’Aragon pour le partage du royaume de Naples","Гранадскі дагавор паміж Людовікам XII і Фердынандам Арагонскім аб падзеле Неапалітанскага каралеўства"
"Moyen-âge","23 mai 1414","hard","Traité de Leicester marquant l’alliance entre l’Angleterre et la Bourgogne","Лестэрскі дагавор_ які адзначае саюз паміж Англіяй і Бургундыяй"
"moderne","5 février 1679","hard","Traité de Nimègue avec les Impériaux marquant la fin de la guerre de Hollande_ La France a acquis la Franche-Comté_ Cambrai_ Valenciennes_ l’Alsace_ le Sénégal et la Guyane","Дагавор Неймегена з імперыялістамі_ які адзначае канец вайны ў Галандыі_ набыў Францыю Франш-Камтэ_ Камбрэй_ Валенсія_ Эльзас_ Сенегал і Гаяну"
"moderne","28 mars 1741","hard","Traité de Nymphenburg scellant l’alliance de la France_ l’Espagne_ la Bavière_ la Saxe et la Pologne contre Marie-Thérèse d’Autriche","Німфенбургскі дагавор аб запячатцы альянсу Францыі_ Іспаніі_ Баварыі_ Саксоніі і Польшчы супраць Марыі Тэрэзіі Аўстрыйскай"
"moderne","17 septembre 1678","hard","Traité de paix franco-espagnol","Франка-Іспанскі мірны дагавор"
"contemporaine","30 mars 1856","hard","Traité de Paris mettant fin à la guerre de Crimée","Парыжскі дагавор аб спыненні Крымскай вайны"
"moderne","10 février 1763","hard","Traité de Paris mettant fin à la guerre de sept ans marquant la perte de nombreux territoires","Парыжскі дагавор аб спыненні сямігадовай вайны_ якая адзначае страту многіх тэрыторый"
"Moyen-âge","28 mai 1258","hard","Traité de Paris sur la restitution d’une partie des possessions anglaises par Saint Louis_ Henri III d’Angleterre devient vassal du roi de France","Парыжскі дагавор аб рэстытуцыі часткі ангельскіх уладанняў Сэнт-Луісам Ангельскім Генрыхам III становіцца васалам караля Францыі"
"Moyen-âge","12 avril 1229","hard","Traité de Paris_ Beaucaire Nîmes et Carcassonne sont rattachés au royaume (fin de la croisade des Albigeois)","Парыжскі дагавор_ Бакера Нім і Каркасон далучаны да каралеўства (канец крыжовага паходу Альбігенаў)"
"contemporaine","25 août 1883","hard","Traité de protectorat français sur le Tonkin et la Cochinchine","Французскі дагавор пра пратэктарат у дачыненні да Кітая Тонкіна і Кочына"
"moderne","16 août 1684","hard","Traité de Ratisbonne entre Louis XIV_ Léoplod Ier d’Autriche et Charles II d’Espagne accordant à la France les villes et territoires conquis","Рэгенсбургскі дагавор паміж Людовікам XIV_ Леапладам I Аўстрыйскім і Карлам II Іспанскім аб прадастаўленні Францыі заваяваных гарадоў і тэрыторый"
"moderne","30 octobre 1697","hard","Traité de Ryswick mettant fin à la guerre de la ligue d’Augsbourg où Louis XIV est contraint à de fortes concessions","Дагавор Рысвік аб спыненні вайны ў Аўгсбурскай лізе_ дзе Людовік XIV вымушаны моцна саступаць"
"contemporaine","7-9 juillet 1807","hard","Traité de Tilsit scellant la paix et l’alliance de Napoléon et du Tsar","Дагавор аб Тыльзіце_ які апякуе мір і саюз Напалеона і цара"
"contemporaine","24 mars 1860","hard","Traité de Turin : La France cède la Sardaigne en contrepartie de Nice et la Savoie","Турынскі дагавор: Францыя прадае Сардзінію ўзамен на Ніцу і Савой"
"Moyen-âge","Août 843","hard","Traité de Verdun sur le partage de l’empire entre les trois frères","Вердэнскі дагавор аб падзеле імперыі паміж трыма братамі"
"moderne","1 mai 1756","hard","Traité de Versailles scellant l’alliance de la France à l’Autriche contre la Prusse et l’Angleterre","Версальскі дагавор_ які ўшчыльняе саюз Францыі з Аўстрыяй супраць Прусіі і Англіі"
"moderne","2 mai 1598","hard","Traité de Vervins entre Henri IV et Philippe II d’Espagne","Вервінскі дагавор паміж Генрыхам IV і Філіпам II Іспанскім"
"moderne","18 novembre 1738","hard","Traité de Vienne mettant fin à la guerre de succession de Pologne","Венскі дагавор аб спыненні вайны за спадчыну Польшчы"
"moderne","3 avril 1559","hard","Traité du Cateau-Cambresis mettant fin à la guerre entre la France d’un côté et l'Espagne et le Saint-Empire romain germanique de l’autre","«Дагавор Камо-Камбрэзіс аб заканчэнні вайны паміж Францыяй з аднаго боку і Іспаніяй і Свяшчэннай Рымскай імперыяй з другога»."
"moderne","24 août 1774","hard","Turgot_ contrôleur général des finances_ lance une réforme économique libérale","Тэрго_ генеральны кантралёр фінансаў_ запускае ліберальную эканамічную рэформу"
"contemporaine","7 mai 1915","hard","Un sous-marin allemand coule le Lusitania (1 198† dont 128 américains) au sud-est de l’Irlande","Нямецкая падводная лодка апускае Лузітанію (1198 †_ у тым ліку 128 амерыканскіх) на паўднёвым усходзе Ірландыі"
"Moyen-âge",719,"hard","Victoire de Charles Martel à Néry contre les troupes de Neustrie","Перамога Карла Мартэля ў Нэры супраць войскаў Ноўстрыі"
"Moyen-âge",507,"hard","Victoire de Clovis contre les Wisigoths","Перамога Кловіса супраць вестготаў"
"moderne","20 septembre 1792","hard","Victoire de Dumouriez et Kellerman contre les Prussiens à Valmy","Перамога Дзюмарэса і Келермана супраць прусаў у Валмі"
"moderne","20 octobre 1587","hard","Victoire de Henri de Navarre à Coutras sur la Ligue","Перамога Анры дэ Наварры ў Кутрасе ў Лізе"
"moderne","14 mars 1590","hard","Victoire de Henri IV à Ivry contre la ligue","Перамога Генрыха IV у Іўры супраць лігі"
"moderne","20 septembre 1589","hard","Victoire de Henri IV sur la Ligue à Arques","Перамога Генрыха IV у Лізе ў Аркесе"
"moderne","15 juin 1595","hard","Victoire de Henri IV sur les Espagnols à Fontaine-Française","Перамога Генрыха IV на іспанскай мове ў Фонтен-Франсуазе"
"contemporaine","3 juillet 1830","hard","Victoire de la gauche aux élections législatives","Перамога левых на парламенцкіх выбарах"
"contemporaine","14 octobre 1806","hard","Victoire de Napoléon à Iéna et à Auerstadt","Перамога Напалеона ў Ене і Аўерштадце"
"contemporaine","14 juin 1807","hard","Victoire de Napoléon contre les Russes à Friedland","Перамога Напалеона супраць расейцаў у Фрыдландыі"
"Moyen-âge","27 juillet 1214","hard","Victoire de Philippe Auguste à Bouvines sur la coalition Boulogne-Flandre-Othon","Перамога Філіпа Агюста Бувіну ў кааліцыі Булон-Фландрыя-Отон"
"Moyen-âge","12 septembre 1213","hard","Victoire des armées catholiques contre le comte de Toulouse et le roi d’Aragon lors de la bataille du Muret","Перамога каталіцкіх армій супраць графа Тулузы і караля Арагона падчас бітвы пры Мурэце"
"contemporaine","13 mai 1849","hard","Victoire des monarchistes aux élections législatives","Перамога манархістаў на заканадаўчых выбарах"
"contemporaine","5 mars 1876","hard","Victoire des républicains aux élections législatives (III République)","Перамогі рэспубліканцаў на заканадаўчых выбарах (III Рэспубліка)"
"contemporaine","28 octobre 1877","hard","Victoire des républicains aux élections législatives (III République)","Перамогі рэспубліканцаў на заканадаўчых выбарах (III Рэспубліка)"
"Moyen-âge",1047,"hard","Victoire des troupes de Guillaume et Henri Ier contre les barons rebelles à Val-les-Dunes","Перамога войскаў Гіём і Генрыха I супраць паўстанцкіх баронаў у Валь-ле-Дзюны"
"contemporaine","30 novembre 1919","hard","Victoire du Bloc national aux élections législatives (Chambre Bleu Horizon)","Перамога Нацыянальнага блока на выбарах у заканадаўчыя органы (Палата Сіняга Гарызонту)"
"contemporaine","8 janvier 1961","hard","Victoire du oui au référendum sur l’autodétermination en Algérie","Перамога так на рэферэндуме аб самавызначэнні Алжыра"
"Moyen-âge","21 juillet 1242","hard","Victoire sur Henri III (roi d’Angleterre) et les Poitevins à Taillebourg et à Saintes","Перамога над Генрыхам III (каралём Англіі) і Пайтэвінамі ў Тальбургу і Сэнт"
"contemporaine","15 mars 1850","hard","Vote de la loi Falloux confiant l’enseignement à l’église","Прагаласуйце за закон Falloux_ які даручае навучанне царкве"
"contemporaine","21-25 avril 1961","medium","« Putsch des généraux » à Alger_ tentative de coup d’État"," Пуш генералаў у Алжыры_ спроба дзяржаўнага перавароту"
"contemporaine","18 mars 1962","medium","Accords d’Évian mettant fin à la guerre d’Algérie","Дамовы аб Эвіанскім скасаванні вайны ў Алжыры"
"contemporaine","19 décembre 1974","medium","Adoption du projet de loi sur l’Interruption Volontaire de Grossesse (IVG) pour une durée probatoire de 5 ans","Прыняцце законапраекта аб добраахвотным перапыненні цяжарнасці (IVG) на выпрабавальны тэрмін 5 гадоў"
"contemporaine","28 décembre 1967","medium","Adoption par l’assemblée de la Loi Neuwirth légalisant la contraception","Прыняцце Асамблеяй закона Нойвірт _ які легалізуе кантрацэпцыю"
"Moyen-âge",796,"medium","Aix-la-Chapelle est choisie pour capitale","Аахен абраны для капіталу"
"Moyen-âge",788,"medium","Annexion de la Bavière","Далучэнне Баварыі"
"contemporaine","18 juin 1940","medium","Appel à la résistance du général De Gaulle réfugié à Londres","Заклік да супраціву бежанцам генерала дэ Голя ў Лондане"
"contemporaine","17 juin 1940","medium","Appel radiophonique du maréchal Pétain à cesser le combat","Радыё заклік маршала Пітана спыніць бой"
"contemporaine","2 juin 1793","medium","Arrestation des chefs girondins","Арышт лідэраў Жыронды"
"contemporaine","15 octobre 1894","medium","Arrestation du capitaine Dreyfus soupçonné d’espionnage (l’affaire Dreyfus)","Арышт капітана Дрэйфуса_ падазраванага ў шпіянажы (справа Дрэйфуса)"
"moderne","2 août 1589","medium","Assassinat d’Henri III_ Henri de Navarre lui succède","Забойства Генрыха III_ Генрых Наварскі яго пераемны"
"contemporaine","24 juin 1894","medium","Assassinat du président Sadi Carnot par Santo Caserio_ anarchiste italien à Lyon","Замах на прэзідэнта Садзі Карно Санта Касерё_ італьянскага анархіста ў Ліёне"
"contemporaine","14 janvier 1858","medium","Attentat d’Orsini contre l’empereur (8†)","Атака Орсіні супраць імператара (8 †)"
"contemporaine","22 août 1962","medium","Attentat manqué de l’OAS (Organisation armée secrète_ pour une Algérie française) contre De Gaulle au Petit-Clamart","Прамахнутая атака ААП (Сакрэтная армейская арганізацыя_ для французскага Алжыра) супраць Дэ Голя ў Пеці-Кламары"
"contemporaine","2 septembre 1870","medium","Capitulation de Napoléon III à Sedan qui devient prisonnier","Капітуляцыя Напалеона III у Седане_ які становіцца палонным"
"Moyen-âge",806,"medium","Charlemagne partage son royaume entre ses trois fils Charles_ Louis (Aquitaine) et Pépin (Lombardie)","Карл Вялікі падзяляе сваё каралеўства паміж трыма сынамі Чарльзам_ Луі (Аквітанія) і Піпінам (Ламбардыя)"
"Moyen-âge","Novembre 887","medium","Charles II est déposé et enfermé dans une abbaye","Карл II скінуты і зачынены ў абацтве"
"Moyen-âge",716,"medium","Charles Martel devient maire du palais (plus hauts dignitaires_ après les rois_ des royaumes francs) d’Austrasie","Чарльз Мартэль становіцца мэрам палаца (вышэйшых саноўнікаў_ пасля каралёў_ каралеўстваў Франк) Аўстраліі"
"contemporaine","1 août 1908","medium","Clémenceau ordonne l’arrestation de syndicalistes CGT","Клемансо распараджаецца арыштаваць прафсаюзных актывістаў CGT"
"moderne","10 septembre 1567","medium","Condé et Coligny attaquent Paris_ 2eme guerre de religion","Кандэ і Колінія атакуюць Парыж_ 2-я вайна рэлігіі"
"Moyen-âge",1204,"medium","Conquête de la Normandie par Philippe Auguste","Заваяванне Нармандыі Філіпам Огюстам"
"contemporaine","8 août 1829","medium","Constitution du gouvernement Polignac (ultra-royaliste)","Канстытуцыя ўрада Паліньяка (ультра-каралеўская)"
"contemporaine","2 décembre 1851","medium","Coup d’État de Louis-Napoléon Bonaparte prolongeant son mandat pour 10 ans","Дзяржаўны пераварот Луі-Напалеона Банапарта працягвае свой мандат на 10 гадоў"
"contemporaine","3 octobre 1940","medium","Création d’un statut pour les Juifs en France leur interdisant un certain nombre de fonctions","Стварэнне статусу для яўрэяў у Францыі_ якое забараняе шэраг функцый"
"contemporaine","28 mars 1803","medium","Création du Franc germinal (monnaie)","Стварэнне франка Гермінал (валюта)"
"contemporaine","10 mars 1793","medium","Création du Tribunal Révolutionnaire","Стварэнне рэвалюцыйнага трыбунала"
"contemporaine","14 janvier 1963","medium","De Gaulle s’oppose à l’entrée de la Grande Bretagne au sein du marché commun","Дэ Гол выступае супраць уваходжання Брытаніі ў агульны рынак"
"contemporaine","8 novembre 1942","medium","Débarquement allié en Afrique du nord (opération Torch)","Дэсант саюзнікаў у Паўночнай Афрыцы (факельная аперацыя)"
"contemporaine","1 novembre 1954","medium","Début de l’insurrection algérienne dans le massif des Aurès","Пачатак алжырскага паўстання ў масіве Aurès"
"contemporaine","10 mars 1793","medium","Début de l’insurrection en Vendée","Пачатак паўстання ў Вандэі"
"contemporaine","24-29 janvier 1960","medium","Début de la semaine des barricades à Alger contre l’autodétermination","Пачатак тыдня барыкад у Алжыры супраць самавызначэння"
"Moyen-âge",885,"medium","Début du siège de Paris par les Normands","Пачатак абломы Парыжа нарманамі"
"moderne","8 mars 1759","medium","Décret du Conseil d’État interdisant l’Encyclopédie ou Dictionnaire raisonné des sciences_ des arts et des métiers est une encyclopédie française_ éditée sous la direction de Denis Diderot et_ partiellement_ de Jean Le Rond d'Alembert","Указ Дзяржсавета аб забароне энцыклапедыі альбо слоўніка аргументаваных навук_ дэкаратыўна-прыкладнога мастацтва зяўляецца французскай энцыклапедыяй_ пад рэдакцыяй Дэні Дзідро і часткова Жана Ле-Рон-дАмберт"
"moderne","24 février 1525","medium","Défaite de Pavie_ François Ier est fait prisonnier","Параза Францыі Францыі I трапіў у палон"
"Moyen-âge","26 août 1346","medium","Défaite des armées françaises à Crécy face aux Anglais","Параза французскіх армій у Крэсі супраць ангельскіх"
"contemporaine","7 mai 1954","medium","Défaite française à Dien Biên Phû","Французская параза ў Dien Biên Phû"
"contemporaine","20 janvier 1946","medium","Démission du général De Gaulle opposé au régime « des partis »","Адстаўка генерала Дэ Голя супраць рэжыму партый "
"contemporaine","13 juillet 1870","medium","Dépêche d’Ems de Bismarck_ est un imbroglio diplomatique (mauvaise lecture d’un télégramme)_ qui a servi de prétexte pour engager la guerre franco-allemande","Адпраўка Эма Бісмарка - гэта дыпламатычная імброгліё (дрэннае чытанне тэлеграмы)_ якая паслужыла падставай для ўвядзення франка-германскай вайны"
"Moyen-âge","24 juin 1340","medium","Destruction de la flotte française lors de la bataille de l’Écluse (près de Bruges)","Знішчэнне французскага флоту падчас бітвы пры Замку (каля Бруге)"
"contemporaine","5 novembre 1827","medium","Dissolution de la Chambre des députés","Роспуск Палаты дэпутатаў"
"contemporaine","15 mai 1991","medium","Édith Cresson est la première femme à devenir premier ministre","Эдзіт Крэсан - першая жанчына_ якая стала прэмер-міністрам"
"Moyen-âge","7 octobre 1337","medium","Édouard III d’Angleterre revendique le trône de France","Англійскі Эдвард III прэтэндуе на трон Францыі"
"contemporaine","19 décembre 1965","medium","Élection du général De Gaulle à la présidence de la république au second tour (55%) au suffrage universel","Выбары генерала Дэ Голя ў прэзідэнты рэспублікі ў другім туры (55%) усеагульным выбарчым правам"
"contemporaine","3 mai 1814","medium","Entrée de Louis XVIII à Paris","Уезд Людовіка XVIII у Парыж"
"moderne","7-24 juin  1520","medium","Entrevue du Camp du Drap d’Or. François Ier rencontra Henri VIII d’Angleterre qui resta neutre Face à Charles Quint","Інтэрвю лагера Драп-дОра. Францыск I сустрэўся з Генрыхам VIII Англіі_ які застаўся нейтральным перад тварам Карла V"
"contemporaine","7 juillet 1904","medium","Exclusion des congrégations de l’enseignement (Loi Combes)","Выключэнне кангрэгацый з адукацыі (закон аб Combes)"
"contemporaine","25 avril 1905","medium","Fondation de la Section Française de l’Internationale Ouvrière (SFIO)","Фонд Французскай секцыі працоўнага інтэрнацыяналу (SFIO)"
"antique",-598,"medium","Fondation Marseille par les Grecs (Phocéens)","Марсэльскі фонд грэкаў (фінікійцаў)"
"Moyen-âge","25 décembre 1066","medium","Guillaume de Normandie est couronné roi d’Angleterre à Westminster","Уільям Нармандскі каранаваны ў Вестмінстэрскім карале Англіі"
"Moyen-âge","Mai 987","medium","Hugues Capet_ comte de Paris et d’Orléans est élu roi à Senlis par les Grands du Royaume","Граф Парыж і Арлеан Хюз абраны каралём у Сенлісе па велічы Каралеўства"
"contemporaine","24 août 1837","medium","Inauguration de la première voie de chemin de fer entre Paris et Orléans","Урачыстае адкрыццё першай чыгуначнай лініі паміж Парыжам і Арлеанам"
"Moyen-âge",1309,"medium","Installation du pape Clément V en Avignon","Устаноўка Папы Клімента V у Авіньёне"
"Moyen-âge","19 septembre 1356","medium","Jean II est fait prisonnier par les Anglais lors de la défaite de Poitiers","Ян II трапіў у палон да ангельцаў падчас разгрому Пуацье"
"Moyen-âge","23 mai 1430","medium","Jeanne d’Arc est capturée par les Bourguignons devant Compiègne","Жанна дАрк захоплена бургундамі перад кампаніем"
"moderne","12 mai 1588","medium","Journée des barricades_ insurrection des Parisiens contre Henri III","Дзень барыкад_ паўстанне парыжан супраць Генрыха III"
"moderne","11 novembre 1630","medium","Journée des dupes_ le roi confirme Richelieu dans ses fonctions","Дзень дуброў_ цар пацвярджае Рышэлье ў яго функцыях"
"contemporaine","5 juillet 1974","medium","L’âge de la majorité est abaissé à 18 ans","Узрост паўналецця зніжаецца да 18 гадоў"
"moderne","20 avril 1792","medium","L’Assemblée législative déclare la guerre au roi de Bohême et de Hongrie","Заканадаўчы сход абяўляе вайну каралю Багеміі і Венгрыі"
"moderne","4 août 1789","medium","L’assemblée vote l’abolition des privilèges","Асамблея галасуе за адмену льгот"
"contemporaine","23 mai 1915","medium","L’Italie déclare la guerre à la l’Autriche-Hongrie","Італія абяўляе вайну Аўстра-Венгрыі"
"contemporaine","17 septembre 1793","medium","La Convention adopte la Loi des suspects_  début de la terreur","Канвенцыя прымае закон аб падазраваных_ пачатак тэрору"
"moderne","10 juillet 1778","medium","La France déclare la guerre à l’Angleterre car elle cherche à récupérer de l'influence_ voire des territoires d'Amérique du Nord cédés à la Grande-Bretagne lors du traité de Paris de 1763. ","Францыя абяўляе Англію вайну_ таму што яна імкнецца вярнуць уплыў_ нават тэрыторыі Паўночнай Амерыкі_ аддадзеныя Брытаніі падчас Парыжскага дагавора 1763 года."
"contemporaine","1 juillet 1966","medium","La France se retire du dispositif intégré de l’OTAN","Францыя выходзіць з інтэграванай сістэмы НАТА"
"moderne","27 décembre 1788","medium","Le Conseil royal décide de la double représentation du tiers-état","Каралеўскі савет прымае рашэнне аб двайным прадстаўніцтве трэцяй дзяржавы"
"Moyen-âge","30 octobre 1422","medium","Le dauphin (héritier de la couronne) se proclame roi à Bourges","Дэльфін (спадчыннік кароны) абвяшчае сябе каралём у Буржы"
"contemporaine","13 mai 1958","medium","Le général Massu lance l’insurrection en Algérie et crée un comité de salut public et appelle de Gaulle","Генерал Масу распачаў паўстанне ў Алжыры і стварае камітэт грамадскай бяспекі і заклікае дэ Голя"
"contemporaine","26 mars 1918","medium","Le maréchal Foch est nommé généralissime des forces alliées","Маршал Фош названы Генералісімусам саюзных сіл"
"contemporaine","24 mai 1873","medium","Le maréchal Mac-Mahon est élu président de la république","Маршал Мак-Махон абраны прэзідэнтам рэспублікі"
"moderne","4 octobre 1511","medium","Le pape Jules II crée la Sainte Ligue contre la France. Excommunication de Louis XII","Папа Юлій II стварае Святую Лігу супраць Францыі_ адлучэнне Людовіка XII"
"moderne","16 juillet 1789","medium","Le roi ordonne le renvoi des troupes rassemblées autour de Paris et signe l'ordre de rappel  Necker_ qui tente de s’opposer à la confiscation des biens du clergé.","Кароль загадвае вызваліць войскі_ сабраныя вакол Парыжа_ і падпісвае загад аб адкліканні Некера_ які спрабуе выступіць супраць канфіскацыі маёмасці духавенства."
"contemporaine","7 août 1913","medium","Le service militaire et porté à trois ans","Воінская служба павялічылася да трох гадоў"
"moderne","17 juin 1789","medium","Le Tiers-état se proclame assemblée nationale (490 pour et 90 contre)","Трэцяя маёмасць абвясціла сябе нацыянальным сходам (490 за і супраць 90)"
"contemporaine","13 février 1937","medium","Léon Blum annonce une pause dans les réformes","Леон Блюм абвяшчае паўзу ў рэформах"
"contemporaine","5 octobre 1944","medium","Les femmes acquièrent le droit de vote","Жанчыны набываюць права голасу"
"moderne","30 septembre 1681","medium","Les français s’emparent de Strasbourg","Французы захапілі Страсбург"
"moderne","23 août 1568","medium","Les Protestants reprennent les armes_ début de la troisième guerre de religion","Пратэстанты зноў бяруць зброю_ пачатак трэцяй рэлігійнай вайны"
"contemporaine","21 mars 1884","medium","Loi « Wladeck-Rousseau » reconnaissant le droit syndical","Закон Wladeck-Rousseau аб прызнанні права на арганізацыю"
"contemporaine","28 juillet 1999","medium","Loi instituant la Couverture Maladie Universelle (CMU)","Закон аб усталяванні універсальнага аховы здароўя (КМУ)"
"contemporaine","1 juillet 1901","medium","Loi sur les associations à but non lucratif","Закон аб некамерцыйных абяднаннях"
"moderne","1er novembre 1511","medium","Louis XII réunit un concile à Pise qui suspend Jules II (pape)","Людовік XII склікае сабор у Пізе_ які прыпыняе дзеянне Юлія II (Папа Рымскі)"
"moderne","7 septembre 1651","medium","Louis XIV est officiellement reconnu majeur","Людовік XIV афіцыйна прызнаны галоўным"
"moderne","17 juillet 1789","medium","Louis XVI reçoit de La Fayette la cocarde tricolore à l’hôtel de ville","Людовік XVI атрымлівае ад Ла-Фает трохкаляровую какаду ў мэрыі"
"contemporaine","24 février 1848","medium","Louis-Philippe abdique en faveur de son petit-fils_ le comte de Paris_ ce que la chambre refuse","Луі-Філіп адмаўляецца ад унука_ графа Парыжа_ у чым адмаўляецца пакой"
"contemporaine","9 août 1830","medium","Louis-Philippe Ier devient roi des Français_ début de la monarchie de Juillet","Луі-Філіп I становіцца каралём французаў_ пачатак манархіі ліпеня"
"contemporaine","17 février 1864","medium","Manifeste des soixante proclamant le besoin de représentation des ouvriers","Шэсцьдзесят маніфест аб абвяшчэнні неабходнасці прадстаўніцтва працоўных"
"Moyen-âge","28 janvier 814 ","medium","Mort de Charlemagne à Aix-la-Chapelle_ son fils Louis lui succède","Смерць Карла Вялікага ў Экс-ля-Шапелі_ ягоны сын Луі пераемны яму"
"moderne","10 juin 1584","medium","Mort de François d’Anjou_ Henri de Navarre devient héritier du trône de France","Смерць Франсуа ДАнью_ Генрых Наварскі становіцца спадчыннікам французскага трона"
"moderne","1 septembre 1715","medium","Mort de Louis XIV_ son arrière-petit-fils Louis_ lui succède","Смерць Людовіка XIV_ яго праўнука Людовіка_ дасягае яго"
"moderne","4 décembre 1642","medium","Mort de Richelieu_ le cardinal Mazarin le remplace","Смерць Рышэлье кардынал Мазарын замяняе яго"
"antique","Janvier 395","medium","Mort de Théodose_ l’empire romain est désormais séparé entre Orient et Occident","Смерць Феадосія_ Рымская імперыя цяпер падзелена паміж Усходам і Захадам"
"contemporaine","4 avril 1814","medium","Napoléon abdique à Fontainebleau sans conditions","Напалеон адмаўляецца ад Фонтенбло без умоў"
"contemporaine","6 juillet 1809","medium","Napoléon fait arrêter le pape_ et remporte la victoire contre l’Autriche à Wagram","Напалеон прымушае тату спыняцца і атрымлівае перамогу супраць Аўстрыі ў Ваграме"
"contemporaine","20 mars 1815","medium","Napoléon retourne en France et entre à Paris","Напалеон вяртаецца ў Францыю і ўваходзіць у Парыж"
"contemporaine","1 mars 1815","medium","Napoléon s’évade de l’île d’Elbe et débarque à Golfe-Juan (Provence)","Напалеон уцякае з вострава Эльба і прыбывае ў Гольф-Хуан (Праванс)"
"moderne","27 octobre 1614","medium","Ouverture des États Généraux (assemblée extraordinaire réunissant les trois ordres (les états) de la société : la noblesse_ le clergé et le tiers état (le reste))_ avec pour objectif d’affermir le nouveau pouvoir royal face aux manœuvres des grands féodaux","Адкрыццё Генеральнай Штаты (пазачарговая нарада_ якая абядноўвае тры ордэны (дзяржавы) грамадства: дваранства_ духавенства і трэцюю дзяржаву (астатнія)) з мэтай кансалідацыі новай каралеўскай улады ў адносінах да вялікіх манеўраў феадальная "
"moderne","5 mai 1789","medium","Ouverture des États Généraux à Versailles","Адкрыццё генерала штатаў у Версалі"
"moderne","19 mars 1563","medium","Paix d’Amboise accordant liberté de culte et de conscience aux Protestants chez eux","Мір Амбуазы_ які дае свабоду пакланення і сумлення пратэстантам дома"
"Moyen-âge","24 octobre 1360","medium","Paix de Calais_ ratification du traité de Brétigny (trève de 9 ans dans la guerre de cent ans)","Мір Кале_ ратыфікацыя Братынскага дагавора (пераміре 9 гадоў у Стогадовай вайне)"
"moderne","23 mars 1568","medium","Paix de Longjumeau mettant fin à la 2eme guerre de religion en confirmant l’édit d’Amboise","Мір Лонгюмо скончыў 2-ю рэлігійную вайну_ пацвердзіўшы Эдыкт Амбуаз"
"moderne","8 août 1570","medium","Paix de Saint-Germain mettant fin à la 3eme guerre de religion et accordant des places fortes aux Protestants","Мір Сен-Жэрмен заканчвае Трэцюю вайну рэлігіі і прадастаўляе апірышчы пратэстантам"
"moderne","29 novembre  1516","medium","Paix perpétuelle entre François Ier et les cantons suisses","Вечны мір паміж Францыскам І і Швейцарскімі кантонамі"
"Moyen-âge",751,"medium","Pépin est élu roi à Soissons par une assemblée de nobles et d’évêques","Пепін абраны каралём у Суассоне на сходзе дваран і біскупаў"
"contemporaine","10 juillet 1940","medium","Pétain abroge la constitution de la IIIeme République et devient chef de l’état","Петэн адмяняе канстытуцыю Трэцяй рэспублікі і становіцца кіраўніком дзяржавы"
"Moyen-âge","Mars 845","medium","Pillage de Paris par les Normands_ Charles paye une rançon contre leur départ","Рабаванне Парыжа нарманамі_ Чарльз плаціць выкуп за іх адезд"
"contemporaine","23 juillet 1926","medium","Poincaré prend la tête d’un gouvernement d’union nationale","Пуанкарэ прымае кіраўніка ўрада нацыянальнага адзінства"
"contemporaine","10 février 1998","medium","Première loi Aubry sur les 35 heures (35 heures de travail)","Першы закон Обры на 35 гадзін (35 гадзін працы)"
"antique",286,"medium","Premières incursions des Burgondes en Gaule","Першыя нашэсці бургунды ў Галіі"
"antique",253,"medium","Premières incursions des Francs en Gaule","Першыя нашэсці франкаў у Галію"
"contemporaine","5 juillet 1830","medium","Prise d’Alger par les troupes françaises_ exil du dey (le dey d’Alger est le titre des souverains de la régence d'Alger sous l'autorité nominale de l'Empire ottoman)","Захоп Алжыра французскімі войскамі_ выгнанне (дзеянне Алжыра - тытул ваяўнічых рэгіянальных графстваў Алжыра пад намінальнай уладай Асманскай імперыі) "
"Moyen-âge","4 août 1347","medium","Prise de Calais par Édouard III d’Angleterre","Кале_ узяты Англіяй Эдвардам III"
"Moyen-âge","15 juillet 1099","medium","Prise de Jérusalem par les croisés qui vont se livrer au pillage et au massacre de la population","Узяцце Іерусаліма крыжакамі_ якія будуць удзельнічаць у рабаванні і расправе над насельніцтвам"
"moderne","10 août 1792","medium","Prise du Palais des Tuileries (600† parmi les gardes suisses et 100† parmi le peuple)","Захоп палаца Тюільры (600 † сярод швейцарскіх гвардзейцаў і 100 † сярод людзей)"
"contemporaine","27 février 1998","medium","Publication de la liste de onze pays répondant aux critères économiques en vue de l’instauration de l’Euro","Публікацыя спісу з адзінаццаці краін_ якія адказваюць эканамічным крытэрыям стварэння Еўра"
"contemporaine","1 juin 1958","medium","Rappelé par le président_ De Gaulle devient président du Conseil","Па закліку прэзідэнта_ Дэ Гол становіцца прэзідэнтам Савета"
"contemporaine","31 mai 1850","medium","Réforme électorale restreignant le suffrage universel_ amputant d’un tiers le corps électoral","Выбарчая рэформа_ якая абмяжоўвае агульнае выбарчае права_ скарачае выбарчы орган на траціну"
"contemporaine","3 - 4 avril 2009","medium","Réintégration de la France dans le commandement intégré de l'OTAN","Рэінтэграцыя Францыі ў інтэграванае камандаванне НАТА"
"Moyen-âge",830,"medium","Révolte des grands du royaume contre Louis le Pieux","Паўстанне вялікага царства супраць Людовіка Пабожнага"
"contemporaine","21 juillet 1954","medium","Signature des accords de Genève mettant fin à la guerre d’Indochine","Подпіс Жэнеўскіх пагадненняў_ якія спыняюць вайну Індакітая"
"contemporaine","15 juillet 1801","medium","Signature du Concordat_ ce dernier organise les rapports entre les différentes religions et l’État dans toute la France","Канкардат подпісаў_ апошні арганізуе адносіны паміж рознымі рэлігіямі і дзяржавай па ўсёй Францыі"
"contemporaine","28 juin 1919","medium","Signature du traité de Versailles où la France obtient l’Alsace-Lorraine_ des indemnités et occupe la rive gauche du Rhin","Падпісанне Версальскага дагавора_ калі Францыя атрымлівае Эльзас-Латарынгію_ кампенсацыю і займае левы бераг Рэйна"
"moderne","3 août 1529","medium","Traité de Cambrai (Paix des Dames). François Ier conserve la Bourgogne et verse une rançon pour récupérer ses fils","Камбрайскі дагавор (Дама міру). Францыск I захоўвае Бургундыю і плаціць выкуп за аднаўленне сыноў ."
"moderne","15 janvier 1552","medium","Traité de Chambord entre Henri II et les princes allemands contre Charles Quint","Дамова Шамбор паміж Генрыхам II і нямецкімі князямі супраць Карла V"
"moderne","6 février 1778","medium","Traité de commerce et d’alliance entre la France et les États-Unis","Гандлёва-эканамічны дагавор паміж Францыяй і ЗША"
"Moyen-âge","21 mai 1420","medium","Traité de Troyes entre Philippe le Bon_ Charles VI et Henri V. Le dauphin (héritier de la couronne) perd le trône de France","Тройскі дагавор паміж Філіпам Добрым_ Карлам VI і Генрыхам В. Дэльфін (спадчыннік кароны) губляе трон Францыі"
"moderne","24 octobre 1648","medium","Traité de Westphalie_ il met fin à la guerre de trente ans avec l’Espagne","Вестфалійскі дагавор_ які сканчае вайну з Іспаніяй трыццацігадовай"
"contemporaine","12 mai 1881","medium","Traité du Bardo_ la Tunisie devient protectorat français","Дагавор Бардо_ Туніс становіцца французскім пратэктаратам"
"Moyen-âge","27 novembre 1095","medium","Urbain II prêche la première croisade lors du concile de Clermont","Урбан II прапаведуе першы крыжовы паход на Клермонцкім саборы"
"antique",-53,"medium","Victoire de Jules César contre les Belges_  fin de la ‘Guerre des Gaules’","Перамога Юлія Цэзара супраць бельгійцаў_ канец Гальскай вайны"
"antique",-58,"medium","Victoire de Jules César contre les Helvètes_ début de la ‘Guerre des Gaules’","Перамога Юлія Цэзара супраць Гельвеція_ пачатак Галскіх войнаў"
"contemporaine","8 février 1807","medium","Victoire de Napoléon contre les Russes à Eylau","Перамога Напалеона супраць расейцаў у Эйлаве"
