"period","date","level","fact_fr","fact_fa"
"contemporaine","18 septembre 1981","easy","Abolition de la peine de mort","لغو مجازات اعدام"
"moderne","26 août 1789","easy","Adoption de la déclaration des droits de l’Homme et du citoyen","پذیرش اعلامیه حقوق انسان و شهروند"
"contemporaine","14 janvier 1930","easy","Adoption de la loi Maginot instaurant une ligne de défense","تصویب قانون Maginot ایجاد خط دفاع"
"contemporaine","13 octobre 1946","easy","Adoption de la nouvelle constitution (IVeme république) par référendum","تصویب قانون اساسی جدید (جمهوری چهارم) توسط همه پرسی"
"contemporaine","28 septembre 1958","easy","Approbation de la constitution de la Veme république par référendum (79% de oui)","تصویب قانون اساسی جمهوری پنجم با همه پرسی (79٪ بله)"
"contemporaine","28 janvier 1871","easy","Armistice franco-allemand_ capitulation de Paris","آتش بس فرانسه و آلمان ، کاپیتولاسیون پاریس"
"moderne","21 juin 1791","easy","Arrestation de la famille royale à Varennes","بازداشت خانواده سلطنتی در وارنس"
"contemporaine","16-17 juillet 1942","easy","Arrestation de nombreux Juifs parisiens lors de la rafle du « Vel’ d’hiv »","بازداشت بسیاری از یهودیان پاریسی در جریان حمله ول ."
"Moyen-âge","13 octobre 1307","easy","Arrestation des Templiers en France","دستگیری معابد در فرانسه"
"contemporaine","31 juillet 1914","easy","Assassinat à Paris de Jean Jaurès hostile à la guerre par R. Villain","ترور در پاریس از ژان ژورز خصمانه جنگ توسط ر. ویوین"
"contemporaine","28 juin 1914","easy","Assassinat de l’archiduc François-Ferdinand d’Autriche à Sarajevo_ ce tragique évènement augmenta les tensions existantes","ترور Archduke Franz فردیناند از اتریش در سارایوو ، این رویداد غم انگیز تنش های موجود را افزایش داد"
"Moyen-âge","25 décembre 498","easy","Baptême de Clovis à Reims","غسل تعمید کلوویس در ریمز"
"contemporaine","11 novembre 1918","easy","Capitulation de l’Allemagne à Rethondes","کاپیتولاسیون آلمان در رتوندس"
"moderne","5 et 6 octobre 1789","easy","Ces deux jours font partis des « grandes journées » de la Révolution française et ont abouti au retour définitif et contraint du roi Louis XVI et de sa famille à Paris_ « Journées d’octobre ». La foule envahit le château de Versailles","این دو روز بخشی از روزهای عالی انقلاب فرانسه است و منجر به بازگشت نهایی و اجباری پادشاه لوئیس شانزدهم و خانواده اش در پاریس ، روزهای اکتبر. شد. جمعیت به کاخ ورسای حمله می کنند."
"Moyen-âge","25 décembre 800","easy","Charlemagne est couronné empereur de l’empire des Romains à Rome par le pape Léon III","شارلمانی تاجگذاری امپراتور روم در روم توسط پاپ لئو سوم"
"Moyen-âge",732,"easy","Charles Martel remporte la bataille à Poitiers contre les Musulmans mettant fin à l’invasion sarrasine en France","چارلز مارتل نبرد در Poitiers علیه مسلمانان پایان یافته حمله به Saracen در فرانسه پیروز شد"
"contemporaine","4 septembre 1870","easy","Chute du Second Empire. Proclamation de la République","سقوط امپراتوری دوم ، اعلامیه جمهوری"
"Moyen-âge",481,"easy","Clovis roi des Francs. Avènement de Clovis_ qui devient roi des Francs","کلوویس پادشاه فرانک ها ، ظهور کلوویس ، که پادشاه فرانک ها می شود"
"contemporaine","20 août 1857","easy","Condamnation de Baudelaire pour les « Fleurs du mal »","محکوم کردن بودلر برای گلهای شر "
"contemporaine","18 mai 1804","easy","Constitution de l’An XII_ Napoléon devient empereur","قانون اساسی سال XII ، ناپلئون امپراتور می شود"
"contemporaine","1 janvier 1958","easy","Création de la Communauté Économique Européenne (CEE)","ایجاد جامعه اقتصادی اروپا (ΕΟΚ)"
"contemporaine","22 juillet 1940","easy","Création des Forces Françaises Libres (FFL)_ nom donné aux forces armées ralliées à la France libre sous l'égide du général de Gaulle","ایجاد نیروهای فرانسوی آزاد (FFL) ، نامی به نیروهای مسلح که تحت نظارت ژنرال دوگل به فرانسه آزاد راهپیمایی شده اند"
"contemporaine",2015,"easy","Crise migratoire_ plus d’un million de migrants sont arrivés cette année-là en Europe","بحران مهاجرت ، بیش از یک میلیون مهاجر در آن سال وارد اروپا شدند"
"contemporaine","21 décembre 1958","easy","De Gaulle devient président de la République","دوگل رئیس جمهور جمهوری شد"
"contemporaine","2 juin 1958","easy","De Gaulle obtient les pleins pouvoirs constitutionnels","دوگل قدرتهای کامل قانون اساسی را بدست می آورد"
"contemporaine","6 juin 1944","easy","Débarquement allié en Normandie (opération Overlord)","فرود متفقین در نرماندی (عملیات ارباب)"
"contemporaine","27 juillet 1830","easy","Début de l’insurrection à Paris (Les Trois Glorieuses)_ la révolution de Juillet est la deuxième révolution française","آغاز قیام در پاریس (سه شکوه) ، انقلاب ژوئیه دومین انقلاب فرانسه است"
"contemporaine","21 février 1916","easy","Début de l’offensive allemande sur Verdun","آغاز حمله آلمان به وردون"
"contemporaine","7 novembre 1917","easy","Début de la « Révolution d’octobre » en Russie_ un mois après l'Armistice de Brest-Litovsk entre la Russie et l’Allemagne est conclue","آغاز انقلاب اکتبر در روسیه ، یک ماه پس از پایان آتش بس برست-لیتوفسک بین روسیه و آلمان"
"contemporaine","6-13 septembre 1914","easy","Début de la bataille de la Marne","آغاز نبرد مارن"
"contemporaine","6 mai 1968","easy","Début des manifestations d'étudiants_ ainsi que des grèves générales et sauvages_ plus connu sous le nom de Mai…","شروع تظاهرات دانشجویی و همچنین اعتصابات عمومی و وحشی که به عنوان مای شناخته می شوند ..."
"contemporaine","19 juillet 1870","easy","Déclaration de guerre à la Prusse","اعلامیه جنگ به پروس"
"contemporaine","21 septembre 1792","easy","Déclaration de la république_  An I de la république","اعلامیه جمهوری ، سال اول جمهوری"
"contemporaine","18 juin 1815","easy","Défaite de Napoléon à Waterloo","شکست ناپلئون در واترلو"
"contemporaine","25-29 nov. 1812","easy","Désastre de la Bérézina_ les troupes impériales en retraite subissent de grosse perte face une armée russe inférieure en nombre. Ce fait a tellement marqué la mémoire française_ que l’expression « C'est une Bérézina » est fréquemment utilisée pour caractériser une déroute sur le plan sportif ou électoral","فاجعه برزینا ، سربازان امپریالیست عقب نشینی متحمل خسارت بزرگی در مقابل ارتش روسیه در تعداد بی شماری می شوند. این واقعیت آنقدر حافظه فرانسوی را نشان داده است ، که بیان این یک Berezina است اغلب برای توصیف یک شکست استفاده می شود. ورزشی یا انتخاباتی "
"contemporaine","23 décembre 1973","easy","Doublement du prix du pétrole brut lors de la réunion de l’Opep à Téhéran_  début de la première crise pétrolière","دو برابر شدن قیمت نفت خام در نشست اوپک در تهران ، آغاز اولین بحران نفتی"
"moderne","18 octobre 1685","easy","Édit de Fontainebleau révoquant l’édit de Nantes","Edict of Fontainebleau Revival of Nantes"
"moderne","13 avril 1598","easy","Édit de Nantes_ le catholicisme est religion d’état et le protestantisme minorité reconnue","بخشنامه نانت ، کاتولیسم مذهبی دولتی است و اقلیت شناخته شده پروتستانتیسم"
"moderne","17 janvier 1562","easy","Édit de Saint-Germain réglementant l’exercice du culte protestant","دستورالعمل سن ژرمن تنظیم کننده اعمال عبادت پروتستان"
"moderne","Août 1539","easy","Édit de Villers-Cotterêts instituant le français comme langue officielle du royaume","Edict of Villers-Cotterêts که فرانسوی را به عنوان زبان رسمی پادشاهی تأسیس می کند"
"contemporaine","16 mai 2007","easy","Election de Nicolas Sarkozy à la présidence de la république","انتخاب نیکلاس سارکوزی به ریاست جمهوری"
"contemporaine","7 mai 2017","easy","Emmanuel Macron devient le 8e président de la République.","امانوئل ماکرون هشتمین رئیس جمهور جمهوری شد."
"contemporaine",2002,"easy","Entrée en vigueur de l’Euro (1er janvier). Jacques Chirac est réélu président","لازم الاجرا شدن یورو (اول ژانویه) ژاک شیراک دوباره انتخاب شد رئیس جمهور"
"Moyen-âge","30 mai 1431","easy","Exécution de Jeanne d’Arc place du vieux marché à Rouen","Joan of Arc محل اجراي بازار قديمي در روئن"
"contemporaine","16 octobre 1793","easy","Exécution de Marie-Antoinette","اعدام ماری آنتوانت"
"contemporaine","21 janvier 1793","easy","Exécution du roi Louis XVI","اعدام پادشاه لوئیس شانزدهم"
"contemporaine","28 juillet 1794","easy","Exécution sans jugement de Robespierre_ Saint-Just et leurs amis","اعدام بدون قضاوت Robespierre ، Saint-Just و دوستان آنها"
"antique","août 476","easy","Fin de l’empire romain d’Occident. Romulus Augustule est déposé_ marquant la fin de l’empire romain d’Occident","پایان امپراتوری روم غربی رومولوس آگوستول سپرده شده است ، و نشانگر پایان امپراتوری روم غربی است"
"antique",-43,"easy","Fondation de la colonie romaine de Lugdunum (Lyon)","بنیاد مستعمره رومی لوگدونوم (لیون)"
"antique",-118,"easy","Fondation de Narbonne par les Romains","بنیاد Narbonne توسط رومیان"
"contemporaine","15 mai 2012","easy","François Hollande devient président de la république.","فرانسوا اولاند رئیس جمهور جمهوری شد."
"contemporaine","8 mai 1988","easy","François Mitterrand (54_01 %) est réélu président de la république devant Jacques Chirac","François Mitterrand (54،01٪) به عنوان رئیس جمهور جمهوری انتخاب شد و جلوی ژاک شیراک"
"moderne","20 juin 1791","easy","Fuite de la famille royale","فرار از خانواده سلطنتی"
"contemporaine","15 juin 1969","easy","Georges Pompidou remporte les élections (58%) présidentielles devant Alain Poher","ژرژ پمپیدو در انتخابات ریاست جمهوری (58٪) پیش از آلن پور پیروز شد"
"Moyen-âge",1348,"easy","Grande Peste en France","طاعون بزرگ در فرانسه"
"moderne","13 juin 1576","easy","Henri de Navarre abjure le catholicisme et reprend la tête du parti protestant","هنری دو ناوار کاتولیک را بیزار می کند و رئیس حزب پروتستان را می گیرد"
"moderne","25 juillet 1593","easy","Henri IV abjure le protestantisme et devient catholique. « Paris vaut bien une messe »","هنری چهارم پروتستانتیسم را خاموش و تبدیل به یک کاتولیک پاریس ارزش توده ای دارد "
"contemporaine","7 mai 1995","easy","Jacques Chirac (52_64%) remporte au second tour les élections présidentielles","ژاک شیراک (52.64٪) در دور دوم انتخابات ریاست جمهوری پیروز شد"
"Moyen-âge","8 mai 1429","easy","Jeanne d’Arc délivre Orléans","Joan of Arc Orléans را تحویل می دهد"
"contemporaine","3 août 1914","easy","L’Allemagne déclare la guerre à la France","آلمان جنگ را با فرانسه اعلام کرد"
"contemporaine","1 août 1914","easy","L’Allemagne déclare la guerre à la Russie","آلمان جنگ با روسیه را اعلام کرد"
"contemporaine","4 août 1914","easy","L’Angleterre déclare la guerre à l’Allemagne suite à la violation de la neutralité belge","انگلیس به دنبال نقض بی طرفی بلژیک با آلمان جنگ اعلام کرد"
"contemporaine","23 juin 1916","easy","L’offensive allemande sur Verdun est stoppée","حمله آلمان به وردون متوقف شده است"
"antique",-52,"easy","La bataille d’Alésia. Échec de l’insurrection des Gaules de Vercingétorix","نبرد آلیشیا ، شکست در قیام غول های Vercingetorix"
"contemporaine","18 décembre 1916","easy","La bataille de Verdun s’achève sur une victoire française","نبرد وردون با پیروزی فرانسه پایان یافت"
"Moyen-âge","19 octobre 1453","easy","La capitulation de Bordeaux marque la fin de la guerre de Cent Ans et le retour de la Guyenne (ancienne province_ située dans le sud-ouest de la France) sous domination française","کاپیتولاسیون بوردو پایان جنگ صد ساله و بازگشت گویین (استان پیشین ، واقع در جنوب غربی فرانسه) تحت سلطه فرانسه است."
"moderne","14 juillet 1789","easy","La foule s’empare de la Bastille et massacre De Launay_ son gouverneur (date de la fête nationale française)","جمعیت Bastille را تصرف می کنند و قتل عام De Launay ، فرماندار آن (تاریخ تعطیلات ملی فرانسه)"
"contemporaine",2015,"easy","La France est la cible d’une série d’attentats_ revendiqués par des terroristes se disant islamistes","فرانسه هدف حملات بسیاری از حملات است که توسط تروریست ها گفته می شود که خود را اسلام گرایانه می نامند."
"contemporaine","3 septembre 1939","easy","La France et l’Angleterre déclarent la guerre à l’Allemagne (début de la Seconde Guerre Mondiale pour la France)","فرانسه و انگلیس برای آلمان جنگ اعلام می کنند (آغاز جنگ جهانی دوم برای فرانسه)"
"contemporaine","2 septembre 1939","easy","La France ordonne la mobilisation générale","فرانسه دستور بسیج عمومی را صادر می کند"
"contemporaine","28 avril 1969","easy","Le général De Gaulle annonce sa démission_ suite à l’échec du référendum sur la régionalisation du Sénat","ژنرال دوگل پس از عدم موفقیت همه پرسی در منطقه بندی سنا ، استعفا خود را اعلام کرد"
"contemporaine","10 juillet 1940","easy","Le Parlement accorde au maréchal Pétain les pleins pouvoirs (569 voix pour 80 contre et 17 absentions)","پارلمان مارشال پتین اختیارات کامل (569 رای برای 80 رای مخالف و 17 رای ممتنع)"
"contemporaine","21 juin 1981","easy","Le parti socialiste remporte les élections législatives suite à la dissolution","حزب سوسیالیست پس از انحلال در انتخابات پارلمانی پیروز شد"
"antique",-390,"easy","Le Sac de Rome. Les Gaulois de Brennus s’emparent de Rome après 7 mois de siège et se retire contre une forte rançon","کیف کیسه رم: غلامان برنوس پس از 7 ماه محاصره ، رم را تصرف می کنند و در مقابل باج محکوم می شوند"
"contemporaine","2007-2009","easy","Le traité de Lisbonne donne naissance à une nouvelle entité juridique : l’Union Européenne","پیمان لیسبون یک شخصیت حقوقی جدید به دنیا می آورد: اتحادیه اروپا"
"Moyen-âge",711,"easy","Les Arabes débarquent en Espagne","اعراب در اسپانیا فرود می آیند"
"Moyen-âge","10 avril 1302","easy","Les États Généraux confirme l’indépendance du roi face au pape","ایالات متحده استقلال شاه را در مقابل پاپ تأیید می کند"
"contemporaine","2 avril 1917","easy","Les États-Unis déclarent la guerre à l’Allemagne","ایالات متحده اعلام جنگ علیه آلمان"
"Moyen-âge","24 juin  843","easy","Les Normands s’emparent de Nantes","نورمن ها نانت ها را تصرف می کنند"
"Moyen-âge","1 novembre 1337","easy","Lettre de défi d’Édouard III_ Début de la guerre de cent ans","نامه چالش از ادوارد سوم ، آغاز جنگ صدها سال"
"contemporaine","25 août 1944","easy","Libération de Paris","آزادسازی پاریس"
"contemporaine","5 avril 1884","easy","Loi d’organisation municipale prévoyant le suffrage universel pour les élections","قانون سازمان شهرداری ها برای برگزاری انتخابات جهانی برای انتخابات"
"contemporaine","16 juin 1881","easy","Loi Jules Ferry sur la gratuité de l’enseignement primaire","قانون ژول فری در مورد آموزش ابتدایی رایگان"
"contemporaine","9 mars 1868","easy","Loi rétablissant la liberté de la presse","اقدام به بازگرداندن آزادی مطبوعات"
"contemporaine","29 juillet 1881","easy","Loi sur la liberté de la presse","قانون آزادی مطبوعات"
"contemporaine","30 juin 1881","easy","Loi sur la liberté de réunion","قانون آزادی اجتماعات"
"contemporaine","10 juin 1794","easy","Lois de prairial sur le tribunal révolutionnaire_ début de la Grande Terreur","قوانین ستایش درباره دادگاه انقلاب ، شروع ترور بزرگ"
"Moyen-âge",817,"easy","Louis Ier proclame (Ordinatio imperii) son fils Lothaire empereur rompant avec la tradition Franque (Partage)","لوئیس اول اعلام کرد (Ordinatio imperii) پسرش امپراتور لوتیر را با شکستن سنت Franque (Partage)"
"contemporaine","10 décembre 1848","easy","Louis-Napoléon Bonaparte est élu président de la République (74_2%)","لوئیس ناپلئون بناپارت به عنوان رئیس جمهور جمهوری انتخاب شده است (74.2٪)"
"moderne","24 août 1572","easy","Massacre de la Saint-Barthélemy_ mort de Coligny_ abjuration de Condé et de Henri de Navarre_ début du siège de La Rochelle et de la quatrième Guerre de religion","قتل عام St. Bartholomew ، مرگ Coligny ، نابسامانی Condé و Henry of Navarre ، شروع محاصره La Rochelle و جنگ چهارم دین"
"moderne","1 mars 1562","easy","Massacre des protestants à Wassy par le duc de Guise_ permière guerre de religion","قتل عام پروتستان ها در وسی توسط دوک گیز ، اولین جنگ مذهبی"
"Moyen-âge","24 septembre 768","easy","Mort de Pépin le bref à Saint-Denis_ son fils Charlemagne lui succède","خلاصه داستان مرگ در پپین در سنت دنیس ، پسرش شارلمانی موفق به او می شود"
"contemporaine","18 septembre 1812","easy","Napoléon quitte Moscou en flammes_ début de la retraite de Russie","ناپلئون مسکو را در آتش ، بازنشستگی زودهنگام از روسیه ترک می کند"
"moderne","1 juillet 1573","easy","Paix de La Rochelle accordant liberté de conscience et de culte à La Rochelle_ Nîmes et Montauban","صلح لا روچل اعطای آزادی وجدان و عبادت در لا روچل ، نیمس و مونتاوبان"
"contemporaine","2 décembre 1852","easy","Proclamation du Second Empire","اعلامیه امپراطوری دوم"
"contemporaine","4 mai 1848","easy","Proclamation officielle de la République par l’Assemblée","اعلام رسمی جمهوری توسط مجمع"
"contemporaine","21 mars 1804","easy","Promulgation du Code Civil","انتشار قانون مدنی"
"contemporaine","20 septembre 1992","easy","Référendum sur le traité de Maastricht (51_04 % de oui)","رفراندوم پیمان ماستریشت (بله 51.04٪)"
"contemporaine","2 décembre 1804","easy","Sacre de Napoléon en présence de Pie VII à Notre-Dame","مناسک ناپلئون با حضور پیوس هفتم در نوتردام"
"Moyen-âge","7 juillet 1438","easy","Sanction de Bourges de Charles VII affranchissant l’église de la tutelle du pape","تحریم بورژ چارلز هفتم کلیسای آموزش پاپ"
"moderne","20 juin 1789","easy","Serment du jeu de paume : l’Assemblée Nationale se proclame Assemblée Nationale Constituante","سوگند بازی نخل: مجلس ملی اعلام می کند مجمع ملی مؤسسان"
"contemporaine","22 juin 1940","easy","Signature de l’armistice à Rethondes_  la moitié nord et les côtes atlantiques sont occupés par l’armée allemande","امضاء آتش بس در رتوندس ، نیمه شمالی و سواحل اقیانوس اطلس توسط ارتش آلمان اشغال شده است"
"contemporaine","8-9 mai 1945","easy","Signature officielle de la capitulation allemande par le général Keitel à Berlin","امضای رسمی پایتخت آلمان توسط ژنرال کیتل در برلین"
"contemporaine","25 mai 1864","easy","Suppression du droit de coalition accordant ainsi le droit de grève","سرکوب حق ائتلاف در نتیجه اعطای حق اعتصاب"
"contemporaine","31 août 1871","easy","Thiers est élu président de la république et l’assemblée nationale devient constituante","تییر به عنوان رئیس جمهور جمهوری انتخاب می شود و مجلس ملی تشکیل می شود"
"contemporaine","18 avril 1951","easy","Traité créant la Communauté Européenne du Charbon et de l’Acier (CECA)","پیمان تأسیس جامعه ذغال سنگ و فولاد اروپا (ECSC)"
"contemporaine","10 mai 1871","easy","Traité de Francfort instituant la paix avec l’Allemagne en contrepartie de l’Alsace_ la Lorraine et d’indemnités","پیمان فرانکفورت برای برقراری صلح با آلمان در ازای آلزاس ، لورن و جبران خسارت"
"moderne"," 3 septembre 1783","easy","Traité franco-anglais de Versailles reconnaissant l’indépendance des États-unis","پیمان فرانسوی-انگلیسی ورسای به رسمیت شناختن استقلال ایالات متحده"
"contemporaine","19 mai 1974","easy","Valéry Giscard-d’Estaing (50_71%) remporte les élections présidentielles devant François Mitterrand","والری گیسارد-دی استاست (50.71٪) در انتخابات ریاست جمهوری پیش از فرانسوا میتران پیروز می شود"
"moderne","14 septembre 1515","easy","Victoire de François Ier à Marignan","پیروزی فرانسیس اول در مارینگان"
"contemporaine","10 mai 1981","easy","Victoire de François Mitterrand (51_75%) aux élections présidentielles devant Valéry Giscard-d’Estaing","پیروزی François Mitterrand (51،75٪) در انتخابات ریاست جمهوری در مقابل والری گیسارد-دوی استاست"
"contemporaine","2 décembre 1805","easy","Victoire de Napoléon à Austerlitz contre les Russes et les Autrichiens","پیروزی ناپلئون در آسترلیتز مقابل روس ها و اتریشی ها"
"Moyen-âge",759,"easy","Victoire de Pépin le Bref près de Narbonne contre les Arabes qui replient en Espagne","پیروزی پپین کوتاه در نزدیکی ناربون علیه اعراب در اسپانیا"
"contemporaine","24 mai 1869","easy","Victoire républicaine aux élections législatives","پیروزی جمهوریخواهان در انتخابات پارلمانی"
"Moyen-âge",639,"hard","« Début du règne des maires du palais ». Les maires du palais étaient les plus hauts dignitaires_ après les rois_ des royaumes francs qui couvraient alors l'essentiel de la France_ l'Allemagne et le Benelux actuels."," آغاز سلطنت شهرداران قصر. "
"contemporaine","21 octobre 1945","hard","Abolition de la constitution de la IIIe République et élection d’une assemblée constituante","لغو قانون اساسی جمهوری سوم و انتخاب مجلس مؤسسان"
"contemporaine","7 juin 1936","hard","Accords de Matignon entre patronat et syndicats","توافق نامه ماتیونون بین کارفرمایان و اتحادیه ها"
"contemporaine","25 juin 1928","hard","Adoption d’une loi monétaire dévaluant le franc marquant l’abandon du franc germinal","تصویب قانون پولی با کاهش ارزش فرانک که موجب رها شدن فرانک میکرون می شود"
"moderne","12 juillet 1790","hard","Adoption de la Constitution civile du clergé","تصویب قانون اساسی مدنی روحانیت"
"contemporaine","2 juillet 1914","hard","Adoption de la loi Caillaux sur l’impôt sur le revenu","تصویب قانون Caillaux درمورد مالیات بر درآمد"
"contemporaine","26 octobre 1981","hard","Adoption de la loi sur les nationalisations","تصویب قانون ملی شدن"
"contemporaine","27 septembre 1981","hard","Adoption du projet d’impôt sur la fortune","تصویب پروژه مالیات بر ثروت"
"contemporaine","28 janvier 1982","hard","Adoption du projet de loi sur la décentralisation","تصویب پیش نویس قانون عدم تمرکز"
"contemporaine","2 octobre 1981","hard","Adoption du projet de loi sur les radios libres","تصویب لایحه رادیوهای رایگان"
"contemporaine","24 septembre 2000","hard","Adoption du quinquennat (la présidence dure 5 années) (73_24%) lors d’un référendum marqué par l’abstention (68%)","پذیرش quinquennium (ریاست جمهوری 5 سال طول می کشد) (73.24٪) در همه پرسی مشخص شده با رای ممتنع (68٪)"
"antique","Juin 451","hard","Aetius bat les Huns sur les Champs Catalauniques près de Troyes","آتیئوس در مزارع کاتالونیا در نزدیکی ترویس شکارچیان را شکست می دهد"
"Moyen-âge","2 décembre 1419","hard","Alliance entre Philippe le Bon_ duc de Bourgogne et Henri V d’Angleterre","اتحاد بین فیلیپ خوب ، دوک بورگوندی و هنری پنجم انگلیس"
"contemporaine","30 janvier 1875","hard","Amendement Wallon instituant la république","اصلاحات والون مؤسس جمهوری"
"Moyen-âge",774,"hard","Annexion de la Lombardie","الحاق لومباردی"
"moderne","5 septembre 1661","hard","Arrestation de Fouquet à Nantes_ accusé de détournement de fonds","بازداشت فوکت در نانت ، متهم به اختلاس"
"Moyen-âge","31 juillet  1451","hard","Arrestation de Jacques Cœur accusé de conspiration et malversation","دستگیری ژاک کوتر متهم به توطئه و اقدامات خلافکار"
"contemporaine","30-31 mars 1794","hard","Arrestation des chefs des Indulgents (Danton_ Desmoulins_ Delacroix_ Philippeaux_ Westerman…) 1794 5 avril Condamnation et exécution de Danton_ Desmoulins_ Fabre d’Eglantine et des Indulgents","بازداشت رهبران سرزمینها (دانتون ، دسمولین ، دلاكروكس ، فیلیپوكس ، وسترمن ...) 1794 5 آوریل محكومیت و اعدام دانتون ، دزمولینس ، Fabre از Eglantine و تجار."
"Moyen-âge",584,"hard","Assassinat de Chilpéric (Neustrie) sur ordre de Frédégonde","ترور چیلپریک (نوستریا) به دستور فردگوند"
"moderne","14 mai 1610","hard","Assassinat de Henri IV par Ravaillac_ son fils Louis lui succède","ترور هنری چهارم توسط راویلاک ، پسرش لویی جانشین او شد"
"Moyen-âge","10 septembre 1419","hard","Assassinat de Jean sans Peur au pont de Montereau_ son fils Philippe le Bon lui succède","ترور جان بی ترس در پل مونترئو ، پسرش فیلیپ خوب او را جانشین می کند"
"Moyen-âge",575,"hard","Assassinat de Sigebert (Austrasie) sur ordre de Frédégonde","ترور سیگبرت (اتریشیا) به دستور فردگوند"
"contemporaine","13 février 1820","hard","Assassinat du duc de Berry (neveu du roi) par Louvel","ترور دوک بری (برادرزاده پادشاه) توسط لوول"
"Moyen-âge","7 septembre 1303","hard","Attentat d’Anagni de Guillaume de Nogaret contre Boniface VIII","حمله آناگی گیله د نوگارت علیه Boniface VIII"
"contemporaine","28 juillet 1835","hard","Attentat de Fieschi contre Louis-Philippe_ provoquant la mort de 12 personnes","حمله فیشچی به لوئیز-فیلیپ ، باعث مرگ 12 نفر"
"antique",451,"hard","Avènement du chef franc Mérové","ظهور رئیس Merové Frankish"
"contemporaine","13 juin 1982","hard","Blocage des prix et des salaires","مسدود کردن قیمت ها و دستمزدها"
"moderne","28 octobre 1628","hard","Capitulation de La Rochelle","پایتخت لا روچل"
"moderne","25 février 1497","hard","Capitulation de Tarente_ perte du royaume de Naples","کاپیتولاسیون تارنتو ، از دست دادن پادشاهی ناپل"
"moderne","21 décembre 1560","hard","Catherine de Médicis et Antoine de Bourbon sont nommés régents par le Conseil d’État","کاترین دو مدیچی و آنتوان دو بوربن از طرف شورای امور خارجه به عنوان نمایندگان منصوب می شوند"
"moderne","22 juillet 1472","hard","Charles le Téméraire échoue devant Beauvais","چارلز بولد در مقابل باوویس ناکام ماند"
"contemporaine","16 mai 1830","hard","Charles X dissout la Chambre des députés","چارلز ایکس اتاق نمایندگان را منحل می کند"
"antique",193,"hard","Claudius Albinus se fait proclamer empereur par ses légions en Bretagne","کلودیوس آلبینوس توسط لژیون های خود در بریتانیا امپراطور اعلام می شود"
"Moyen-âge",613,"hard","Clotaire II fait exécuter Sigebert II et Brunehaut_ réunification du royaume","Clotaire II اعدام Sigebert دوم و Brunehaut ، اتحاد پادشاهی"
"Moyen-âge",524,"hard","Clothaire épouse Gontheuque_ veuve de Clodomir_ fait assassiner ses fils et s’empare de son royaume","همسر پارچه گنتهوکا ، بیوه کلودومیر ، پسران خود را به قتل رساند و پادشاهی خود را به دست گرفت"
"moderne","30 août 1455","hard","Compromis dans un complot_ le dauphin s’enfuit à Louvain","سازش در یک نقشه ، دلفین به لوون گریخت"
"contemporaine","24 mars 1794","hard","Condamnation et exécution des chefs des Cordeliers (Hébert…)","محکومیت و اعدام رهبران طناب کشی (هبرت ...)"
"contemporaine","29-30 septembre 1938","hard","Conférence de Munich entre la France_ l’Angleterre_ l’Italie et l’Allemagne sur la question des Sudètes","کنفرانس مونیخ بین فرانسه ، انگلیس ، ایتالیا و آلمان درمورد سوال سودتن"
"contemporaine","23 novembre 1799","hard","Constitution de l’an VIII_  Napoléon Bonaparte_ Sieyès et Ducos sont nommés consuls ","قانون اساسی سال هشتم ، ناپلئون بناپارت ، سیس و دوكوس به عنوان كنسولها نامگذاری شده اند"
"contemporaine","1 juillet 1911","hard","Coup d’Agadir ou crise d’Agadir des Allemands contre les Français_ provoqué par l'envoi d'une canonnière (navire léger armé de canons) de la marine de guerre allemande dans la baie d'Agadir au Maroc","کودتای آژادیر یا بحران آگادیر آلمانی ها علیه فرانسوی ها ، ناشی از ارسال اسلحه (کشتی سبک مسلح به اسلحه) نیروی دریایی آلمان در خلیج آگادیر در مراکش"
"contemporaine","11 mai 1798","hard","Coup d’état du 22 floréal du directoire contre les députés jacobins élus en avril. Le jacobinisme est une doctrine politique qui défend la souveraineté populaire et l'indivisibilité de la République française","کودتای 22 گله از فهرست در مقابل نمایندگان ژاکوبین انتخاب شده در ماه آوریل ژاکوبینیسم یک دکترین سیاسی است که دفاع از حاکمیت مردمی و غیرقابل تفکیک جمهوری فرانسه است"
"contemporaine","18 juin 1799","hard","Coup d’état du 30 prairial_ les conseils contraignent les directeurs Merlin et La Revellière à la démission","کودتای 30 پرهیزلی ، شوراها مدیران مرلین و لا ریولایر را مجبور به استعفا می کنند"
"contemporaine","4 septembre 1797","hard","Coup d’état du directoire contre les royalistes_ Barras aidé de Napoléon prend le pouvoir","کودتای فهرست در برابر سلطنت طلبان ، باراس به کمک ناپلئون قدرت را به دست می آورد"
"Moyen-âge","29 février 888","hard","Couronnement de Eudes à Compiègne","تاجگذاری ائودها در Compiegne"
"moderne"," 8 juin 1576","hard","Création de la Sainte Ligue qui avait pour objectif de briser la progression des Turcs ottomans","ایجاد اتحادیه مقدس که هدف آن شکستن پیشرفت ترکهای عثمانی بود"
"contemporaine","29 décembre 1943","hard","Création des Forces Françaises de l’Intérieur (FFI)","ایجاد نیروهای داخلی فرانسه (FFI)"
"contemporaine","24 septembre 1941","hard","Création du Comité National de la France Libre à Londres par le général de Gaulle","ایجاد کمیته ملی فرانسه آزاد در لندن توسط ژنرال دوگل"
"contemporaine","15 mai 1943","hard","Création du Conseil National de la Résistance (CNR)","ایجاد شورای ملی مقاومت (CNR)"
"contemporaine","16 février 1943","hard","Création du Service du Travail Obligatoire (STO)","ایجاد سرویس کار اجباری (STO)"
"contemporaine","30 juin 1968","hard","De Gaulle remporte les élections législatives","دوگل برنده انتخابات پارلمان"
"contemporaine","27 juin 1795","hard","Débarquement d’une armée de quatre mille émigrés à Quiberon","فرود یک ارتش چهار هزار مهاجر در Quiberon"
"contemporaine","28 décembre 1933","hard","Début de l’affaire Stavisky (escroc qui magouillait avec les politiques et est mort dans des circonstances étranges)","شروع کار استاویسکی (کلاهبرداری که با سیاست مبارزه می کرد و در شرایط عجیبی درگذشت)"
"moderne","1 octobre 1791","hard","Début de l’Assemblée législative et de la monarchie constitutionnelle","آغاز مجلس قانونگذاری و سلطنت مشروطه"
"antique",-800,"hard","Début de l’invasion des Celtes qui vont remplacer peu à peu les Ligures","آغاز حمله تختخوابها به تدریج جایگزین لیگوریان"
"contemporaine","21 mars 1918","hard","Début de l’offensive allemande sur la Somme","آغاز حمله آلمان به سامم"
"moderne","Mars 1465","hard","Début de la guerre de Louis XI contre la Ligue du Bien Public de Charles le Téméraire et Charles de France","آغاز جنگ لوئیز XI علیه اتحادیه مالکیت عمومی چارلز بولد و چارلز فرانسه"
"moderne","2 septembre 1792","hard","Début des « Massacres de septembre » dans les prisons (jusqu’au 6)","آغاز قتل عام سپتامبر در زندانها (تا 6)"
"contemporaine","1 novembre 1795","hard","Début du directoire_ Il tire son nom du « directoire » c'est-à-dire l'ensemble des cinq directeurs_ chefs du gouvernement entre lesquels le pouvoir exécutif et les ministres sont répartis_ pour éviter la tyrannie_ et dont le siège est au palais du Luxembourg","آغاز دایرکتوری ، نام خود را از فهرست می گیرد ، یعنی می گویند هر پنج مدیر ، روسای دولت که بین آنها قدرت اجرایی و وزرا تقسیم شده است ، برای جلوگیری از استبداد ، و کرسی آنها در کاخ لوکزامبورگ است "
"contemporaine","21 novembre 1806","hard","Décret de Berlin instituant un blocus contre l’Angleterre","فرمان برلین برای ایجاد محاصره علیه انگلیس"
"Moyen-âge","25 octobre 1415","hard","Défaite de la chevalerie française à Azincourt face aux Anglais","شکست جوانمردی فرانسوی در Azincourt در برابر انگلیسی"
"contemporaine","18 octobre 1813","hard","Défaite de Napoléon à Leipzig","شکست ناپلئون در لایپزیگ"
"contemporaine","25 août 1976","hard","Démission de Jacques Chirac_ Raymond Barre le remplace","استعفای ژاک شیراک ، ریموند بار جایگزین او شد"
"contemporaine","2 décembre 1887","hard","Démission de Jules Grévy suite au scandale des décorations","استعفای ژول گرووی به دنبال رسوایی دکوراسیون"
"contemporaine","9 novembre 1799","hard","Démission de Sieyès_ Barras et Ducos de l’exécutif provoquant la vacance du pouvoir_ coup d’état du 18 Brumaire","استعفای سیس ، باروس و دوکوس از مقامات اجرایی باعث خالی شدن قدرت ، کودتای 18 برومایر"
"contemporaine","30 janvier 1879","hard","Démission du président Mac-Mahon","استعفای رئیس جمهور مک ماهون"
"Moyen-âge","4 juillet 1190","hard","Départ de Philippe Auguste pour la troisième croisade","عزیمت فیلیپ آگوست برای جنگ صلیبی سوم"
"Moyen-âge","12 juin 1248","hard","Départ de Saint-Louis pour la septième croisade","عزیمت سنت لوئیس برای هفتمین جنگ صلیبی"
"contemporaine","12 juin 1982","hard","Dévaluation du franc","کاهش ارزش فرانک"
"contemporaine","25 juin 1877","hard","Dissolution de l’Assemblée nationale (III République)","انحلال مجلس ملی (جمهوری سوم)"
"contemporaine","27 septembre 1939","hard","Dissolution du PCF","انحلال PCF"
"contemporaine","30 décembre 1919","hard","Du congrès de Tours naît la scission entre SFIO et PCF","از کنگره تورها شکاف بین SFIO و PCF متولد شده است"
"Moyen-âge"," 2 octobre 1370","hard","Du Guesclin devient connétable (haute dignité)","Du Guesclin تبدیل به پاسدار (عزت بالا) می شود"
"antique",70,"hard","Échec de « l’empire des Gaules » de Sabinus","شکست امپراتوری گال سابینوس"
"moderne","17 mars 1560","hard","Échec de la conjuration d’Ambroise visant à enlever le roi","توطئه آمبروز برای حذف شاه ناکام ماند"
"contemporaine","12-13 mai 1839","hard","Échec des journées révolutionnaires de Barbès et Blanqui","ناکامی روزهای انقلابی باربس و بلانکی"
"contemporaine",2005,"hard","Echec du référendum pour une constitution européenne","عدم رفراندوم قانون اساسی اروپا"
"antique",313,"hard","Édit de Milan venant confirmer la liberté de culte pour les chrétiens et la restitution des biens confisqués","تصویب میلان با تأیید آزادی عبادت برای مسیحیان و بازگشت اموال مصادره شده"
"moderne","8 août 1788","hard","Édit prévoyant la convocation des États Généraux (assemblée extraordinaire réunissant les trois ordres (les états) de la société : la noblesse_ le clergé et le tiers état (le reste)) pour le 1er mai","دستورالعمل تشکیل جلسه ای برای ایالت های عمومی (جلسه فوق العاده ای که سه دستور (ایالت) جامعه را با هم جمع می کند: اشراف ، روحانیت و دولت سوم (بقیه)) برای اول ماه مه"
"contemporaine","8 avril 1938","hard","Édouard Daladier remplace Léon Blum à la tête du gouvernement mettant fin au Front Populaire","ادوارد دالادیر جایگزین لئون بلوم در رأس دولت و پایان دادن به جبهه مردمی"
"contemporaine","26 mars 1871","hard","Élections de la commune de Paris","انتخابات کمون پاریس"
"contemporaine","1 mars 1948","hard","Embuscade du Viet-minh contre un convoi français en Indochine (82†)","کمین ویتنام در برابر کاروان فرانسوی در هندوچینا (82)"
"Moyen-âge","22 février 1358","hard","Étienne Marcel soulève Paris avec l’aide de Charles le Mauvais","ایتین مارسل با کمک چارلز بد پاریس را بالا می برد "
"moderne","31 juillet 1602","hard","Exécution de Biron ayant comploté contre le roi","اعدام بیرون با توطئه علیه شاه"
"Moyen-âge",1314,"hard","Exécution de Jacques de Molay et Hugues de Pairaud","اعدام ژاک دو مولوی و هوگوز د پیراد"
"contemporaine","31 octobre 1793","hard","Exécution des Girondins.  (Brissot_ Vergniaud…) 1794 13-14 mars Arrestation des chefs hébertistes (Hébert_ Vincent_ Momoro_ Ronsin_ Carrier)","اعدام ژیروندین ها"
"contemporaine","15 septembre 1990","hard","F. Mitterrand annonce la participation de la France à la guerre du Golfe (opération « Daguet ») contre l’Irak","F. Mitterrand از مشارکت فرانسه در جنگ خلیج (عملیات Daguet ) علیه عراق خبر داد"
"contemporaine","21 juin 1848","hard","Fermeture des ateliers nationaux_ l'État intervenait directement en fournissant_ en organisant et en payant le travail. Cette « expérience » sociale a duré tout juste trois mois","تعطیلی کارگاه های ملی ، دولت مستقیماً با تهیه ، سازماندهی و پرداخت هزینه کار مداخله می کرد. این تجربه اجتماعی فقط سه ماه به طول انجامید"
"moderne","14 juillet 1790","hard","Fête de la fédération au Champ-de-Mars_ Louis XVI prête serment à la constitution","جشن فدراسیون در چمپ د مریخ ، لوئیس شانزدهم سوگند یاد قانون اساسی"
"contemporaine","2 novembre 1919","hard","Fondation du Syndicat Confédération des Travailleurs Chrétiens (CFTC)","بنیاد کنفدراسیون کارگران مسیحی (CFTC)"
"contemporaine","23 novembre 1945","hard","Formation d’un gouvernement tripartite (MRP-PCF–SFIO) autour du général de Gaulle","تشکیل دولت سه جانبه (MRP-PCF-SFIO) پیرامون ژنرال دوگل"
"moderne","8 janvier 1558","hard","François_ duc de Guise s’empare de Calais","فرانسوا ، دوک گیز کالای را به دست می گیرد"
"moderne","17 juillet 1791","hard","Fusillade du Champ-de-Mars contre les pétitionnaires demandant la déchéance du roi (50†)","ضرب و شتم چمپ د مریخ در برابر خواهان خواستار فروپاشی پادشاه (50 †)"
"Moyen-âge"," 14 octobre 1066","hard","Guillaume de Normandie remporte la bataille de Hastings (Angleterre) contre Harold qui y trouve la mort","ویلیام نرماندی در نبرد هاستینگس (انگلیس) برابر هارولد که مرگ را می یابد پیروز شد"
"moderne","23 décembre 1588","hard","Henri III fait assassiner le duc de Guise et son frère par le capitaine du Guast","هنری سوم ، دوک گیز و برادرش را توسط کاپیتان گواست ترور کرد"
"moderne","22 mars 1594","hard","Henri IV entre à Paris_ onze provinces se rallie à lui","هنری چهارم وارد پاریس می شود ، یازده استان با او تجمع می کنند"
"contemporaine","31 mars 1905","hard","Incident franco-allemand de Tanger. Guillaume II refuse de reconnaître la souveraineté française","حادثه فرانسوی-آلمانی در طنجه ، ویلیام دوم از به رسمیت شناختن حاکمیت فرانسه خودداری می کند"
"antique",162,"hard","Incursions germaniques repoussées en Gaule","هجومهای آلمانی به عقب رانده شدند"
"contemporaine","23-26 juin 1848","hard","Insurrection ouvrière à Paris_ en partie due à la fermeture des ateliers nationaux","قیام کارگران در پاریس ، بخشی از آن به دلیل تعطیلی کارگاه های ملی"
"contemporaine","22 mars 1986","hard","Jacques Chirac devient premier ministre après avoir remporté les élections législatives_ première cohabitation (président de gauche et 1er ministre de droite)","ژاک شیراک پس از پیروزی در انتخابات پارلمانی ، نخستین زندگی مشترک (رئیس جمهور چپ و نخست وزیر جناح راست) نخست وزیر شد."
"Moyen-âge","23 novembre 1407","hard","Jean sans Peur_ duc de Bourgogne_ quitte Paris après avoir fait assassiner Louis d’Orléans","جان بی باک ، دوک بورگوندی ، پس از قتل لویی از اورلئان ، پاریس را ترک کرد"
"contemporaine","25 janvier 1882","hard","Krach de l’Union Générale provoquant la ruine de nombreux épargnants","کرچ اتحادیه عمومی باعث خراب شدن بسیاری از نجاتگران"
"contemporaine","4 novembre 1911","hard","L’Allemagne reconnaît le protectorat français sur le Maroc en contrepartie du bassin de la Sangha (Congo)","آلمان پروتكل فرانسه را در ازاي حوضه سانگا (كنگو) پروتستان فرانسوي مراكش را پذيرفت."
"contemporaine","21 mai 1871","hard","L’armée de Versailles entre dans Paris_ début de la semaine sanglante","ارتش ورسای وارد پاریس ، آغاز هفته خونین"
"contemporaine","5 octobre 1795","hard","L’armée réprime l’insurrection royaliste (300†)","ارتش قیام سلطنتی را سرکوب می کند (300)"
"contemporaine","28 juillet 1914","hard","L’Autriche-Hongrie déclare la guerre à la Serbie","اتریش و مجارستان جنگ با صربستان را اعلام کرد"
"moderne","15 juin 1702","hard","La coalition déclare la guerre à la France_ début de la guerre de succession d’Espagne","ائتلاف اعلام جنگ با فرانسه ، آغاز جنگ جانشینی اسپانیا"
"moderne","5-6 janvier 1649","hard","La cour s’enfuit à Saint-Germain_ Condé assiège Paris","دادگاه به سن ژرمن گریخت ، کاندای پاریس را محاصره کرد"
"contemporaine","28 mars 1993","hard","La droite remporte les élections législatives_ nouvelle cohabitation","حق برنده در انتخابات قانونگذاری ، زندگی مشترک"
"contemporaine","1 août 1798","hard","La flotte française est détruite à Aboukir par l’amiral Nelson","ناوگان فرانسوی در دریای دریاسالار نلسون در ابویرک نابود شده است"
"contemporaine","9 décembre 1905","hard","La France accepte le principe d’une conférence de paix internationale sur le Maroc","فرانسه اصل کنفرانس صلح بین المللی مراکش را می پذیرد"
"moderne","19 mai 1635","hard","La France déclare la guerre à l’Espagne","فرانسه جنگ با اسپانیا را اعلام کرد"
"moderne","26 novembre 1688","hard","La France déclare la guerre à la Hollande_ début de la guerre contre la ligue d’Augsbourg","فرانسه اعلام جنگ با هلند ، آغاز جنگ علیه لیگ آگسبورگ"
"contemporaine","11 janvier 1923","hard","La France et la Belgique occupent la Ruhr pour contraindre l’Allemagne à payer les indemnités de guerre","فرانسه و بلژیک روور را اشغال کردند تا آلمان را مجبور به پرداخت غرامت در جنگ کند"
"contemporaine","27 janvier 1964","hard","La France reconnaît la République populaire de Chine","فرانسه جمهوری خلق چین را به رسمیت می شناسد"
"contemporaine","29 octobre 1924","hard","La France reconnaît officiellement l’URSS","فرانسه رسماً اتحاد جماهیر شوروی را به رسمیت می شناسد"
"contemporaine","27 mars 1854","hard","La France_ l’Angleterre et la Turquie déclarent la guerre à la Russie","فرانسه ، انگلیس و ترکیه اعلام جنگ علیه روسیه"
"contemporaine","1 juin 1997","hard","La gauche plurielle (PS-Vert-PC) remporte les élection suite à la dissolution de l’Assemblé Nationale_ troisième cohabitation ","جمع جمع چپ (PS-Green-PC) پس از انحلال مجلس شورای ملی ، زندگی مشترک سوم در انتخابات پیروز می شود"
"moderne","1618-1648","hard","La guerre de Trente Ans est une série de conflits armés qui a déchiré l’Europe","جنگ سی ساله یک سری درگیری های مسلحانه است که اروپا را از هم پاشیده است"
"contemporaine","21-22 décembre 1851","hard","Large plébiscite du coup d’État de Louis-Napoléon Bonaparte","لیست بزرگ کودتای لوئیس ناپلئون بناپارت"
"contemporaine","11 mai 1924","hard","Le Cartel des gauches remporte les élections législatives","کارتل چپ در انتخابات قانونگذاری پیروز شد"
"contemporaine","3 mai 1936","hard","Le Front populaire remporte les élections législatives_ début des grèves","جبهه مردمی برنده انتخابات قانونگذاری ، شروع اعتصاب"
"contemporaine","30 mai 1968","hard","Le général de Gaulle annonce la dissolution de l’Assemblée nationale","ژنرال دوگل از انحلال مجلس ملی خبر داد"
"contemporaine","9 septembre 1944","hard","Le général De Gaulle créé un gouvernement provisoire","ژنرال دوگل یک دولت موقت ایجاد می کند"
"contemporaine","3 juin 1943","hard","Le général De Gaulle fonde le Comité Français de Libération Nationale (CFLN)","ژنرال دوگل کمیته آزادی ملی فرانسه (CFLN) را تأسیس می کند"
"contemporaine","14 avril 1947","hard","Le général De Gaulle fonde le Rassemblement du Peuple Français (RPF)","ژنرال دوگل Rassemblement du Peuple Français (RPF) را یافت "
"contemporaine","15 mai 1917","hard","Le général Pétain remplace le général Nivelle à la tête des armées françaises","جنرال پیتین جانشین ژنرال نیویل در رأس ارتش فرانسه"
"contemporaine","3 juin 1944","hard","Le Gouvernement Provisoire de la France Libre (GPFL) remplace le CFLN","دولت موقت فرانسه آزاد (GPFL) جایگزین CFLN می شود"
"Moyen-âge",1208,"hard","Le pape ordonne la croisade contre les Albigeois sous la conduite de Simon de Monfort","پاپ دستور صلیبی علیه آلبیگنز تحت رهبری سیمون د مونفورت را صادر کرد"
"moderne","16 juillet 1787","hard","Le Parlement de Paris rejette les réformes fiscales et réclame des États Généraux","پارلمان پاریس اصلاحات مالیاتی را رد می کند و ادعا می کند کل املاک"
"moderne","8 octobre 1547","hard","Le Parlement institue la Chambre Ardente pour lutter contre l’hérésie (sous le règne de Henri II)","پارلمان اتاق اردن را برای مبارزه با بدعت (تحت سلطه هنری دوم) تأسیس می کند"
"contemporaine","5 décembre 1831","hard","Le prince royal et le maréchal Soult à la tête de vingt mille hommes entrent à Lyon","شاهزاده سلطنتی و مارشال سلت در راس بیست هزار مرد وارد لیون می شوند"
"contemporaine","26 mars 1944","hard","Les Allemands détruisent le maquis du plateau des Glières (mouvement de résistants français)","آلمانی ها فلات ماکیه Glières (جنبش مقاومت فرانسه) را تخریب می کنند"
"contemporaine","23 octobre 1944","hard","Les Américains reconnaissent le gouvernement provisoire du général De Gaulle","آمریکایی ها دولت موقت ژنرال دوگل را به رسمیت می شناسند"
"contemporaine","23 juillet 1944","hard","Les armées allemandes ont anéantis le maquis du Vercors (mouvement de résistants français)","ارتشهای آلمان تعداد زیادی از Vercors (جنبش مقاومت فرانسه) را نابود کرده اند"
"contemporaine","Janvier 1814","hard","Les armées coalisées (plus d’un million de soldats) envahissent la France","ارتشهای ائتلاف (بیش از یک میلیون سرباز) به فرانسه حمله می کنند"
"Moyen-âge",1317,"hard","Les Grands du royaume_ confirment le principe de loi salique","بزرگ پادشاهی ، اصل قانون شور را تأیید کن"
"Moyen-âge","28 mai 1418","hard","Les Parisiens ouvrent les portes de la capitale aux Bourguignons","پاریسی ها درهای پایتخت را به بورگوندی ها باز می کنند"
"moderne","24 décembre 1620","hard","Les Protestants décident lors de l’assemblée de La Rochelle de prendre les armes","پروتستان ها در مجمع La Rochelle تصمیم به دستگیری سلاح گرفتند"
"moderne","21 février 1701","hard","Les Provinces-Unies reconnaissent Philippe V comme roi d’Espagne","استانهای متحد فیلیپ پنجم را پادشاه اسپانیا می شناسند"
"antique",-283,"hard","Les romains s’emparent du pays des Sénons (Celtes)","رومی ها کشور سونون ها (کله ها) را تصرف می کنند"
"antique",-125,"hard","Les Salyens ravagent les terres de Marseille qui demande l’aide de Rome","سالینز سرزمین های مارسی را که از روم درخواست کمک می کنند ویران می کند "
"contemporaine","11 novembre 1942","hard","Les troupes allemandes entrent en zone libre","سربازان آلمانی وارد منطقه آزاد می شوند"
"contemporaine","19 février 1858","hard","Loi de sûreté générale venant accroître la répression","قانون امنیت عمومی برای افزایش سرکوب پیش بینی می شود"
"contemporaine","12 octobre 1988","hard","Loi instituant le Revenu Minimum d’Insertion","قانون تعیین حداقل درآمد درج"
"moderne","14 juin 1791","hard","Loi Le Chapelier interdisant les associations patronales et ouvrières","قانون هاتر ممنوعیت کارفرمایان و انجمن های کارگری"
"contemporaine","28 avril 1825","hard","Loi sur le « Milliard des émigrés »_ consistant à indemniser les émigrés qui avaient perdu leurs biens vendus comme Bien national sous la Révolution","قانون میلیارد مهاجران ، شامل جبران هزینه مهاجران که اموال خود را از دست داده اند فروخته شده به عنوان یک ملک ملی تحت انقلاب"
"Moyen-âge","29 novembre 1226","hard","Louis IX est sacré à Reims_ Régence de Blanche de Castille (jusqu’en 1236)","لوئیس IX برای Reims مقدس است ، Regent of Blanche of Castile (تا سال 1236)"
"Moyen-âge","21 mars 1152","hard","Louis VII fait casser son mariage (divorce avec Aliénor d’Aquitaine) par le concile de Beaugency","لوییز هفتم باعث ازدواج همسرش (طلاق با آلینور آکویتین) توسط شورای بین المللی شد."
"moderne","24 mai 1667","hard","Louis XIV revendique la couronne espagnole_ début de la guerre de dévolution","لوئیز چهاردهم ادعای تاج اسپانیا را ، آغاز جنگ انحراف"
"moderne","10 octobre 1733","hard","Louis XV déclare la guerre à l’empereur autrichien","لوییز پانزدهم جنگ با امپراتور اتریش را اعلام کرد"
"moderne","15 février 1723","hard","Louis XV est déclaré majeur_ fin de la régence","لوئیس شانزدهم مهم اعلام شد ، پایان دوره ظلم"
"moderne","14 août 1787","hard","Louis XVI exile le Parlement à Troyes","لوییز شانزدهم پارلمان را در ترویس تبعید می کند"
"contemporaine","8 juillet 1815","hard","Louis XVIII entre à Paris","لویی شانزدهم وارد پاریس می شود"
"contemporaine","12 janvier 1870","hard","Manifestation républicaine pour les funérailles de Victor Noir_ journaliste français tué à l'âge de 21 ans d'un coup de feu par le prince Pierre-Napoléon Bonaparte","تظاهرات جمهوریخواهان برای تشییع جنازه ویکتور نویر ، روزنامه نگار فرانسوی در سن 21 سالگی با شلیک پرنس پیر-ناپلئون بناپارت کشته شد"
"moderne","25 juillet 1792","hard","Manifeste de Brunswick_ est une proclamation attribuée au chef de l’armée prussienne_ Charles-Guillaume-Ferdinand_ duc de Brunswick_ qui a pour objectif l’intimidation des parisiens","مانیفست برونزویک ، اعلامیه ای است که به رئیس ارتش پروس ، چارلز-گیلا-فردیناند ، دوک برانزویک منسوب است ، که هدف آن ارعاب پاریسی ها است"
"Moyen-âge",493,"hard","Mariage de Clovis avec Clothilde (Burgonde)","عروسی کلوویس با کلوتیلد (بورگوندی)"
"moderne","9 juin 1660","hard","Mariage de Louis XIV avec Marie-Thérèse d’Autriche","ازدواج لوئیز چهاردهم با ماریا ترزا از اتریش"
"moderne","5 septembre 1725","hard","Mariage de Louis XV avec Marie Leszczynska_ fille de l’ex-roi de Pologne_ à Fontainebleau","ازدواج لوئیز شانزدهم با ماری لزچینسکا ، دختر پادشاه سابق لهستان ، فونتینبلو"
"Moyen-âge","25 juillet 1137","hard","Mariage de Louis_ fils aîné de Louis VI avec Aliénor d’Aquitaine_ héritière du duché","ازدواج لوئیس ، فرزند ارشد لوئیز ششم با علینور آکویتین ، وارث دوبله"
"contemporaine","2 avril 1810","hard","Mariage de Napoléon et de Marie-Louise d’Autriche","ازدواج ناپلئون و ماری لوئیز اتریش"
"antique","177 et 174 ","hard","Martyrs de chrétiens à Lyon (Sainte Blandine)","شهدای مسیحیان در لیون (Blandine)"
"moderne","11 mai 1745","hard","Maurice de Saxe bat les Anglais à Fontenoy","موریس ساکسونی انگلیسی را در فونتنوی می زد"
"moderne","3 février 1653","hard","Mazarin est de retour à Paris_ marquant la fin de la Fronde","مازارین در پاریس بازگشته است و نشانگر پایان Fronde است"
"contemporaine","20 avril 1870","hard","Mise en place d’un régime parlementaire par senatus-consulte","ایجاد سیستم پارلمانی توسط senatus-مشاور"
"moderne","1 novembre 1700","hard","Mort de Charles II d’Espagne qui désigne Philippe_ deuxième fils du Grand Dauphin comme son successeur","مرگ چارلز دوم اسپانیا که نام فیلیپ ، فرزند دوم بزرگ دافین را به عنوان جانشین خود دارد"
"moderne","5 janvier 1477","hard","Mort de Charles le Téméraire devant Nancy","مرگ چارلز پررنگ قبل از نانسی"
"moderne","20 octobre 1740","hard","Mort de Charles VI d’Autriche_ sa fille Marie-Thérèse lui succède posant le problème de la succession","درگذشت چارلز ششم اتریش ، دخترش ماری تریس جانشین او شد که مسئله جانشینی را مطرح کند"
"Moyen-âge",558,"hard","Mort de Childebert_ Clotaire contrôle seul le royaume Franc","مرگ چایلبرت ، کلوتایر تنها پادشاهی فرانک را کنترل می کند"
"Moyen-âge",629,"hard","Mort de Clotaire II_ son fils Dagobert prend la tête du royaume","مرگ کلوتای دوم ، پسرش داگوبرت رئیس پادشاهی را می گیرد"
"Moyen-âge",561,"hard","Mort de Clotaire_ partage du royaume entre ses quatre fils","مرگ کلوتیر ، تقسیم پادشاهی بین چهار پسر وی"
"Moyen-âge",511,"hard","Mort de Clovis_ son royaume est partagé entre ses quatre fils (Thierry_ Clodomir_ Childebert et Clotaire)","مرگ کلوویس ، پادشاهی او بین چهار پسر وی (تیری ، کلودومیر ، چایلدبرت و کلوتایر) تقسیم شده است."
"Moyen-âge",639,"hard","Mort de Dagobert Ier_ partage du royaume entre ses deux fils Sigebert III (8 ans) et Clovis II (4 ans)","مرگ داگوبرت اول ، تقسیم پادشاهی بین دو پسرش Sigebert III (8 ساله) و Clovis II (4 ساله)"
"Moyen-âge",593,"hard","Mort de Gontran_ Childebert II hérite du Royaume de Bourgogne","مرگ گانتران ، چایلبرت دوم پادشاهی بورگوندی را به ارث می برد"
"moderne","14 mai 1643","hard","Mort de Louis XIII_ son fils Louis lui succède","مرگ لوئیز XIII ، پسرش لویی جانشین او شد"
"moderne","10 mai 1774","hard","Mort de Louis XV_ son petit-fils Louis lui succède","مرگ لوئیز شانزدهم ، نوه اش لوئیس جانشین او شد"
"Moyen-âge"," 5 octobre 1285","hard","Mort de Philippe III à Perpignan son fils Philippe IV_ le Bel lui succède","مرگ فیلیپ سوم در پرپینگن پسرش فیلیپ چهارم ، بل جانشین او شد"
"Moyen-âge","15 janvier 936","hard","Mort de Raoul à Auxerre_ Louis fils de Charles le Simple réfugié en Angleterre est appelé au trône","مرگ رائول در اکسیر ، لوئیس فرزند چارلز ساده پناهنده در انگلیس به تاج و تخت فراخوانده می شود"
"Moyen-âge","15 août 778","hard","Mort de Roland à Roncevaux","مرگ رولاند در رونسسوالس"
"Moyen-âge","25 août 1270","hard","Mort de Saint Louis à Tunis son fils Philippe III le Hardi lui succède","مرگ سنت لوئیس در تونس پسرش فیلیپ سوم بولد جانشین او شد"
"moderne","23 février 1766","hard","Mort de Stanislas Leszczynski_ roi de Pologne_ qui lègue la Lorraine et Bar à la France","مرگ استانیسلاس لزچینسکی ، پادشاه لهستان ، که لورن و نوار را به فرانسه واگذار می کند"
"moderne","9 mars 1661","hard","Mort du cardinal de Mazarin","مرگ کاردینال مازارین"
"contemporaine","22 juin 1815","hard","Napoléon abdique en faveur de son fils","ناپلئون به نفع پسرش ربوده می شود"
"contemporaine","24 juin 1812","hard","Napoléon franchit le Niémen_ Début de la campagne de Russie","ناپلئون از Niemen عبور می کند ، شروع کار روسیه"
"contemporaine","25 septembre 1915","hard","Offensive franco-anglaise en Artois et en Champagne","توهین فرانسوی-انگلیسی در آرتویز و شامپاین"
"contemporaine","25 juillet 1830","hard","Ordonnance de dissolution de la Chambre des députés","دستور انحلال اتاق نمایندگان"
"Moyen-âge",1445,"hard","Ordonnance de Louppy-le-Châtel sur la permanence d’une armée de métier","دستورالعمل Louppy-le-Châtel در مورد ماندگاری ارتش حرفه ای"
"contemporaine","19 février 1942","hard","Ouverture du procès de Riom des anciens dirigeants français","آغاز محاکمه ریوم رهبران پیشین فرانسه"
"moderne","7 mai 1576","hard","Paix de Monsieur à Beaulieu accordant des facilités de cultes et 8 places fortes aux Protestants","صلح مونسیور در بالیو اعطای تسهیلات عبادت و 8 مکان قوی به پروتستان ها"
"Moyen-âge",534,"hard","Partage du royaume Burgonde entre Théodebert_ Childebert et Clothaire","تقسیم پادشاهی بورگوندی بین تودبرت ، Childebert و Clothaire"
"contemporaine","13 janvier 1898","hard","Parution de « J’accuse » d’Émile Zola dans l’Aurore","انتشار Jaccuse اثر امیل زولا در شفق قطبی"
"contemporaine","5 mai 1947","hard","Paul Ramadier renvoie les ministres communistes qui s’opposent au blocage des salaires","پل رامادیر وزیران کمونیست را که مخالف یخ زدگی دستمزدها هستند برکنار کرد"
"moderne","2 septembre 1715","hard","Philippe d’Orléans fait annuler le testament de Louis XIV pour s’arroger tous les pouvoirs","Philippe dOrléans باعث می شود که عهده دار لوئیز چهاردهم برای استکبار همه قدرتها باشد"
"contemporaine","21 octobre 1917","hard","Premier engagement des troupes américaines dans le conflit","اولین درگیری نیروهای آمریکایی در درگیری"
"moderne","30 août 1673","hard","Première coalition (Provinces-Unies_ Espagne_ l’Empire allemand et la Lorraine) contre la France","ائتلاف اول (استان های متحد ، اسپانیا ، امپراتوری آلمان و لورن) علیه فرانسه"
"Moyen-âge","4 août 1392","hard","Première crise de folie de Charles VI près du Mans","اولین بحران دیوانه کننده چارلز ششم در نزدیکی ل مانس"
"antique",233,"hard","Premières incursions Alamanes dans l’Empire_ début des « Grandes Invasions »","اولین هجومهای الامنه در امپراتوری ، آغاز تهاجم های بزرگ "
"contemporaine","4 juin 1814","hard","Proclamation de la Charte_ cette dernière est la constitution du royaume de France en vigueur sous la Première puis la Seconde Restauration.","اعلام منشور ، دومی قانون اساسی پادشاهی فرانسه است که تحت ترمیم اول و دوم ترمیم می شود."
"contemporaine","9 septembre 1835","hard","Promulgation des lois sur la presse (censure)","انتشار قوانین مطبوعات (سانسور)"
"Moyen-âge",510,"hard","Publication de la loi salique_ il s'agit d'un code de loi élaboré","انتشار قانون Salic ، این یک قانون تدوین شده است"
"Moyen-âge","13 juillet 923","hard","Raoul est élu roi et couronné à Soisson par les révoltés en remplacement de Robert","رائول پادشاه انتخاب می شود و در سوسون توسط شورشیان تاج می گیرد تا جایگزین رابرت شود"
"contemporaine","24 octobre 1940","hard","Rencontre de Montoire entre Pétain et Hitler","دیدار مونتوئر بین پطین و هیتلر"
"moderne","11 juillet 1789","hard","Renvoi de Necker_ le baron de Breteuil lui succède","بازگشت نکر ، بارون دو برتوییل جانشین او شد"
"moderne","12 mai 1776","hard","Renvoi de Turgot_ contrôleur général des finances_ sous la pression populaire","بازگشت تورگو ، مدیر کل امور مالی ، تحت فشار مردمی"
"moderne","21 octobre 1652","hard","Retour du roi et de la cour à Paris_ amnistie des frondeurs sauf Condé","بازگشت پادشاه و دربار به پاریس ، عفو كشتیگران به جز كوند"
"antique",-12,"hard","Réunion de l’assemblée provinciale des chefs des Gaules","جلسه مجمع استانی روسای گول"
"contemporaine","6 septembre 1892","hard","Révélation du scandale du canal de Panama (affaire de corruption)","افشای رسوایی کانال پاناما (پرونده فساد)"
"Moyen-âge",922,"hard","Révolte de Gilbert de Lorraine_ Robert de France_ Robert de Bourgogne contre Charles III le Simple","شورش از گیلبرت دو لورن ، رابرت فرانسه ، رابرت بورگوندی علیه چارلز سوم ساده"
"antique",68,"hard","Révolte de Vindex (Gouverneur de Lyon)","شورش ویندکس (فرماندار لیون)"
"contemporaine","20-22 novembre 1831","hard","Révolte des Canuts à Lyon_ cela désigne plusieurs soulèvements ouvriers","شورش کنسروها در لیون ، چندین خیزش کارگران را تعیین می کند"
"moderne","Mai 1788","hard","Révolte des Parlements_ émeutes à Besançon_ Toulouse_ et Rennes","شورش مجالس ، آشوب در بزانكون ، تولوز و رن"
"antique",21,"hard","Révoltes de Sacrovir (éduen) et de Florus (trévire)","شورش ساکروویر (ادوئن) و فلوروس (ترور)"
"moderne","13 août 1624","hard","Richelieu est nommé chef du Conseil","ریچلیو به عنوان رئیس شورا منصوب شد"
"contemporaine","27 juillet 1794","hard","Robespierre et Saint-Just sont pris à partie à la tribune de la Convention","روبسپیر و سنت-جاست در تریبون کنوانسیون شرکت می کنند"
"contemporaine","29 juillet 1904","hard","Rupture des relations diplomatiques entre la France et le Vatican","تجزیه روابط دیپلماتیک بین فرانسه و واتیکان"
"contemporaine","27 novembre 1942","hard","Sabordage de la flotte française à Toulon","فریاد زدن ناوگان فرانسوی در تولون"
"Moyen-âge","17 juillet 1429","hard","Sacre de Charles VII à Reims","مراسم چارلز هفتم در ریمز"
"contemporaine","29 mai 1825","hard","Sacre de Charles X à Reims","مراسم چارلز ایکس در ریمز"
"Moyen-âge","29 mai 1328","hard","Sacre de Philipe VI à Reims","مراسم فیلیپ ششم در ریمز"
"Moyen-âge","6 mai 1250","hard","Saint-Louis et les survivants de son armée rejoignent Saint-Jean d’Âcre","سنت لوئیس و بازماندگان ارتش وی به سنت ژان دی آکر پیوستند"
"Moyen-âge","6 avril 1250","hard","Saint-Louis et son armée sont capturés et fait prisonniers","سنت لوئیس و ارتش او اسیر و زندانی می شوند"
"contemporaine","20 novembre 1815","hard","Second traité de Paris_ la France est ramenée à ses frontières de 1790","پیمان دوم پاریس ، فرانسه به مرزهای 1790 بازگردانده شده است"
"moderne","2 mai 1682","hard","Seconde coalition (Provinces-Unies_ Espagne_ l’Empire et la Suède) contre la France","ائتلاف دوم (استان های متحد ، اسپانیا ، امپراتوری و سوئد) علیه فرانسه"
"contemporaine","3 septembre 1918","hard","Signature de l’armistice entre les alliés et l’Autriche","امضاء آتش بس بین متفقین و اتریش"
"contemporaine","27 juin 1972","hard","Signature du « Programme commun » entre les socialistes_ les communistes et les radicaux","امضای برنامه مشترک بین سوسیالیست ها ، کمونیست ها و رادیکال ها"
"contemporaine","22 janvier 1963","hard","Signature du traité de l’Élysée sur la coopération franco-allemande","امضای پیمان الیزه در زمینه همکاری فرانسه و فرانسه"
"Moyen-âge","Janvier 1358","hard","Signature du traité de Londres entre Jean II et le roi d’Angleterre","امضای پیمان لندن بین جان دوم و پادشاه انگلیس"
"moderne","12 septembre 1733","hard","Stanislas Leszczynski_ beau-frère de Louis XV est élu roi de Pologne","استانیسلاس لزچینسکی ، برادر داماد لوئی شانزدهم پادشاه لهستان انتخاب شد"
"moderne","25 janvier 1494","hard","Suite à la mort de Ferdinand_ Charles VIII se proclame roi de Naples","به دنبال مرگ فردیناند ، چارلز هشتم خود را پادشاه ناپل اعلام کرد"
"moderne","26 janvier 1611","hard","Sully démissionne pour protester contre l’influence de C. Concini et sa femme","سولی استعفا داد تا در مورد نفوذ C. Concini و همسرش اعتراض کند"
"contemporaine","26 mars 1820","hard","Suspension des libertés individuelles (pendant la restauration)","تعلیق آزادیهای فردی (در هنگام ترمیم)"
"moderne","10 août 1792","hard","Suspension du roi qui est remplacé par le conseil exécutif provisoire","تعلیق پادشاهی که جایگزین شورای اجرایی موقت است"
"contemporaine","12 novembre 1890","hard","Toast d’Alger au cours duquel le cardinal Lavigerie souhaite le ralliement des Catholiques à la république","نان تست الجزایر که در طی آن کاردینال لاویگری آرزوی تجمع کاتولیک ها به جمهوری را دارد"
"moderne","2 mai 1668","hard","Traité d’Aix-la-Chapelle mettant fin à la guerre de dévolution_ la France restitue la Franche-Comté mais garde 12 places fortes conquises en Flandre","پیمان Aix-la-Chapelle با پایان یافتن جنگ انحراف ، فرانسه Franche-Comte را بازگرداند اما 12 قلعه فتح شده در فلاندر را نگه می دارد"
"moderne","18 octobre 1748","hard","Traité d’Aix-la-Chapelle mettant fin à la guerre de succession d’Autriche","پیمان آخن خاتمه جنگ جانشینی اتریش"
"contemporaine","8 avril 1904","hard","Traité d’alliance franco-anglais (Entente cordiale)","پیمان اتحاد فرانسه و انگلیسی (Entente cordiale)"
"contemporaine","25 mars 1802","hard","Traité d’Amiens scellant la paix entre la France et l’Angleterre","پیمان آمیان پیمان صلح بین فرانسه و انگلیس"
"Moyen-âge","21 septembre 1435","hard","Traité d’Arras entre Charles VII et Philippe le Bon","پیمان Arras بین چارلز هفتم و فیلیپ خوب"
"moderne","23 décembre 1482","hard","Traité d’Arras entre Frédéric III de Habsbourg et Louis XI qui récupère la Picardie et la Bourgogne","پیمان Arras بین فردریک سوم هابسبورگ و لوئیس XI که پیکاردی و بورگوندی را بازیابی می کند"
"moderne","11 avril 1713","hard","Traité d’Utrecht mettant fin à la guerre de succession d’Espagne","پیمان اوترخت پایان دادن به جنگ جانشینی اسپانیا"
"Moyen-âge","8 mai 1360","hard","Traité de Brétigny_ Édouard III d’Angleterre renonce au trône de France en échange de l’Aquitaine","پیمان بریتنی ، ادوارد سوم انگلستان از از تاج و تخت فرانسه در ازای آکویتین کناره گیری می کند"
"moderne","11 novembre 1500","hard","Traité de Grenade entre Louis XII et Ferdinand d’Aragon pour le partage du royaume de Naples","پیمان گرانادا بین لوئیس XII و فردیناند آراگون برای تقسیم پادشاهی ناپل"
"Moyen-âge","23 mai 1414","hard","Traité de Leicester marquant l’alliance entre l’Angleterre et la Bourgogne","پیمان لستر برای اتحاد بین انگلیس و بورگوندی"
"moderne","5 février 1679","hard","Traité de Nimègue avec les Impériaux marquant la fin de la guerre de Hollande_ La France a acquis la Franche-Comté_ Cambrai_ Valenciennes_ l’Alsace_ le Sénégal et la Guyane","پیمان نیجومگن با امپریالیست ها که پایان جنگ در هلند را نشان می داد ، فرانسه Franche-Comteé ، کامبرایی ، Valenciennes ، آلزاس ، سنگال و گویان را بدست آورد"
"moderne","28 mars 1741","hard","Traité de Nymphenburg scellant l’alliance de la France_ l’Espagne_ la Bavière_ la Saxe et la Pologne contre Marie-Thérèse d’Autriche","پیمان نیمفنبورگ پیمان اتحاد فرانسه ، اسپانیا ، بایرن ، زاکسن و لهستان علیه ماریا ترزا از اتریش"
"moderne","17 septembre 1678","hard","Traité de paix franco-espagnol","پیمان صلح فرانسه و اسپانیا"
"contemporaine","30 mars 1856","hard","Traité de Paris mettant fin à la guerre de Crimée","پیمان پاریس برای خاتمه جنگ کریمه"
"moderne","10 février 1763","hard","Traité de Paris mettant fin à la guerre de sept ans marquant la perte de nombreux territoires","پیمان پاریس برای پایان دادن به جنگ هفت ساله به معنای از دست دادن بسیاری از سرزمین ها"
"Moyen-âge","28 mai 1258","hard","Traité de Paris sur la restitution d’une partie des possessions anglaises par Saint Louis_ Henri III d’Angleterre devient vassal du roi de France","پیمان پاریس درباره بازگرداندن بخشی از دارایی های انگلیسی توسط سنت لوئیس ، هنری سوم انگلستان به سلطان پادشاه فرانسه تبدیل می شود"
"Moyen-âge","12 avril 1229","hard","Traité de Paris_ Beaucaire Nîmes et Carcassonne sont rattachés au royaume (fin de la croisade des Albigeois)","پیمان پاریس ، Beaucaire Nimes و Carcassonne به پادشاهی متصل شده اند (پایان جنگ صلیبی آلبیژنس)"
"contemporaine","25 août 1883","hard","Traité de protectorat français sur le Tonkin et la Cochinchine","پیمان پروتكلستان فرانسه درباره توكین و كوهین چین"
"moderne","16 août 1684","hard","Traité de Ratisbonne entre Louis XIV_ Léoplod Ier d’Autriche et Charles II d’Espagne accordant à la France les villes et territoires conquis","پیمان رگنسبورگ بین لوئیز چهاردهم ، لئوپلد اول اتریش و چارلز دوم اسپانیا که به فرانسه شهرها و قلمروهای فتح شده را اعطا می کند"
"moderne","30 octobre 1697","hard","Traité de Ryswick mettant fin à la guerre de la ligue d’Augsbourg où Louis XIV est contraint à de fortes concessions","پیمان ریزویک پایان جنگ لیگ آگسبورگ که لوئی چهاردهم مجبور به امتیازات شدید است"
"contemporaine","7-9 juillet 1807","hard","Traité de Tilsit scellant la paix et l’alliance de Napoléon et du Tsar","پیمان تیلسیت با صلح و اتحاد ناپلئون و تزار"
"contemporaine","24 mars 1860","hard","Traité de Turin : La France cède la Sardaigne en contrepartie de Nice et la Savoie","پیمان تورین: فرانسه در ازای نیس و ساوی ساردینیا را می فروشد"
"Moyen-âge","Août 843","hard","Traité de Verdun sur le partage de l’empire entre les trois frères","پیمان وردون درباره تقسیم امپراتوری بین سه برادر"
"moderne","1 mai 1756","hard","Traité de Versailles scellant l’alliance de la France à l’Autriche contre la Prusse et l’Angleterre","پیمان ورسای پیمان اتحاد فرانسه به اتریش علیه پروس و انگلیس"
"moderne","2 mai 1598","hard","Traité de Vervins entre Henri IV et Philippe II d’Espagne","پیمان وروینز بین هنری چهارم و فیلیپ دوم اسپانیا"
"moderne","18 novembre 1738","hard","Traité de Vienne mettant fin à la guerre de succession de Pologne","پیمان وین با پایان دادن به جنگ جانشینی لهستان"
"moderne","3 avril 1559","hard","Traité du Cateau-Cambresis mettant fin à la guerre entre la France d’un côté et l'Espagne et le Saint-Empire romain germanique de l’autre","پیمان كاته-كامبریس پایان جنگ بین فرانسه از یك طرف و اسپانیا و امپراطوری مقدس روم از طرف دیگر"
"moderne","24 août 1774","hard","Turgot_ contrôleur général des finances_ lance une réforme économique libérale","Turgot ، مدیر کل امور مالی ، اصلاحات اقتصادی لیبرال را آغاز می کند"
"contemporaine","7 mai 1915","hard","Un sous-marin allemand coule le Lusitania (1 198† dont 128 américains) au sud-est de l’Irlande","یک زیردریایی آلمانی لوزیتانیا (1،198 † از جمله 128 آمریکا) جنوب شرقی ایرلند را غرق می کند"
"Moyen-âge",719,"hard","Victoire de Charles Martel à Néry contre les troupes de Neustrie","پیروزی چارلز مارتل در نری در برابر نیروهای نوستری"
"Moyen-âge",507,"hard","Victoire de Clovis contre les Wisigoths","پیروزی کلوویس در برابر ویزیگوت ها"
"moderne","20 septembre 1792","hard","Victoire de Dumouriez et Kellerman contre les Prussiens à Valmy","پیروزی دوموریز و کلرمن مقابل پروس ها در والمی"
"moderne","20 octobre 1587","hard","Victoire de Henri de Navarre à Coutras sur la Ligue","پیروزی هنری دو ناوار در کوتورا در لیگ"
"moderne","14 mars 1590","hard","Victoire de Henri IV à Ivry contre la ligue","پیروزی هنری چهارم مقابل Ivry مقابل لیگ"
"moderne","20 septembre 1589","hard","Victoire de Henri IV sur la Ligue à Arques","پیروزی هنری چهارم در لیگ در آرکس"
"moderne","15 juin 1595","hard","Victoire de Henri IV sur les Espagnols à Fontaine-Française","پیروزی هنری چهارم روی اسپانیایی ها در Fontaine-Française"
"contemporaine","3 juillet 1830","hard","Victoire de la gauche aux élections législatives","پیروزی چپ در انتخابات قانونگذاری"
"contemporaine","14 octobre 1806","hard","Victoire de Napoléon à Iéna et à Auerstadt","پیروزی ناپلئون به جنا و اوستراد"
"contemporaine","14 juin 1807","hard","Victoire de Napoléon contre les Russes à Friedland","پیروزی ناپلئون در برابر روسها در فریدلند"
"Moyen-âge","27 juillet 1214","hard","Victoire de Philippe Auguste à Bouvines sur la coalition Boulogne-Flandre-Othon","پیروزی فیلیپ آگوست به بووینس در ائتلاف بولوگن-فلاندرز-اوتون"
"Moyen-âge","12 septembre 1213","hard","Victoire des armées catholiques contre le comte de Toulouse et le roi d’Aragon lors de la bataille du Muret","پیروزی ارتشهای کاتولیک بر شمارش تولوز و پادشاه آراگون در جنگ مورت"
"contemporaine","13 mai 1849","hard","Victoire des monarchistes aux élections législatives","پیروزی سلطنت طلبان در انتخابات قانونگذاری"
"contemporaine","5 mars 1876","hard","Victoire des républicains aux élections législatives (III République)","جمهوری خواهان پیروزی در انتخابات قانونگذاری (جمهوری سوم)"
"contemporaine","28 octobre 1877","hard","Victoire des républicains aux élections législatives (III République)","جمهوری خواهان پیروزی در انتخابات قانونگذاری (جمهوری سوم)"
"Moyen-âge",1047,"hard","Victoire des troupes de Guillaume et Henri Ier contre les barons rebelles à Val-les-Dunes","پیروزی سربازان گیله و هنری اول در برابر بارون های شورشی در وال لس دونس"
"contemporaine","30 novembre 1919","hard","Victoire du Bloc national aux élections législatives (Chambre Bleu Horizon)","پیروزی بلوک ملی در انتخابات قانونگذاری (اتاق آبی افق)"
"contemporaine","8 janvier 1961","hard","Victoire du oui au référendum sur l’autodétermination en Algérie","پیروزی بله در همه پرسی در تعیین خودمختاری در الجزایر"
"Moyen-âge","21 juillet 1242","hard","Victoire sur Henri III (roi d’Angleterre) et les Poitevins à Taillebourg et à Saintes","پیروزی بر هنری سوم (پادشاه انگلیس) و Poitevins در Taillebourg و Saintes"
"contemporaine","15 mars 1850","hard","Vote de la loi Falloux confiant l’enseignement à l’église","به قانون فالوکس مبنی بر واگذاری آموزش به کلیسا رای دهید"
"contemporaine","21-25 avril 1961","medium","« Putsch des généraux » à Alger_ tentative de coup d’État"," قرار دادن ژنرال ها در الجزایر ، تلاش برای کودتا"
"contemporaine","18 mars 1962","medium","Accords d’Évian mettant fin à la guerre d’Algérie","توافق نامه اویان پایان دادن به جنگ الجزایر"
"contemporaine","19 décembre 1974","medium","Adoption du projet de loi sur l’Interruption Volontaire de Grossesse (IVG) pour une durée probatoire de 5 ans","تصویب لایحه قطع داوطلبانه بارداری (IVG) برای دوره آزمایشی 5 ساله"
"contemporaine","28 décembre 1967","medium","Adoption par l’assemblée de la Loi Neuwirth légalisant la contraception","تصویب توسط مجمع قانون Neuwirth قانونی پیشگیری از بارداری"
"Moyen-âge",796,"medium","Aix-la-Chapelle est choisie pour capitale","آخن برای سرمایه انتخاب شده است"
"Moyen-âge",788,"medium","Annexion de la Bavière","الحاق بایرن"
"contemporaine","18 juin 1940","medium","Appel à la résistance du général De Gaulle réfugié à Londres","درخواست مقاومت از پناهجویان ژنرال دوگل در لندن"
"contemporaine","17 juin 1940","medium","Appel radiophonique du maréchal Pétain à cesser le combat","تماس رادیویی مارشال پایتین برای متوقف کردن جنگ"
"contemporaine","2 juin 1793","medium","Arrestation des chefs girondins","دستگیری رهبران جیروندین"
"contemporaine","15 octobre 1894","medium","Arrestation du capitaine Dreyfus soupçonné d’espionnage (l’affaire Dreyfus)","بازداشت کاپیتان دریفوس مظنون به جاسوسی (پرونده دریفوس)"
"moderne","2 août 1589","medium","Assassinat d’Henri III_ Henri de Navarre lui succède","ترور هنری سوم ، هنری ناوار جانشین او شد"
"contemporaine","24 juin 1894","medium","Assassinat du président Sadi Carnot par Santo Caserio_ anarchiste italien à Lyon","ترور رئیس جمهور سعد کاروت توسط سانتو کارسیو ، آنارشیست ایتالیایی در لیون"
"contemporaine","14 janvier 1858","medium","Attentat d’Orsini contre l’empereur (8†)","حمله اورسینی به امپراتور (8 †)"
"contemporaine","22 août 1962","medium","Attentat manqué de l’OAS (Organisation armée secrète_ pour une Algérie française) contre De Gaulle au Petit-Clamart","حمله از دست رفته OAS (سازمان ارتش مخفی ، برای یک الجزایر فرانسه) علیه دوگل در پیت-کلامارت"
"contemporaine","2 septembre 1870","medium","Capitulation de Napoléon III à Sedan qui devient prisonnier","کاپیتولاسیون ناپلئون سوم در سدان که زندانی می شود"
"Moyen-âge",806,"medium","Charlemagne partage son royaume entre ses trois fils Charles_ Louis (Aquitaine) et Pépin (Lombardie)","شارلمانی پادشاهی خود را بین سه پسرش چارلز ، لوئیس (آکویتین) و پپین (لمباردی) به اشتراک می گذارد."
"Moyen-âge","Novembre 887","medium","Charles II est déposé et enfermé dans une abbaye","چارلز دوم در یک ابی سپرده شده و قفل شده است"
"Moyen-âge",716,"medium","Charles Martel devient maire du palais (plus hauts dignitaires_ après les rois_ des royaumes francs) d’Austrasie","چارلز مارتل به عنوان شهردار قصر (بالاترین مقامات ، پس از پادشاهان ، پادشاهی های فرانک) از اتریشیا تبدیل می شود"
"contemporaine","1 août 1908","medium","Clémenceau ordonne l’arrestation de syndicalistes CGT","کلمنسو دستور دستگیری اتحادیه های صنفی CGT را صادر کرد"
"moderne","10 septembre 1567","medium","Condé et Coligny attaquent Paris_ 2eme guerre de religion","کاندی و کولینگی به پاریس ، جنگ دوم دین حمله کردند"
"Moyen-âge",1204,"medium","Conquête de la Normandie par Philippe Auguste","فتح نورماندی توسط فیلیپ آگوست"
"contemporaine","8 août 1829","medium","Constitution du gouvernement Polignac (ultra-royaliste)","قانون اساسی دولت Polignac (فوق العاده سلطنتی)"
"contemporaine","2 décembre 1851","medium","Coup d’État de Louis-Napoléon Bonaparte prolongeant son mandat pour 10 ans","کودتای لوئیس-ناپلئون بناپارت تمدید مدت 10 سال اختیار خود"
"contemporaine","3 octobre 1940","medium","Création d’un statut pour les Juifs en France leur interdisant un certain nombre de fonctions","ایجاد یک وضعیت برای یهودیان در فرانسه که ممنوعیت تعدادی از کارکردها"
"contemporaine","28 mars 1803","medium","Création du Franc germinal (monnaie)","ایجاد فرانک ژرمن (ارز)"
"contemporaine","10 mars 1793","medium","Création du Tribunal Révolutionnaire","ایجاد دادگاه انقلاب"
"contemporaine","14 janvier 1963","medium","De Gaulle s’oppose à l’entrée de la Grande Bretagne au sein du marché commun","دوگل با ورود انگلیس به بازار مشترک مخالف است"
"contemporaine","8 novembre 1942","medium","Débarquement allié en Afrique du nord (opération Torch)","فرود متفقین در شمال آفریقا (عملیات مشعل)"
"contemporaine","1 novembre 1954","medium","Début de l’insurrection algérienne dans le massif des Aurès","آغاز قیام الجزایر در توده آئورس"
"contemporaine","10 mars 1793","medium","Début de l’insurrection en Vendée","آغاز قیام در وندیه"
"contemporaine","24-29 janvier 1960","medium","Début de la semaine des barricades à Alger contre l’autodétermination","آغاز هفته موانع در الجزایر علیه خودمختاری"
"Moyen-âge",885,"medium","Début du siège de Paris par les Normands","آغاز محاصره پاریس توسط عادیان"
"moderne","8 mars 1759","medium","Décret du Conseil d’État interdisant l’Encyclopédie ou Dictionnaire raisonné des sciences_ des arts et des métiers est une encyclopédie française_ éditée sous la direction de Denis Diderot et_ partiellement_ de Jean Le Rond d'Alembert","فرمان شورای ایالتی منع دائرyclالمعارف یا فرهنگ لغت علوم ، صنایع دستی و صنایع دستی ، یک دائرyclالمعارف فرانسوی است که به سرپرستی دنیس دیدرو و بخشی از آن ژان لو روند dAlembert ویرایش شده است."
"moderne","24 février 1525","medium","Défaite de Pavie_ François Ier est fait prisonnier","شکست پاویا ، فرانسیس اول زندانی است"
"Moyen-âge","26 août 1346","medium","Défaite des armées françaises à Crécy face aux Anglais","ارتشهای فرانسه را در کریسی علیه انگلیسی شکست دهید"
"contemporaine","7 mai 1954","medium","Défaite française à Dien Biên Phû","شکست فرانسه در Dien Biên Phû"
"contemporaine","20 janvier 1946","medium","Démission du général De Gaulle opposé au régime « des partis »","استعفای ژنرال دوگل مخالف رژیم احزاب "
"contemporaine","13 juillet 1870","medium","Dépêche d’Ems de Bismarck_ est un imbroglio diplomatique (mauvaise lecture d’un télégramme)_ qui a servi de prétexte pour engager la guerre franco-allemande","اعزام Ems Bismarck ، یک دیابت دیپلماتیک است (خواندن بد تلگرام) ، که بهانه ای برای درگیری جنگ فرانسه و آلمان شد."
"Moyen-âge","24 juin 1340","medium","Destruction de la flotte française lors de la bataille de l’Écluse (près de Bruges)","تخریب ناوگان فرانسوی ها هنگام نبرد قفل (در نزدیکی بروژ)"
"contemporaine","5 novembre 1827","medium","Dissolution de la Chambre des députés","انحلال اتاق نمایندگان"
"contemporaine","15 mai 1991","medium","Édith Cresson est la première femme à devenir premier ministre","ادیت کرسون اولین زنی است که نخست وزیر شد"
"Moyen-âge","7 octobre 1337","medium","Édouard III d’Angleterre revendique le trône de France","ادوارد سوم انگلیس مدعی تاج و تخت فرانسه است"
"contemporaine","19 décembre 1965","medium","Élection du général De Gaulle à la présidence de la république au second tour (55%) au suffrage universel","انتخاب ژنرال دوگل به ریاست جمهوری در دور دوم (55٪) با رأی گیری جهانی"
"contemporaine","3 mai 1814","medium","Entrée de Louis XVIII à Paris","ورود لویی شانزدهم در پاریس"
"moderne","7-24 juin  1520","medium","Entrevue du Camp du Drap d’Or. François Ier rencontra Henri VIII d’Angleterre qui resta neutre Face à Charles Quint","مصاحبه با کمپ Drap dOr. فرانسیس من با هنری هشتم انگلیس آشنا شدم که در مواجهه با چارلز پنجم بی طرف ماند"
"contemporaine","7 juillet 1904","medium","Exclusion des congrégations de l’enseignement (Loi Combes)","محرومیت از کنگره های آموزش و پرورش (قانون ترکیبی)"
"contemporaine","25 avril 1905","medium","Fondation de la Section Française de l’Internationale Ouvrière (SFIO)","بنیاد بخش فرانسوی بین المللی کارگران (SFIO)"
"antique",-598,"medium","Fondation Marseille par les Grecs (Phocéens)","بنیاد مارسی توسط یونانیان (فنیقی)"
"Moyen-âge","25 décembre 1066","medium","Guillaume de Normandie est couronné roi d’Angleterre à Westminster","ویلیام نرماندی تاج پادشاه انگلیس در وست مینستر است"
"Moyen-âge","Mai 987","medium","Hugues Capet_ comte de Paris et d’Orléans est élu roi à Senlis par les Grands du Royaume","Hugues Capet ، Count of Paris و Orleans توسط پادشاهان پادشاهی در سنلیس پادشاه انتخاب می شود"
"contemporaine","24 août 1837","medium","Inauguration de la première voie de chemin de fer entre Paris et Orléans","افتتاح اولین خط راه آهن بین پاریس و اورلئان"
"Moyen-âge",1309,"medium","Installation du pape Clément V en Avignon","نصب پاپ کلمنت پنجم در آوینیون"
"Moyen-âge","19 septembre 1356","medium","Jean II est fait prisonnier par les Anglais lors de la défaite de Poitiers","جان دوم توسط انگلیسی ها در حین شکست Poitiers زندانی می شود"
"Moyen-âge","23 mai 1430","medium","Jeanne d’Arc est capturée par les Bourguignons devant Compiègne","Jeanne dArc توسط بورگوندی ها مقابل Compiegne اسیر شده است"
"moderne","12 mai 1588","medium","Journée des barricades_ insurrection des Parisiens contre Henri III","روز سنگرها ، قیام پاریسی ها علیه هنری سوم"
"moderne","11 novembre 1630","medium","Journée des dupes_ le roi confirme Richelieu dans ses fonctions","روز کوره ها ، پادشاه ریشلیو را در کارکردهای خود تأیید می کند"
"contemporaine","5 juillet 1974","medium","L’âge de la majorité est abaissé à 18 ans","سن اکثریت به 18 سال کاهش یافته است"
"moderne","20 avril 1792","medium","L’Assemblée législative déclare la guerre au roi de Bohême et de Hongrie","مجلس قانونگذاری جنگ را به پادشاه بوهمیا و مجارستان اعلام می کند"
"moderne","4 août 1789","medium","L’assemblée vote l’abolition des privilèges","مجلس به لغو امتیازات رای می دهد"
"contemporaine","23 mai 1915","medium","L’Italie déclare la guerre à la l’Autriche-Hongrie","ایتالیا جنگ اتریش-مجارستان را اعلام کرد"
"contemporaine","17 septembre 1793","medium","La Convention adopte la Loi des suspects_  début de la terreur","کنوانسیون قانون مظنونان ، آغاز ترور را تصویب می کند"
"moderne","10 juillet 1778","medium","La France déclare la guerre à l’Angleterre car elle cherche à récupérer de l'influence_ voire des territoires d'Amérique du Nord cédés à la Grande-Bretagne lors du traité de Paris de 1763. ","فرانسه جنگ را با انگلستان اعلام می کند ، زیرا به دنبال بازیابی نفوذ است ، حتی قلمروهای آمریکای شمالی در طول پیمان پاریس در سال 1763 به انگلیس واگذار شد."
"contemporaine","1 juillet 1966","medium","La France se retire du dispositif intégré de l’OTAN","فرانسه از سیستم یکپارچه ناتو خارج شد"
"moderne","27 décembre 1788","medium","Le Conseil royal décide de la double représentation du tiers-état","شورای سلطنتی در مورد نمایندگی دوگانه دولت سوم تصمیم می گیرد"
"Moyen-âge","30 octobre 1422","medium","Le dauphin (héritier de la couronne) se proclame roi à Bourges","دلفین (وارث تاج) خود را در بورژ پادشاه اعلام می کند"
"contemporaine","13 mai 1958","medium","Le général Massu lance l’insurrection en Algérie et crée un comité de salut public et appelle de Gaulle","جنرال ماسو قیام را در الجزایر آغاز کرد و کمیته امنیت عمومی را ایجاد کرد و دوگل را صدا زد"
"contemporaine","26 mars 1918","medium","Le maréchal Foch est nommé généralissime des forces alliées","مارشال فوچ به نام ژنرالیسمو از نیروهای متفقین"
"contemporaine","24 mai 1873","medium","Le maréchal Mac-Mahon est élu président de la république","مارشال مک ماهون به عنوان رئیس جمهور انتخاب شد"
"moderne","4 octobre 1511","medium","Le pape Jules II crée la Sainte Ligue contre la France. Excommunication de Louis XII","پاپ جولیوس دوم لیگ مقدس را علیه فرانسه ایجاد می کند ، انفجار لوئی XII"
"moderne","16 juillet 1789","medium","Le roi ordonne le renvoi des troupes rassemblées autour de Paris et signe l'ordre de rappel  Necker_ qui tente de s’opposer à la confiscation des biens du clergé.","شاه دستور عزل سربازان جمع شده در اطراف پاریس را صادر می کند و دستور فراخوان نکر را امضا می کند ، که سعی می کند با مصادره اموال روحانیت مخالفت کند."
"contemporaine","7 août 1913","medium","Le service militaire et porté à trois ans","خدمت سربازی و به سه سال افزایش یافته است"
"moderne","17 juin 1789","medium","Le Tiers-état se proclame assemblée nationale (490 pour et 90 contre)","املاک سوم خود را مجلس ملی اعلام می کند (490 رأی و 90 مخالف)"
"contemporaine","13 février 1937","medium","Léon Blum annonce une pause dans les réformes","لئون بلوم مکث از اصلاحات را اعلام کرد"
"contemporaine","5 octobre 1944","medium","Les femmes acquièrent le droit de vote","زنان حق رأی را بدست می آورند"
"moderne","30 septembre 1681","medium","Les français s’emparent de Strasbourg","فرانسوی ها استراسبورگ را تصرف می کنند"
"moderne","23 août 1568","medium","Les Protestants reprennent les armes_ début de la troisième guerre de religion","پروتستان ها دوباره شروع به سلاح می کنند ، آغاز جنگ مذهبی سوم"
"contemporaine","21 mars 1884","medium","Loi « Wladeck-Rousseau » reconnaissant le droit syndical","قانون Wladeck-Russeau به رسمیت شناختن حق سازماندهی"
"contemporaine","28 juillet 1999","medium","Loi instituant la Couverture Maladie Universelle (CMU)","قانونی برای ایجاد پوشش بهداشت جهانی (CMU)"
"contemporaine","1 juillet 1901","medium","Loi sur les associations à but non lucratif","قانون انجمن های غیر انتفاعی"
"moderne","1er novembre 1511","medium","Louis XII réunit un concile à Pise qui suspend Jules II (pape)","لوییز دوازدهم شورایی در پیزا تشکیل می دهد که جولیوس دوم (پاپ) را به حالت تعلیق درآورد"
"moderne","7 septembre 1651","medium","Louis XIV est officiellement reconnu majeur","لوئیز چهاردهم رسماً بزرگ شناخته شده است"
"moderne","17 juillet 1789","medium","Louis XVI reçoit de La Fayette la cocarde tricolore à l’hôtel de ville","لوئیس شانزدهم از لا فایت کاکادار سه گانه در شهر هال را دریافت می کند"
"contemporaine","24 février 1848","medium","Louis-Philippe abdique en faveur de son petit-fils_ le comte de Paris_ ce que la chambre refuse","لوئیز-فیلیپ به نفع نوه خود ، Count of Paris ، آنچه اتاق از آن امتناع می ورزد ، تجاوز می کند"
"contemporaine","9 août 1830","medium","Louis-Philippe Ier devient roi des Français_ début de la monarchie de Juillet","لوئیز-فیلیپ اول پادشاه فرانسوی ها ، آغاز سلطنت ژوئیه"
"contemporaine","17 février 1864","medium","Manifeste des soixante proclamant le besoin de représentation des ouvriers","مانیفست از شصت اعلام نیاز به نمایندگی کارگران"
"Moyen-âge","28 janvier 814 ","medium","Mort de Charlemagne à Aix-la-Chapelle_ son fils Louis lui succède","مرگ شارلمانی در Aix-la-Chapelle ، پسرش لویی جانشین او شد"
"moderne","10 juin 1584","medium","Mort de François d’Anjou_ Henri de Navarre devient héritier du trône de France","مرگ François dAnjou ، هنری ناوار وارث عرش فرانسه شد"
"moderne","1 septembre 1715","medium","Mort de Louis XIV_ son arrière-petit-fils Louis_ lui succède","مرگ لوئیز چهاردهم ، نوه اش لوئیس ، جانشین او شد"
"moderne","4 décembre 1642","medium","Mort de Richelieu_ le cardinal Mazarin le remplace","مرگ ریچلیو ، کاردینال مازارین او را جایگزین کرد"
"antique","Janvier 395","medium","Mort de Théodose_ l’empire romain est désormais séparé entre Orient et Occident","مرگ تئودوسیوس ، امپراتوری روم اکنون بین شرق و غرب از هم جدا شده است"
"contemporaine","4 avril 1814","medium","Napoléon abdique à Fontainebleau sans conditions","ناپلئون بدون شرایط به Fontainebleau رها می شود"
"contemporaine","6 juillet 1809","medium","Napoléon fait arrêter le pape_ et remporte la victoire contre l’Autriche à Wagram","ناپلئون باعث می شود تا پاپ متوقف شود و پیروزی مقابل اتریش را در واگرام برد"
"contemporaine","20 mars 1815","medium","Napoléon retourne en France et entre à Paris","ناپلئون به فرانسه بازگشت و وارد پاریس می شود"
"contemporaine","1 mars 1815","medium","Napoléon s’évade de l’île d’Elbe et débarque à Golfe-Juan (Provence)","ناپلئون از جزیره البا فرار می کند و به گلف ژوان (پرووانس) می رسد"
"moderne","27 octobre 1614","medium","Ouverture des États Généraux (assemblée extraordinaire réunissant les trois ordres (les états) de la société : la noblesse_ le clergé et le tiers état (le reste))_ avec pour objectif d’affermir le nouveau pouvoir royal face aux manœuvres des grands féodaux","افتتاح ایالات عمومی (جلسه فوق العاده ای که سه دستور (ایالت) جامعه را گرد هم می آورد: اشراف ، روحانیت و دولت سوم (بقیه)) ، با هدف برای تحکیم قدرت سلطنتی جدید در مقابل مانورهای بزرگ. فئودالی "
"moderne","5 mai 1789","medium","Ouverture des États Généraux à Versailles","افتتاح ایالت های عمومی در ورسای"
"moderne","19 mars 1563","medium","Paix d’Amboise accordant liberté de culte et de conscience aux Protestants chez eux","صلح Amboise اعطای آزادی عبادت و وجدان به پروتستان ها در خانه"
"Moyen-âge","24 octobre 1360","medium","Paix de Calais_ ratification du traité de Brétigny (trève de 9 ans dans la guerre de cent ans)","صلح کالی ، تصویب پیمان بریتنی (آتش بس 9 سال در جنگ صد سال)"
"moderne","23 mars 1568","medium","Paix de Longjumeau mettant fin à la 2eme guerre de religion en confirmant l’édit d’Amboise","صلح Longjumeau با پایان دادن به ادعای Amboise به جنگ دوم دین پایان داد"
"moderne","8 août 1570","medium","Paix de Saint-Germain mettant fin à la 3eme guerre de religion et accordant des places fortes aux Protestants","صلح سنت ژرمن با پایان یافتن جنگ سوم دین و اعطای استحکامات به پروتستان ها"
"moderne","29 novembre  1516","medium","Paix perpétuelle entre François Ier et les cantons suisses","صلح همیشگی بین فرانسیس اول و کانتون های سوئیس"
"Moyen-âge",751,"medium","Pépin est élu roi à Soissons par une assemblée de nobles et d’évêques","پپین توسط مجمع بزرگان و اسقفها در سوسون پادشاه انتخاب می شود"
"contemporaine","10 juillet 1940","medium","Pétain abroge la constitution de la IIIeme République et devient chef de l’état","پتین قانون اساسی جمهوری سوم را لغو می کند و رئیس دولت می شود"
"Moyen-âge","Mars 845","medium","Pillage de Paris par les Normands_ Charles paye une rançon contre leur départ","غارت پاریس توسط عادیان ، چارلز باج خواهان در مقابل عزیمت آنها"
"contemporaine","23 juillet 1926","medium","Poincaré prend la tête d’un gouvernement d’union nationale","Poincaré رئیس دولت وحدت ملی را می گیرد"
"contemporaine","10 février 1998","medium","Première loi Aubry sur les 35 heures (35 heures de travail)","قانون اول Aubry در 35 ساعت (35 ساعت کار)"
"antique",286,"medium","Premières incursions des Burgondes en Gaule","اولین حمله های بورگوندی ها در گال"
"antique",253,"medium","Premières incursions des Francs en Gaule","اولین حملات فرانک ها در گال"
"contemporaine","5 juillet 1830","medium","Prise d’Alger par les troupes françaises_ exil du dey (le dey d’Alger est le titre des souverains de la régence d'Alger sous l'autorité nominale de l'Empire ottoman)","تسخیر الجزایر توسط نیروهای فرانسوی ، تبعید دی (دین الجزایر عنوان حاکمیت های پادشاهی الجزایر تحت اقتدار اسمی امپراتوری عثمانی است)"
"Moyen-âge","4 août 1347","medium","Prise de Calais par Édouard III d’Angleterre","کالای گرفته شده توسط ادوارد سوم انگلیس"
"Moyen-âge","15 juillet 1099","medium","Prise de Jérusalem par les croisés qui vont se livrer au pillage et au massacre de la population","گرفتن بیت المقدس توسط صلیبیون که به غارت و قتل عام مردم مشغول خواهند شد"
"moderne","10 août 1792","medium","Prise du Palais des Tuileries (600† parmi les gardes suisses et 100† parmi le peuple)","ضبط کاخ Tuileries (600 † در میان نگهبانان سوئیس و 100 † در بین مردم)"
"contemporaine","27 février 1998","medium","Publication de la liste de onze pays répondant aux critères économiques en vue de l’instauration de l’Euro","انتشار لیست یازده کشور که معیارهای اقتصادی برای ایجاد یورو را رعایت می کنند"
"contemporaine","1 juin 1958","medium","Rappelé par le président_ De Gaulle devient président du Conseil","با یادآوری رئیس جمهور ، دوگل رئیس شورا می شود"
"contemporaine","31 mai 1850","medium","Réforme électorale restreignant le suffrage universel_ amputant d’un tiers le corps électoral","اصلاحات انتخاباتی با محدود کردن رأی عمومی جهانی ، بریدن بخش سوم از انتخابات"
"contemporaine","3 - 4 avril 2009","medium","Réintégration de la France dans le commandement intégré de l'OTAN","ادغام مجدد فرانسه در فرماندهی یکپارچه ناتو"
"Moyen-âge",830,"medium","Révolte des grands du royaume contre Louis le Pieux","قیام بزرگان پادشاهی علیه لوئیس پرهیزگار"
"contemporaine","21 juillet 1954","medium","Signature des accords de Genève mettant fin à la guerre d’Indochine","امضاء توافق نامه ژنو در خاتمه جنگ هندوچین"
"contemporaine","15 juillet 1801","medium","Signature du Concordat_ ce dernier organise les rapports entre les différentes religions et l’État dans toute la France","امضای کنکوردات ، دومی رابطه بین مذاهب مختلف و ایالت را در سراسر فرانسه ترتیب می دهد"
"contemporaine","28 juin 1919","medium","Signature du traité de Versailles où la France obtient l’Alsace-Lorraine_ des indemnités et occupe la rive gauche du Rhin","امضاء معاهده ورسای که فرانسه در آن آلزاس-لورن را بدست می آورد ، جبران خسارت می کند و ساحل سمت چپ راین را اشغال می کند"
"moderne","3 août 1529","medium","Traité de Cambrai (Paix des Dames). François Ier conserve la Bourgogne et verse une rançon pour récupérer ses fils","پیمان کامباری (صلح خانمها). فرانسیس اول بورگوندی را حفظ می کند و برای بازپس گیری پسران خود باج می دهد"
"moderne","15 janvier 1552","medium","Traité de Chambord entre Henri II et les princes allemands contre Charles Quint","پیمان چامفورد بین هنری دوم و شاهزادگان آلمانی علیه چارلز پنجم"
"moderne","6 février 1778","medium","Traité de commerce et d’alliance entre la France et les États-Unis","پیمان تجارت و اتحاد فرانسه و ایالات متحده"
"Moyen-âge","21 mai 1420","medium","Traité de Troyes entre Philippe le Bon_ Charles VI et Henri V. Le dauphin (héritier de la couronne) perd le trône de France","پیمان ترویس بین فیلیپ خوب ، چارلز ششم و هنری پنجم. دلفین (وارث تاج) تاج و تخت فرانسه را از دست می دهد"
"moderne","24 octobre 1648","medium","Traité de Westphalie_ il met fin à la guerre de trente ans avec l’Espagne","پیمان وستفالن ، جنگ سی سال با اسپانیا را پایان می دهد"
"contemporaine","12 mai 1881","medium","Traité du Bardo_ la Tunisie devient protectorat français","پیمان باردو ، تونس تبدیل به یک پروتستان فرانسه"
"Moyen-âge","27 novembre 1095","medium","Urbain II prêche la première croisade lors du concile de Clermont","Urban II نخستین جنگ صلیبی را در شورای كلمونت موعظه می كند"
"antique",-53,"medium","Victoire de Jules César contre les Belges_  fin de la ‘Guerre des Gaules’","پیروزی ژولیوس سزار مقابل بلژیکی ها ، پایان جنگ های گالی"
"antique",-58,"medium","Victoire de Jules César contre les Helvètes_ début de la ‘Guerre des Gaules’","پیروزی ژولیوس سزار در برابر هلوتی ها ، آغاز جنگ های گالی"
"contemporaine","8 février 1807","medium","Victoire de Napoléon contre les Russes à Eylau","پیروزی ناپلئون مقابل روسها در ایلو"
