EU_circo,code_région,nom_région,pop_region,chef-lieu_région,superficie_régions,desnité_régions,date_création
Sud-Est,82,Auvergne-Rhône-Alpes,7916889,Lyon,69711,112,2016
Est,26,Bourgogne-Franche-Comté,2818330,Dijon,47784,59,2016
Ouest,53,Bretagne,3306525,Rennes,27208,120,1790
Centre,24,Centre-Val de Loire,2577861,Orléans,39151,66,2016
Sud-Est,94,Corse,330454,Ajaccio,8680,37,1976
Est,21,Grand Est,5555179,Strasbourg,57441,97,2016
Outre-Mer,1,Guadeloupe,394110,Basse-Terre,1628,246,1946
Outre-Mer,3,Guyane,269352,Cayenne,12011,3,1946
Nord-Ouest,22,Hauts-de-France,6006868,Lille,31806,189,2016
Île-de-France,11,Île-de-France,12117104,Paris,12011,1001,1982
Outre-Mer,4,La Réunion,852924,Saint-Denis,2504,337,1946
Outre-Mer,2,Martinique,376480,Fort-de-France,1128,340,1946
Outre-Mer,5,Mayotte,262895,Dzaoudzi,376,689,2011
Nord-Ouest,25,Normandie,3335925,Rouen,29907,112,2016
Ouest,54,Nouvelle-Aquitaine,5935603,Bordeaux,84036,70,2016
Sud-Ouest,73,Occitanie,5808428,Toulouse,72724,79,2016
Ouest,52,Pays de la Loire,3737628,Nantes,32082,115,1790
Sud-Est,93,Provence-Alpes-Côte d'Azur,5021928,Marseille,31400,93,1790
