reg,dep,com,article,com_nom,long,lat,pop_2010
Nouvelle-Aquitaine,47,1,,AGEN,0.616363,44.203142,34773.8068483254
Provence-Alpes-Côte d'Azur,13,1,,AIX-EN-PROVENCE,5.447427,43.529742,145045.582093167
Corse,2A,4,,AJACCIO,8.738635,41.919229,68707.7938226914
Occitanie,81,4,,ALBI,2.146343,43.926896,49604.5932214493
Occitanie,30,7,,ALÈS,4.083352,44.127204,41722.8415324735
Île-de-France,94,2,,ALFORTVILLE,2.422317,48.80093,46774.9106314277
Hauts-de-France,80,21,,AMIENS,2.295753,49.894067,133564.658062778
Pays de la Loire,49,7,,ANGERS,-0.563166,47.478419,145821.040857443
Nouvelle-Aquitaine,64,24,,ANGLET,-1.514699,43.481402,38422.9418812115
Nouvelle-Aquitaine,16,15,,ANGOULÈME,0.1562369,45.648377,42753.4315316603
Auvergne-Rhône-Alpes,74,10,,ANNECY,6.129384,45.899247,50043.3253688997
Auvergne-Rhône-Alpes,74,12,,ANNEMASSE,6.234158,46.193253,31821.8005361648
Provence-Alpes-Côte d'Azur,6,4,,ANTIBES,7.125102,43.580418,76695.7928338198
Île-de-France,92,2,,ANTONY,2.302553,48.759255,60883.5251395756
Île-de-France,95,18,,ARGENTEUIL,2.2489499,48.947411,105346.245308746
Provence-Alpes-Côte d'Azur,13,4,,ARLES,4.627502,43.676675,53382.0443911044
Hauts-de-France,62,41,,ARRAS,2.777535,50.291002,42736.5754619994
Île-de-France,92,4,,ASNIERES-SUR-SEINE,2.285369,48.914155,82746.1551509798
Île-de-France,91,27,,ATHIS-MONS,2.38479,48.7092979,30636.3848662006
Provence-Alpes-Côte d'Azur,13,5,,AUBAGNE,5.569336,43.29218,47161.9477395823
Île-de-France,93,1,,AUBERVILLIERS,2.384049,48.912259,77947.2182125249
Île-de-France,93,5,,AULNAY-SOUS-BOIS,2.497115,48.940974,82136.6848282778
Bourgogne-Franche-Comté,89,24,,AUXERRE,3.573781,47.798202,36690.0735574701
Provence-Alpes-Côte d'Azur,84,7,,AVIGNON,4.805528,43.949317,91817.0574863665
Île-de-France,92,7,,BAGNEUX,2.31002,48.796696,39469.8682602055
Île-de-France,93,6,,BAGNOLET,2.4234589,48.870364,34073.566017311
Corse,2B,33,,BASTIA,9.450881,42.697283,46400.3218233915
Nouvelle-Aquitaine,64,102,,BAYONNE,-1.474841,43.492949,46230.0280542644
Hauts-de-France,60,57,,BEAUVAIS,2.081875,49.42964,54030.2763910121
Bourgogne-Franche-Comté,90,10,,BELFORT,6.863849,47.639674,50256.2779249858
Bourgogne-Franche-Comté,25,56,,BESANCON,6.0240539,47.237829,116267.242180485
Hauts-de-France,62,119,,BÉTHUNE,2.63926,50.531036,36557.9897522845
Occitanie,34,32,,BÉZIERS,3.215795,43.344233,72485.8220473935
Île-de-France,93,7,LE,BLANC-MESNIL,2.46436,48.941345,52040.1959714389
Centre-Val de Loire,41,18,,BLOIS,1.3362719,47.587952,45311.5720228893
Île-de-France,93,8,,BOBIGNY,2.439712,48.908612,49229.2126958332
Île-de-France,93,10,,BONDY,2.481875,48.906008,54655.3720525836
Nouvelle-Aquitaine,33,63,,BORDEAUX,-0.57918,44.837789,240365.250202318
Île-de-France,92,12,,BOULOGNE-BILLANCOURT,2.237803,48.84325,113923.407622712
Hauts-de-France,62,160,,BOULOGNE-SUR-MER,1.613334,50.725231,43592.4881532486
Auvergne-Rhône-Alpes,1,53,,BOURG-EN-BRESSE,5.219246,46.20279,39657.3015473465
Centre-Val de Loire,18,33,,BOURGES,2.398782,47.081012,67365.9625785962
Bretagne,29,19,,BREST,-4.486076,48.390394,139366.604903797
Nouvelle-Aquitaine,19,31,,BRIVE-LA-GAILLARDE,1.533937,45.159555,50005.4683315846
Auvergne-Rhône-Alpes,69,29,,BRON,4.911927,45.733316,39337.2253920117
Normandie,14,118,,CAEN,-0.370679,49.182863,107647.512245539
Provence-Alpes-Côte d'Azur,6,27,,CAGNES-SUR-MER,7.14882,43.663739,49450.3537765282
Hauts-de-France,62,193,,CALAIS,1.858686,50.95129,73568.6628154582
Auvergne-Rhône-Alpes,69,34,,CALUIRE-ET-CUIRE,4.842426,45.79681,40973.8482422071
Hauts-de-France,59,122,,CAMBRAI,3.236633,50.173538,31870.7133833175
Provence-Alpes-Côte d'Azur,6,29,,CANNES,7.017369,43.552847,75282.6822188619
Provence-Alpes-Côte d'Azur,6,30,LE,CANNET,7.01902,43.576551,41099.717218602
Occitanie,11,69,,CARCASSONNE,2.353663,43.212161,48407.5125618827
Provence-Alpes-Côte d'Azur,84,31,,CARPENTRAS,5.048722,44.0555639,29922.8324559935
Occitanie,81,65,,CASTRES,2.241295,43.606214,42926.3463300355
Île-de-France,95,127,,CERGY,2.060325,49.035617,53837.5566149629
Bourgogne-Franche-Comté,71,76,,CHALON-SUR-SAÔNE,4.853947,46.780764,44936.493569572
Grand Est,51,108,,CHALONS-EN-CHAMPAGNE,4.363073,48.956682,46121.8252004993
Auvergne-Rhône-Alpes,73,65,,CHAMBÉRY,5.917781,45.564601,56779.7350419917
Île-de-France,94,17,,CHAMPIGNY-SUR-MARNE,2.515556,48.817049,74823.0109138388
Grand Est,8,105,,CHARLEVILLE-MEZIÈRES,4.726096,49.762085,49133.6176267497
Centre-Val de Loire,28,85,,CHARTRES,1.489012,48.443854,38295.0270500455
Centre-Val de Loire,36,44,,CHÂTEAUROUX,1.686779,46.811434,45517.2356105908
Nouvelle-Aquitaine,86,66,,CHÂTELLERAULT,0.548146,46.816487,33081.8068696001
Île-de-France,92,19,,CHATENAY MALABRY,2.270748,48.771896,32190.7698941521
Île-de-France,92,20,,CHATILLON,2.289387,48.804689,33124.1608917469
Île-de-France,78,146,,CHATOU,2.160098,48.896391,30510.1294697294
Île-de-France,77,108,,CHELLES,2.59016,48.877535,54472.3989078242
Normandie,50,129,,CHERBOURG-OCTEVILLE,-1.625298,49.639093,38992.1752467649
Île-de-France,78,158,LE,CHESNAY,2.130544,48.825415,29646.0854212941
Île-de-France,94,22,,CHOISY-LE-ROI,2.4088759,48.762541,39675.8040200335
Pays de la Loire,49,99,,CHOLET,-0.879787,47.059407,54598.1113936429
Provence-Alpes-Côte d'Azur,13,28,LA,CIOTAT,5.605155,43.173653,34178.412980868
Île-de-France,92,23,,CLAMART,2.257289,48.799815,52482.2655640016
Auvergne-Rhône-Alpes,63,113,,CLERMONT-FERRAND,3.087025,45.777222,140041.27286644
Île-de-France,92,24,,CLICHY,2.304768,48.904526,60492.5960132279
Île-de-France,93,14,,CLICHY-SOUS-BOIS,2.546147,48.910899,29760.4836174673
Grand Est,68,66,,COLMAR,7.358512,48.0793589,66965.8619664322
Île-de-France,92,25,,COLOMBES,2.248307,48.931179,85839.8296771839
Occitanie,31,149,,COLOMIERS,1.336579,43.612189,34807.9004785741
Hauts-de-France,60,159,,COMPIÈGNE,2.826145,49.417816,41439.4183822055
Île-de-France,78,172,,CONFLANS-SAINTE-HONORINE,2.09178,49.000275,34578.3658993098
Île-de-France,91,174,,CORBEIL-ESSONNES,2.474805,48.6102599,42370.2501052773
Île-de-France,92,26,,COURBEVOIE,2.25929,48.900552,90586.3891209854
Île-de-France,93,27,LA,COURNEUVE,2.398701,48.931422,37339.9235947457
Hauts-de-France,60,175,,CREIL,2.473346,49.261132,36232.0462296495
Île-de-France,94,28,,CRÉTEIL,2.455572,48.790367,91465.1903736431
Normandie,76,217,,DIEPPE,1.077483,49.922992,32351.396352572
Bourgogne-Franche-Comté,21,231,,DIJON,5.04148,47.322047,150139.596243002
Hauts-de-France,59,178,,DOUAI,3.080602,50.367874,42107.1793654438
Provence-Alpes-Côte d'Azur,83,50,,DRAGUIGNAN,6.464993,43.5377269,37813.4075720733
Île-de-France,93,29,,DRANCY,2.445676,48.924298,67021.5905918672
Centre-Val de Loire,28,134,,DREUX,1.370889,48.736134,31020.4400299098
Hauts-de-France,59,183,,DUNKERQUE,2.3752019,51.03456,74436.862272157
Auvergne-Rhône-Alpes,38,151,,ÉCHIROLLES,5.718034,45.142151,37574.1805510663
Grand Est,88,160,,ÉPINAL,6.449403,48.172402,32240.9077996078
Île-de-France,93,31,,ÉPINAY-SUR-SEINE,2.314739,48.955735,56050.5068456404
Normandie,27,229,,ÉVREUX,1.151361,49.0270129,50295.6701020418
Île-de-France,91,228,,ÉVRY,2.441782,48.629828,52268.8722799698
Île-de-France,94,33,,FONTENAY-SOUS-BOIS,2.475907,48.851542,54368.844559839
Île-de-France,95,252,,FRANCONVILLE,2.229632,48.986011,33924.1163270328
Provence-Alpes-Côte d'Azur,83,61,,FRÉJUS,6.737034,43.433152,52536.6468994368
Île-de-France,93,32,,GAGNY,2.536518,48.8849159,38625.966937021
Provence-Alpes-Côte d'Azur,5,61,,GAP,6.079758,44.559638,39099.7482530552
Île-de-France,95,268,,GARGES-LÈS-GONESSE,2.400724,48.97178,39862.9794708871
Île-de-France,92,36,,GENNEVILLIERS,2.293275,48.925525,41194.690011179
Île-de-France,95,280,,GOUSSAINVILLE,2.471236,49.030467,31212.8812633416
Provence-Alpes-Côte d'Azur,6,69,,GRASSE,6.926492,43.660153,53459.7562483577
Auvergne-Rhône-Alpes,38,185,,GRENOBLE,5.724524,45.188529,156769.99722001
Grand Est,67,180,,HAGUENAU,7.79125,48.813288,35378.7129073886
Normandie,76,351,LE,HAVRE,0.107929,49.49437,173261.694353302
Île-de-France,94,38,L',HAŸ-LES-ROSES,2.338084,48.7789659,29433.2433316901
Île-de-France,78,311,,HOUILLES,2.18888,48.926916,31302.2967604909
Provence-Alpes-Côte d'Azur,83,69,,HYÈRES,6.128639,43.120541,54653.7518444351
Île-de-France,92,40,,ISSY-LES-MOULINEAUX,2.2743419,48.8245306,66114.8545119375
Provence-Alpes-Côte d'Azur,13,47,,ISTRES,4.987968,43.513006,43503.7877628593
Île-de-France,94,41,,IVRY-SUR-SEINE,2.38822,48.813055,58357.7189442488
Centre-Val de Loire,37,122,,JOUÉ-LES-TOURS,0.6613099,47.351861,36234.4070661207
Pays de la Loire,53,130,,LAVAL,-0.770138,48.077863,50845.3637500423
Hauts-de-France,62,498,,LENS,2.83183,50.42893,36031.6442998792
Île-de-France,92,44,,LEVALLOIS-PERRET,2.287864,48.893217,66452.3322153955
Hauts-de-France,62,510,,LIEVIN,2.775222,50.417921,31563.2095842629
Hauts-de-France,59,350,,LILLE,3.057256,50.62925,226860.748686891
Nouvelle-Aquitaine,87,85,,LIMOGES,1.261105,45.833619,141715.363524294
Île-de-France,93,46,,LIVRY-GARGAN,2.536118,48.91923,42342.7935456789
Bretagne,56,121,,LORIENT,-3.3702449,47.7482524,57344.9060306883
Auvergne-Rhône-Alpes,69,123,,LYON,4.835659,45.764043,479270.471629129
Bourgogne-Franche-Comté,71,270,,MACON,4.828731,46.3068839,34341.597649148
Île-de-France,94,46,,MAISONS-ALFORT,2.429443,48.801148,52860.6743720873
Île-de-France,92,46,,MALAKOFF,2.2977599,48.817275,31592.189988008
Pays de la Loire,72,181,LE,MANS,0.199556,48.00611,141871.719900766
Île-de-France,78,361,,MANTES-LA-JOLIE,1.714958,48.989323,42607.3675464425
Hauts-de-France,59,378,,MARCQ-EN-BAROEUL,3.096267,50.670368,39108.7745515726
Provence-Alpes-Côte d'Azur,13,54,,MARIGNANE,5.218332,43.4212739,34016.7153700118
Provence-Alpes-Côte d'Azur,13,55,,MARSEILLE,5.36978,43.296482,875483.126368747
Provence-Alpes-Côte d'Azur,13,56,,MARTIGUES,5.053728,43.404811,47716.0890137242
Île-de-France,91,377,,MASSY,2.27137,48.730756,41581.7134705017
Hauts-de-France,59,392,,MAUBEUGE,3.9674,50.280228,32181.7569512011
Île-de-France,77,284,,MEAUX,2.879255,48.959396,48672.2243282285
Île-de-France,77,288,,MELUN,2.6554,48.542105,39584.4609093577
Nouvelle-Aquitaine,33,281,,MÉRIGNAC,-0.656358,44.8448769,66384.9742292427
Grand Est,57,463,,METZ,6.176905,49.119666,121262.994849025
Île-de-France,92,48,,MEUDON,2.23847,48.812995,45239.5486806684
Auvergne-Rhône-Alpes,69,282,,MEYZIEU,5.003658,45.766821,30522.7287016433
Nouvelle-Aquitaine,40,192,,MONT-DE-MARSAN,-0.499782,43.893485,30433.7978591194
Occitanie,82,121,,MONTAUBAN,1.35295,44.016079,57317.7936918658
Auvergne-Rhône-Alpes,26,198,,MONTÉLIMAR,4.749496,44.556944,36173.0471554927
Île-de-France,78,423,,MONTIGNY-LE-BRETONNEUX,2.031426,48.7664649,31782.4314489186
Auvergne-Rhône-Alpes,3,185,,MONTLUCON,2.606645,46.3399659,39041.2369138862
Occitanie,34,172,,MONTPELLIER,3.876716,43.610769,260959.18802259
Île-de-France,93,48,,MONTREUIL,2.448451,48.863812,106312.220549733
Île-de-France,92,49,,MONTROUGE,2.317384,48.816363,50460.22323565
Grand Est,68,224,,MULHOUSE,7.335888,47.750839,111603.245942928
Île-de-France,78,440,LES,MUREAUX,1.912178,48.990181,32416.4376740529
Grand Est,54,395,,NANCY,6.184417,48.692054,104868.848191619
Île-de-France,92,50,,NANTERRE,2.215331,48.892423,91245.3850639103
Pays de la Loire,44,109,,NANTES,-1.553621,47.218371,282137.586667003
Occitanie,11,262,,NARBONNE,3.003078,43.184277,52201.9810001969
Île-de-France,93,50,,NEUILLY-SUR-MARNE,2.528373,48.856898,33340.8483812982
Île-de-France,92,51,,NEUILLY-SUR-SEINE,2.26851,48.884831,61036.2033451709
Bourgogne-Franche-Comté,58,194,,NEVERS,3.162845,46.990896,36536.9849547624
Provence-Alpes-Côte d'Azur,6,88,,NICE,7.265592,43.696036,342347.828357804
Occitanie,30,189,,NIMES,4.360054,43.836699,142317.300732559
Nouvelle-Aquitaine,79,191,,NIORT,-0.464777,46.323716,57670.4725109136
Île-de-France,94,52,,NOGENT-SUR-MARNE,2.481699,48.837631,31337.9012922294
Île-de-France,93,51,,NOISY-LE-GRAND,2.55261,48.848579,63752.3633268001
Île-de-France,93,53,,NOISY-LE-SEC,2.458625,48.892489,39443.2766906516
Provence-Alpes-Côte d'Azur,84,87,,ORANGE,4.807511,44.1380989,29795.2814273868
Centre-Val de Loire,45,234,,ORLÉANS,1.909251,47.902964,111838.453016838
Île-de-France,91,477,,PALAISEAU,2.245748,48.714509,30645.4517548065
Île-de-France,93,55,,PANTIN,2.40963,48.894533,52765.5875775071
Île-de-France,75,56,,PARIS,2.3522219,48.856614,2240213.09891947
Nouvelle-Aquitaine,64,445,,PAU,-0.370797,43.2951,85754.3989730986
Nouvelle-Aquitaine,24,322,,PÉRIGUEUX,0.7211149,45.184029,29114.2976787273
Occitanie,66,136,,PERPIGNAN,2.8958719,42.698684,122522.124986765
Île-de-France,94,58,LE,PERREUX-SUR-MARNE,2.504038,48.841386,32544.7229815572
Nouvelle-Aquitaine,33,318,,PÉSSAC,-0.630386,44.80583,57448.0839955234
Île-de-France,93,59,,PIERREFITTE-SUR-SEINE,2.364077,48.967903,29070.4270715947
Île-de-France,78,490,,PLAISIR,1.949075,48.817223,29938.3821988512
Île-de-France,78,498,,POISSY,2.046982,48.929584,37932.2544042618
Nouvelle-Aquitaine,86,194,,POITIERS,0.340375,46.580224,90325.3717158415
Île-de-France,77,373,,PONTAULT-COMBAULT,2.607598,48.801255,34230.8519439601
Île-de-France,95,500,,PONTOISE,2.100645,49.050966,30307.8237077276
Île-de-France,92,62,,PUTEAUX,2.23964,48.884748,44986.1472430828
Bretagne,29,232,,QUIMPER,-4.097899,47.997542,63282.2403100009
Grand Est,51,454,,REIMS,4.031696,49.258329,178609.580985326
Bretagne,35,238,,RENNES,-1.675708,48.113475,205675.191150622
Pays de la Loire,44,143,,REZÉ,-1.569382,47.190616,38469.4354743089
Auvergne-Rhône-Alpes,69,286,,RILLIEUX-LA-PAPE,4.897126,45.819655,30643.1735567168
Auvergne-Rhône-Alpes,42,187,,ROANNE,4.072695,46.034432,36116.7707231323
Pays de la Loire,85,191,LA,ROCHE-SUR-YON,-1.426442,46.670511,52333.3932878177
Nouvelle-Aquitaine,17,300,LA,ROCHELLE,-1.151139,46.160329,75035.4659333837
Auvergne-Rhône-Alpes,26,281,,ROMANS-SUR-ISÈRE,5.052735,45.044236,33850.4036153512
Île-de-France,93,64,,ROSNY-SOUS-BOIS,2.485932,48.875661,41463.1093687304
Hauts-de-France,59,512,,ROUBAIX,3.177847,50.6927049,95265.4130855977
Normandie,76,540,,ROUEN,1.099971,49.443232,109004.794631947
Île-de-France,92,63,,RUEIL-MALMAISON,2.17693,48.882767,79229.0651733293
Bretagne,22,278,,SAINT-BRIEUC,-2.765835,48.51418,46035.9060726691
Auvergne-Rhône-Alpes,42,207,,SAINT-CHAMOND,4.5127119,45.476088,35463.4270393884
Île-de-France,92,64,,SAINT-CLOUD,2.208115,48.847647,30273.3262402435
Île-de-France,93,66,,SAINT-DENIS,2.357443,48.936181,109727.027409259
Auvergne-Rhône-Alpes,42,218,,SAINT-ÉTIENNE,4.3871779,45.439695,171489.548913296
Île-de-France,78,551,,SAINT-GERMAIN-EN-LAYE,2.093761,48.898908,41939.7812524746
Pays de la Loire,44,162,,SAINT-HERBLAIN,-1.651444,47.210335,43107.2124742567
Provence-Alpes-Côte d'Azur,6,123,,SAINT-LAURENT-DU-VAR,7.189811,43.673417,30817.9111135835
Bretagne,35,288,,SAINT-MALO,-2.025674,48.649337,46509.0849637436
Auvergne-Rhône-Alpes,38,421,,SAINT-MARTIN-D'HÈRES,5.767761,45.165133,35220.4950197677
Île-de-France,94,68,,SAINT-MAUR-DES-FOSSES,2.485429,48.8029439,77159.9440917271
Pays de la Loire,44,184,,SAINT-NAZAIRE,-2.213848,47.2734979,67744.6923901933
Île-de-France,93,70,,SAINT-OUEN,2.333764,48.911856,47966.2969275123
Auvergne-Rhône-Alpes,69,290,,SAINT-PRIEST,4.947071,45.698938,42476.7758482459
Hauts-de-France,2,691,,SAINT-QUENTIN,3.2874,49.847066,55661.3351191248
Provence-Alpes-Côte d'Azur,83,118,,SAINT-RAPHAËL,6.76837,43.42519,34942.6694897027
Île-de-France,91,549,,SAINTE-GENEVIÈVE-DES-BOIS,2.326838,48.642943,34397.7143907494
Provence-Alpes-Côte d'Azur,13,103,,SALON-DE-PROVENCE,5.097022,43.640199,43162.9063147741
Île-de-France,95,585,,SARCELLES,2.378493,48.997347,59107.7170976661
Île-de-France,78,586,,SARTROUVILLE,2.158431,48.941106,51707.6836184721
Île-de-France,77,445,,SAVIGNY-LE-TEMPLE,2.580987,48.59586,29019.7638456977
Île-de-France,91,589,,SAVIGNY-SUR-ORGE,2.349282,48.6851259,36969.2083023521
Grand Est,67,447,,SCHILTIGHEIM,7.748453,48.605226,31239.699397433
Occitanie,34,301,,SÈTE,3.696624,43.40215,43622.1760268802
Île-de-France,93,71,,SEVRAN,2.538716,48.93897,51539.9842548634
Provence-Alpes-Côte d'Azur,83,126,LA,SEYNE-SUR-MER,5.878219,43.102976,60611.3947200171
Provence-Alpes-Côte d'Azur,83,129,,SIX-FOURS-LES-PLAGES,5.839225,43.093062,35332.0106635955
Normandie,76,681,,SOTTEVILLE-LES-ROUEN,1.095407,49.41725,29880.4601544111
Île-de-France,93,72,,STAINS,2.384703,48.955387,35207.9128149849
Grand Est,67,482,,STRASBOURG,7.747882,48.583148,272491.152991646
Île-de-France,92,73,,SURESNES,2.219033,48.869798,46846.0099923998
Nouvelle-Aquitaine,33,522,,TALENCE,-0.588054,44.802614,41785.4380584215
Occitanie,65,440,,TARBES,0.078082,43.232951,43763.7288346039
Île-de-France,94,73,,THIAIS,2.387405,48.760344,29616.2716203823
Grand Est,57,672,,THIONVILLE,6.168426,49.357571,41189.8175396552
Auvergne-Rhône-Alpes,74,281,,THONON-LES-BAINS,6.477635,46.373565,37145.3381840832
Provence-Alpes-Côte d'Azur,83,137,,TOULON,5.928,43.124228,170136.603130656
Occitanie,31,555,,TOULOUSE,1.444209,43.604652,448859.680680925
Hauts-de-France,59,599,,TOURCOING,3.16207,50.724993,91961.1577465872
Centre-Val de Loire,37,261,,TOURS,0.68484,47.394144,135746.951146626
Île-de-France,78,621,,TRAPPES,2.001844,48.776731,29505.4747433726
Île-de-France,93,73,,TREMBLAY-EN-FRANCE,2.557211,48.979952,35533.5568691754
Grand Est,10,387,,TROYES,4.074735,48.2965919,61148.4622774985
Auvergne-Rhône-Alpes,26,362,,VALENCE,4.89236,44.933393,64739.5860009379
Hauts-de-France,59,606,,VALENCIENNES,3.518332,50.357113,42894.9166693017
Provence-Alpes-Côte d'Azur,6,155,,VALLAURIS,7.055041,43.577244,29788.8749311797
Grand Est,54,547,,VANDOEUVRE-LES-NANCY,6.17376,48.661118,30827.6326736122
Bretagne,56,260,,VANNES,-2.760847,47.658236,52355.667565279
Auvergne-Rhône-Alpes,69,256,,VAULX-EN-VELIN,4.922661,45.782029,41909.0433409899
Auvergne-Rhône-Alpes,69,259,,VÉNISSIEUX,4.8844649,45.699594,58591.3562259618
Île-de-France,78,646,,VERSAILLES,2.130122,48.801408,87446.9005638265
Auvergne-Rhône-Alpes,38,544,,VIENNE,4.874339,45.525587,29531.0181356221
Auvergne-Rhône-Alpes,69,264,,VILLEFRANCHE-SUR-SAÔNE,4.718821,45.991471,35218.8561955291
Île-de-France,94,76,,VILLEJUIF,2.359279,48.792716,56192.5002102176
Hauts-de-France,59,9,,VILLENEUVE-D'ASCQ,3.145,50.6233,63920.5383600078
Île-de-France,94,78,,VILLENEUVE-SAINT-GEORGES,2.447488,48.7305769,31350.5890330961
Île-de-France,93,78,,VILLEPINTE,2.542867,48.960226,35709.5410182235
Auvergne-Rhône-Alpes,69,266,,VILLEURBANNE,4.8901709,45.771944,147137.933632643
Île-de-France,94,80,,VINCENNES,2.4394969,48.847759,49579.663602604
Île-de-France,91,687,,VIRY-CHATILLON,2.375902,48.666218,31725.6362192633
Provence-Alpes-Côte d'Azur,13,117,,VITROLLES,5.249703,43.458598,35433.1671342167
Île-de-France,94,81,,VITRY-SUR-SEINE,2.39851,48.792001,86921.9158020089
Hauts-de-France,59,650,,WATTRELOS,3.215007,50.701174,41734.9959377091
Île-de-France,91,691,,YERRES,2.490967,48.712858,29424.2207092186
